<?xml version="1.0" encoding="UTF-8" standalone="no"?>
<!-- Created with Inkscape (http://www.inkscape.org/) -->

<svg
   version="1.1"
   id="svg1"
   width="822.22223"
   height="311.11111"
   viewBox="0 0 822.22223 311.11111"
   sodipodi:docname="favicon.png"
   xmlns:inkscape="http://www.inkscape.org/namespaces/inkscape"
   xmlns:sodipodi="http://sodipodi.sourceforge.net/DTD/sodipodi-0.dtd"
   xmlns:xlink="http://www.w3.org/1999/xlink"
   xmlns="http://www.w3.org/2000/svg"
   xmlns:svg="http://www.w3.org/2000/svg">
  <defs
     id="defs1" />
  <sodipodi:namedview
     id="namedview1"
     pagecolor="#ffffff"
     bordercolor="#000000"
     borderopacity="0.25"
     inkscape:showpageshadow="2"
     inkscape:pageopacity="0.0"
     inkscape:pagecheckerboard="0"
     inkscape:deskcolor="#d1d1d1" />
  <g
     inkscape:groupmode="layer"
     inkscape:label="Image"
     id="g1">
    <image
       width="822.22223"
       height="311.11111"
       preserveAspectRatio="none"
       xlink:href="data:image/png;base64,iVBORw0KGgoAAAANSUhEUgAABzoAAAK8CAYAAACX9rlHAAAAx3pUWHRSYXcgcHJvZmlsZSB0eXBl&#10;IGV4aWYAAHjabVBbDsQgCPznFHsEBKpyHPtKeoM9/qJg0jY7iQNldArA8b1O+HRQEpCl1Kw5o0FU&#10;lJolFR1tcEIZPMANS1QfdVg3pJGRlbjfdKFmj2nW48GMqVm23IzqFsL6FFQ8Un0ZUXTWO+r5HkYa&#10;RkwupDBoPhZmreU+wnrgE9UPdMonjYFoPn59S7Ht7Yv9h4kOTozGzOINcD8M3LpgjGxNGavlMtjd&#10;ki/k354m4Acg21p3odZR9wAAAYRpQ0NQSUNDIHByb2ZpbGUAAHicfZE9SMNAHMVfU0UpVQc7iDhk&#10;qJ0sgoo4lioWwUJpK7TqYHLpFzRpSFJcHAXXgoMfi1UHF2ddHVwFQfADxNXFSdFFSvxfUmgR48Fx&#10;P97de9y9A4RmlalmTwxQNctIJ+JiLr8q9r0iAD8GMYmIxEw9mVnMwnN83cPH17soz/I+9+cYUAom&#10;A3wicYzphkW8QTy7aemc94lDrCwpxOfEEwZdkPiR67LLb5xLDgs8M2Rk0/PEIWKx1MVyF7OyoRLP&#10;EIcVVaN8IeeywnmLs1qts/Y9+QuDBW0lw3WaY0hgCUmkIEJGHRVUYSFKq0aKiTTtxz38o44/RS6Z&#10;XBUwciygBhWS4wf/g9/dmsXpKTcpGAd6X2z7Yxzo2wVaDdv+Prbt1gngfwautI6/1gTmPklvdLTw&#10;ETC0DVxcdzR5D7jcAUaedMmQHMlPUygWgfcz+qY8MHwLBNbc3tr7OH0AstTV8g1wcAhESpS97vHu&#10;/u7e/j3T7u8H0t1yzQJyYh0AAA12aVRYdFhNTDpjb20uYWRvYmUueG1wAAAAAAA8P3hwYWNrZXQg&#10;YmVnaW49Iu+7vyIgaWQ9Ilc1TTBNcENlaGlIenJlU3pOVGN6a2M5ZCI/Pgo8eDp4bXBtZXRhIHht&#10;bG5zOng9ImFkb2JlOm5zOm1ldGEvIiB4OnhtcHRrPSJYTVAgQ29yZSA0LjQuMC1FeGl2MiI+CiA8&#10;cmRmOlJERiB4bWxuczpyZGY9Imh0dHA6Ly93d3cudzMub3JnLzE5OTkvMDIvMjItcmRmLXN5bnRh&#10;eC1ucyMiPgogIDxyZGY6RGVzY3JpcHRpb24gcmRmOmFib3V0PSIiCiAgICB4bWxuczp4bXBNTT0i&#10;aHR0cDovL25zLmFkb2JlLmNvbS94YXAvMS4wL21tLyIKICAgIHhtbG5zOnN0RXZ0PSJodHRwOi8v&#10;bnMuYWRvYmUuY29tL3hhcC8xLjAvc1R5cGUvUmVzb3VyY2VFdmVudCMiCiAgICB4bWxuczpkYz0i&#10;aHR0cDovL3B1cmwub3JnL2RjL2VsZW1lbnRzLzEuMS8iCiAgICB4bWxuczpHSU1QPSJodHRwOi8v&#10;d3d3LmdpbXAub3JnL3htcC8iCiAgICB4bWxuczp0aWZmPSJodHRwOi8vbnMuYWRvYmUuY29tL3Rp&#10;ZmYvMS4wLyIKICAgIHhtbG5zOnhtcD0iaHR0cDovL25zLmFkb2JlLmNvbS94YXAvMS4wLyIKICAg&#10;eG1wTU06RG9jdW1lbnRJRD0iZ2ltcDpkb2NpZDpnaW1wOjdkYWUwNjE1LWY5OTktNDNlYi1iYWFh&#10;LWE4YjBjMzRiOWEzMSIKICAgeG1wTU06SW5zdGFuY2VJRD0ieG1wLmlpZDo0NGJmZDY5MC1iMTEw&#10;LTQ3ZDAtYWU2YS0wOWUwMmQ1NTQzNTMiCiAgIHhtcE1NOk9yaWdpbmFsRG9jdW1lbnRJRD0ieG1w&#10;LmRpZDoyY2Q4ZjI1ZC1jNDI2LTQ0MTEtYmE0Ni1mNjNiYzQxY2MxOWYiCiAgIGRjOkZvcm1hdD0i&#10;aW1hZ2UvcG5nIgogICBHSU1QOkFQST0iMi4wIgogICBHSU1QOlBsYXRmb3JtPSJXaW5kb3dzIgog&#10;ICBHSU1QOlRpbWVTdGFtcD0iMTY5NjM0NDU2MzAzODU5NSIKICAgR0lNUDpWZXJzaW9uPSIyLjEw&#10;LjM0IgogICB0aWZmOk9yaWVudGF0aW9uPSIxIgogICB4bXA6Q3JlYXRvclRvb2w9IkdJTVAgMi4x&#10;MCIKICAgeG1wOk1ldGFkYXRhRGF0ZT0iMjAyMzoxMDowM1QwOTo0OToyMC0wNTowMCIKICAgeG1w&#10;Ok1vZGlmeURhdGU9IjIwMjM6MTA6MDNUMDk6NDk6MjAtMDU6MDAiPgogICA8eG1wTU06SGlzdG9y&#10;eT4KICAgIDxyZGY6U2VxPgogICAgIDxyZGY6bGkKICAgICAgc3RFdnQ6YWN0aW9uPSJzYXZlZCIK&#10;ICAgICAgc3RFdnQ6Y2hhbmdlZD0iLyIKICAgICAgc3RFdnQ6aW5zdGFuY2VJRD0ieG1wLmlpZDoy&#10;YTQ1MDI5Yi1lMmZkLTRmM2QtODRmYi1mOTljMmVkZmJiOTgiCiAgICAgIHN0RXZ0OnNvZnR3YXJl&#10;QWdlbnQ9IkdpbXAgMi4xMCAoV2luZG93cykiCiAgICAgIHN0RXZ0OndoZW49IjIwMjMtMTAtMDNU&#10;MDk6NDk6MjMiLz4KICAgIDwvcmRmOlNlcT4KICAgPC94bXBNTTpIaXN0b3J5PgogIDwvcmRmOkRl&#10;c2NyaXB0aW9uPgogPC9yZGY6UkRGPgo8L3g6eG1wbWV0YT4KICAgICAgICAgICAgICAgICAgICAg&#10;ICAgICAgICAgICAgICAgICAgICAgICAgICAgICAgICAgICAgICAgICAgICAgICAgICAgICAgICAg&#10;ICAgICAgICAgICAgICAgICAgICAgIAogICAgICAgICAgICAgICAgICAgICAgICAgICAgICAgICAg&#10;ICAgICAgICAgICAgICAgICAgICAgICAgICAgICAgICAgICAgICAgICAgICAgICAgICAgICAgICAg&#10;ICAgICAgICAgCiAgICAgICAgICAgICAgICAgICAgICAgICAgICAgICAgICAgICAgICAgICAgICAg&#10;ICAgICAgICAgICAgICAgICAgICAgICAgICAgICAgICAgICAgICAgICAgICAgICAgICAgICAKICAg&#10;ICAgICAgICAgICAgICAgICAgICAgICAgICAgICAgICAgICAgICAgICAgICAgICAgICAgICAgICAg&#10;ICAgICAgICAgICAgICAgICAgICAgICAgICAgICAgICAgICAgICAgIAogICAgICAgICAgICAgICAg&#10;ICAgICAgICAgICAgICAgICAgICAgICAgICAgICAgICAgICAgICAgICAgICAgICAgICAgICAgICAg&#10;ICAgICAgICAgICAgICAgICAgICAgICAgICAgCiAgICAgICAgICAgICAgICAgICAgICAgICAgICAg&#10;ICAgICAgICAgICAgICAgICAgICAgICAgICAgICAgICAgICAgICAgICAgICAgICAgICAgICAgICAg&#10;ICAgICAgICAgICAgICAKICAgICAgICAgICAgICAgICAgICAgICAgICAgICAgICAgICAgICAgICAg&#10;ICAgICAgICAgICAgICAgICAgICAgICAgICAgICAgICAgICAgICAgICAgICAgICAgICAgICAgICAg&#10;IAogICAgICAgICAgICAgICAgICAgICAgICAgICAgICAgICAgICAgICAgICAgICAgICAgICAgICAg&#10;ICAgICAgICAgICAgICAgICAgICAgICAgICAgICAgICAgICAgICAgICAgICAgCiAgICAgICAgICAg&#10;ICAgICAgICAgICAgICAgICAgICAgICAgICAgICAgICAgICAgICAgICAgICAgICAgICAgICAgICAg&#10;ICAgICAgICAgICAgICAgICAgICAgICAgICAgICAgICAKICAgICAgICAgICAgICAgICAgICAgICAg&#10;ICAgICAgICAgICAgICAgICAgICAgICAgICAgICAgICAgICAgICAgICAgICAgICAgICAgICAgICAg&#10;ICAgICAgICAgICAgICAgICAgIAogICAgICAgICAgICAgICAgICAgICAgICAgICAgICAgICAgICAg&#10;ICAgICAgICAgICAgICAgICAgICAgICAgICAgICAgICAgICAgICAgICAgICAgICAgICAgICAgICAg&#10;ICAgICAgCiAgICAgICAgICAgICAgICAgICAgICAgICAgICAgICAgICAgICAgICAgICAgICAgICAg&#10;ICAgICAgICAgICAgICAgICAgICAgICAgICAgICAgICAgICAgICAgICAgICAgICAgICAKICAgICAg&#10;ICAgICAgICAgICAgICAgICAgICAgICAgICAgICAgICAgICAgICAgICAgICAgICAgICAgICAgICAg&#10;ICAgICAgICAgICAgICAgICAgICAgICAgICAgICAgICAgICAgIAogICAgICAgICAgICAgICAgICAg&#10;ICAgICAgICAgICAgICAgICAgICAgICAgICAgICAgICAgICAgICAgICAgICAgICAgICAgICAgICAg&#10;ICAgICAgICAgICAgICAgICAgICAgICAgCiAgICAgICAgICAgICAgICAgICAgICAgICAgICAgICAg&#10;ICAgICAgICAgICAgICAgICAgICAgICAgICAgICAgICAgICAgICAgICAgICAgICAgICAgICAgICAg&#10;ICAgICAgICAgICAKICAgICAgICAgICAgICAgICAgICAgICAgICAgICAgICAgICAgICAgICAgICAg&#10;ICAgICAgICAgICAgICAgICAgICAgICAgICAgICAgICAgICAgICAgICAgICAgICAgICAgICAgIAog&#10;ICAgICAgICAgICAgICAgICAgICAgICAgICAgICAgICAgICAgICAgICAgICAgICAgICAgICAgICAg&#10;ICAgICAgICAgICAgICAgICAgICAgICAgICAgICAgICAgICAgICAgICAgCiAgICAgICAgICAgICAg&#10;ICAgICAgICAgICAgICAgICAgICAgICAgICAgICAgICAgICAgICAgICAgICAgICAgICAgICAgICAg&#10;ICAgICAgICAgICAgICAgICAgICAgICAgICAgICAKICAgICAgICAgICAgICAgICAgICAgICAgICAg&#10;ICAgICAgICAgICAgICAgICAgICAgICAgICAgICAgICAgICAgICAgICAgICAgICAgICAgICAgICAg&#10;ICAgICAgICAgICAgICAgIAogICAgICAgICAgICAgICAgICAgICAgICAgICAgICAgICAgICAgICAg&#10;ICAgICAgICAgICAgICAgICAgICAgICAgICAgICAgICAgICAgICAgICAgICAgICAgICAgICAgICAg&#10;ICAgCiAgICAgICAgICAgICAgICAgICAgICAgICAgIAo8P3hwYWNrZXQgZW5kPSJ3Ij8+WcTF4wAA&#10;AAZiS0dEAP8A/wD/oL2nkwAAAAlwSFlzAAAhNwAAITcBM1ifegAAAAd0SU1FB+cKAw4xFqeHqTwA&#10;ACAASURBVHja7N3ddRtHtj/s35k19+Q/AtERiCcCwhGIE4Hg1bg3HYGhCEzdo5fBCIaKYMAIhozA&#10;YARHjOB9L7pp0bJEgmR3oz+eZy0tf9EAWF2orq5de1cCAAAAAAAAAAAAAAAAAAAAAAAAAAAAAAAA&#10;AAAAAAAAAAAAAAAAAAAAAAAAAAAAAAAAAAAAAAAAAAAAAAAAAAAAAAAAAAAAAAAAAAAAAAAAAAAA&#10;AAAAAAAAAAAAAAAAAAAAAAAAAAAAAAAAAAAAAAAAAAAAAAAAAAAAAAAAAAAAAAAAAAAAAAAAAAAA&#10;AAAAAAAAAAAAAAAAAAAAAAAAAAAAAAAAAAAAAAAAAAAAAAAAAAAAAAAAAAAAAAAAAAAAAAAAAAAA&#10;AAAAAAAAAAAAAAAAAAAAAAAAAAAAAAAAAAAAAAAAAAAAAAAAAAAAAAAAAAAAAAAAAAAAAAAAAAAA&#10;AAAAAAAAAAAAAAAAAAAAAAAAAAAAAAAAAAAAAAAAAAAAAAAAAAAAAAAAAAAAAAAAAAAAAAAAAAAA&#10;AAAAAAAAAAAAAAAAAAAAAAAAAAAAAAAAAAAAAAAAAAAAAAAAAAAAAAAAAAAAAAAAAAAAAAAAAAAA&#10;AAAAAAAAAAAAAAAAANCi/9EEAM0oy9WswZe7LorFZ60KAAAAAADfJtAJkL8FKR/+/WGS469+/GSP&#10;H/UmycMA6Lb+c+/6wX8XLAUAAAAAYLQEOoFRK8vVUZKHfx4GLo+THEykKa7qv27rP59TBUVTFIuN&#10;ngIAAAAAwNAIdAKDV2dj3gcwjx78eaN1nuUqXwKg93/dFsViq2kAAAAAAOgbgU5gEB5kZs7yJZA5&#10;pYzMfbtJlQl6Xf/5LBMUAAAAAIB9EugEeqfO0LzPzjzOfs/E5HFfB0CvZYACAAAAANAFgU5gb8py&#10;dV9udlb/9TjKzY7BXR4EPpNsBD8BAAAAAGiaQCfQmbJcfR3UfKtVJuM++LnJl+DnZ80CAAAAAMBL&#10;CXQCralL0N7/UX6Wr92mCnxuUpW8vdYkAAAAAADsSqATaERdhnb24I9sTZ7rLl8CnxuBTwAAAAAA&#10;HiPQCbzYg4zN0whs0ryHgc9L53wCAAAAAPCQQCews7JcHaUKas6SvNMidOy+1O1lnPEJAAAAADB5&#10;Ap3Ao8pydR/YPE3yRovQIzdJ1lHmFgAAAABgkgQ6gb+oszZnqQKbsjYZij+zPYticak5AAAAAADG&#10;T6ATeFiSdh5nbTJ892d7XqYKfCpxCwAAAAAwQgKdMFGCm0zIpwh6AgAAAACMjkAnTIjgJgh6AgAA&#10;AACMhUAnjJzgJnyXoCcAAAAAwIAJdMIIleXqMFVw8zTJOy0Cj7rLl4DnpeYAAAAAABgGgU4YkbJc&#10;zVJlbp4mOdAir3abZPvgnzdf/ffrJN/LBLx+bpZgff2+5TDJ8Vf/7rj+90lylOSNy9XYNb9Msi6K&#10;xbXmAAAAAADoL4FOGLi6NO28/iPYtZubVAHKbf3nc6qgZZJsi2KxHXh/OKr/8T4Y+jBQeuLyP6uf&#10;nEdpWwAAAACAXhLohIEqy9X9uZtK0/7dfSbmfcbln38VsPqz/8zqv53lSyD0KILl33ORKstzoykA&#10;AAAAAPpBoBMGRPbm39zkS0DzOslngahG+tl90PP+r0eRCXrvNlWW51rQHAAAAABgvwQ6YQAenL35&#10;fqJNcJcqkLmp/7p1fuJe+uHDAOj9nykH3C+SnOuLAAAAAAD7IdAJPVWWq8Mkp0mWmVYw6S5fApqb&#10;KDc7hH56nKoE7lSDnzepAp5rPQIAAAAAoDsCndAzD8rTniU5mMCvfJW/BjW3esHg+/BhvgQ+Z5lO&#10;2du7VGVtzwXnAQAAAADaJ9AJPVGXBT3LuMvTPixBu3Ge5qT69yxfAp+zjD+If5FkKXAPAAAAANAe&#10;gU7YszoAtMx4s94+5Utg01mG3Pf7h0HPWcYb+LxKFfDcuOoAAAAAAM0S6IQ9KcvVPFUG59uR/Wo3&#10;SS4jY5PnfR/uA5+nGWfQ3zmeAAAAAAANE+iEjtUBzmWSNyP5lW5TZWzeBzedTUgT35PTfAl8vhnR&#10;r3abKsNz7SoDAAAAALyOQCd0ZGQBzvuszUvlaOngu3OUKuA5pmzP23o8uLQ5AAAAAADgZQQ6oWUj&#10;CnB+ypesza0ry56+T4f5EvScZfhne94lOU9V1lbAEwAAAADgGQQ6oSUjCXDeBzdlndHX79l90PM0&#10;ww56CngCAAAAADyTQCc0bAQBTsFNhvrdG0PQ8y5VsHPpigIAAAAAPE6gExoy8ACn4CZj+z4OPeh5&#10;m2RZFIu1qwkAAAAA8G0CnfBKZbmapSo5+XZgH/0myTrJWnCTEX8/H57p+W6Av4KAJwAAAADAdwh0&#10;wgvVAc5lkpMBfezbVJmb50Wx2LqKTOw7e5hkXv8Z4saEs6JYbFxJAAAAAICKQCc8U1mujlIFON8P&#10;6GN/SpW5eekKQlKWq+N8CXoOqbTtVaqA57WrCAAAAABMnUAn7KjOBjtL8utAPvJtqpK6StPC49/t&#10;eaqA55Cysy9SlbTduoIAAAAAwFQJdMIO6kDIeYaR+fUpVWnajSsHz/qeH6XazDAfyHf9rh6Xzm1m&#10;AAAAAACmSKATHlGfw3me/p/ndx/wWMvwgka++/MMJ8vzNlU5W6WpAQAAAIBJEeiEb6jL1J6n/+dw&#10;XqUKbq5dNWhlLDhOleU5hDN5nd8JAAAAAEyKQCd8pSxXZ0mW6XfpyotUAc6NKwadjAv3Z/TOk7zp&#10;+cf9mOr8TuVsAQAAAIBRE+iE2gDK1N4lWac6j2/risHexop5qqBnn0ta36XK7ly7YgAAAADAWAl0&#10;MnkDKFN7my8BThla0J+xY5Yq4Pmuxx9TOVsAAAAAYLQEOpm0OjPrPP0sU3ubqvzk2pWCXo8jR6nK&#10;Xff5HM8PsVkCAAAAABgZgU4mqQ5MrJOc9PDjCXDCcMeV+3M8+7p5Yu5sXwAAAABgLAQ6mZyyXC1T&#10;BSP6FogQ4IRxjDGH9RjTx3EmST6lCnjK7gQAAAAABk2gk8koy9VxqizOtz37aAKcMM4xp88Bz7tU&#10;wc5LVwoAAAAAGCqBTiahzuL8tWcfS4ATpjH+9DngeZUq4Ll1pQAAAACAoRHoZNR6msUpwAnTHI/6&#10;GvC8q8ekc1cJAAAAABgSgU5Gq4dZnAKcQJ8DnldJTp3dCQAAAAAMhUAno1OWq6Mkl+lPFuddkvMk&#10;5wIIwIOx6rAeG9736GM5uxMAAAAAGAyBTkalLFdnSZbpT5bUx1RZnAKcwPfGraN63OpTwPNTqoCn&#10;sQsAAAAA6C2BTkahzoxaJ3nXk4/0KclZUSy2rg6w4zg2SxXwPOnJR7pLVcp24+oAAAAAAH0k0Mng&#10;1cGBy/Qji/MmVYBz48oArxjT1kne9OQjfSyKxZkrAwAAAAD0jUAng1aWq/MkP/fgo9ylCnCuXRWg&#10;ofGtT6W4b1KVsr12ZQAAAACAvhDoZJDKcnWcKuPpbQ8+jnM4gbbGusNUwc6+bOhYFsXi3JUBAAAA&#10;APpAoJPBKcvVPMl59p/ldJUqi1OGE9D2uHeUanNHH87v/JQqu9PmDgAAAABgrwQ6GYw6s+k8yfs9&#10;fxRlaoF9jYOn9Ti47/M7b5Oc2ugBAAAAAOzTPzQBQ1CXqt1k/0HOj0mOBDmBfSiKxWWS4yQf9vxR&#10;3iT5b32OKAAAAADAXsjopPfqDKZ19luq9iZVFufGFQF6MjYepR/lbJWyBQAAAAD2QqCTXivL1XmS&#10;n/f4Ee6SnBfFYulqAD0dJ+fZ/7nFN6mCnUrZAgAAAACdEeikl+rzOC+z30ylq1QL91tXBBjAmLnv&#10;M4ydXwwAAAAAdEqgk955cB7nvrKT7pIsi2Jx7moAAxs/Z6nK2b7Z48f4WBQLZ3cCAAAAAK0T6KRX&#10;6hKMv+/xI8jiBIY+jh4mWWa/Zb9vksyc2wkAAAAAtEmgk94oy9U6+yu7KIsTGNuYepwqu/PtHsfV&#10;mXM7AQAAAIC2CHSydz04j1MWJzDmMXaZ5Nc9vb1zOwEAAACA1gh0sld7zjiSxQkYa7vh3E4AAAAA&#10;oHECnexNWa5mqTI5D/bw9jepsjiVVASmMubu++zOT/W469xOAAAAAKARAp3sRVmu5kl+39PbyywC&#10;pjz+zlJld77Zw9vfJDlVKhwAAAAAaIJAJ50ry9U6yfs9vPVdqgX2jasATHwcPkwV7Hy3p7F4JqMe&#10;AAAAAHgtgU46Uy+sn2c/QU4lEwH+Pi7P63G56xLid0nOimKxdhUAAAAAgJcS6KQTdZBzk+TtHt7+&#10;l6JYnLsKAN8cn49SnZe8j/H5J8FOAAAAAOClBDppXVmujlOVSOx6Ef02Vala5REBnh6rz5P8vIe3&#10;viiKxdwVAAAAAACeS6CTVtVBzk26L4uoVC3A88fs01QbU7oesy9SlbI1ZgMAAAAAOxPopDV7XDBX&#10;qhbg5WP3UfZTyvYmyUywEwAAAADYlUAnrSjL1TzJ7x2/7V2qRXKlagFeP47vo5StYCcAAAAAsDOB&#10;Thq3pyCnxXGA5sfzfWTm27QCAAAAAOxEoJNG7SkD6GNRLM60PkAr4/pxqmBnl6VsBTsBAAAAgCcJ&#10;dNKYslytk7zv8C3vkpwVxWKt9QFaHd8Pk5zvYYwX7AQAAAAAvkugk0bsKchpARyg27H+LMlvHY/1&#10;NrQAAAAAAN8k0Mmr7SHI6TxOgP2N+bMkl+n23M6fBDsBAAAAgK/9QxPwGnsIcl5EkBNgb4pisUky&#10;S7XppCu/l+VqrvUBAAAAgIdkdPIiezqv7UNRLJZaH6A394HLJCcdvq3MTgAAAADgTwKdPFu9uL1J&#10;8rajt3RGGwxvnDhKskxyVP+rM2fqjvZar9PtphfBTgAAAAAgiUAnz7SnIOdMgAQGNU4sk5zlr2c4&#10;3iU5UnZ6tNd8nuT3Dt9SsBMAAAAAcEYnu9tDkPMmybEgJwxmjDguy9V1kl/z1yBn6n8+00rjVAcd&#10;/5UqoN0FZ3YCAAAAADI62V1Zrjbp7iy2m1SZnLK/oP9jw2GqMrU/P/GjsjrH3xeOU22IOejoLWV2&#10;AgAAAMCEyehkJ/UZbF0FOS8iyAlDGRtmSa7zdJAzqYJfp1ptvOoM/KNUm1W6ILMTAAAAACZMRidP&#10;qoOc7zt6u4uiWMy1OvR+XDhMsk7y7pn/621RLI604CT6xybdlTqX2QkAAAAAEyTQyaM6DnL+UhSL&#10;c60OvR8X5knO8/LypP8qisWllnQPaZhgJwAAAABMjEAn32WBGvhqTDhKlcX52jLWV0WxmGlR9xL3&#10;EgAAAADgNZzRyTdZmAa+GhOWSf5IM2f1npTl6lirTkNdjvyXjt7u9/rcWAAAAABgAgQ6+ZuyXJ2l&#10;myDnXaoSlmutDr0dD2Zludom+bXhlz7TutNRlyX/qaO3uxRIBwAAAIBpULqWv6jP3vu9g7e6SzIr&#10;isW1VodejgWHqc7hbHPTww9FsdhqbfcY9xgAAAAA4CVkdPInC9DAg7Fgm/Yzu2V1Tkydwd9FZudB&#10;ko3MTgAAAAAYNxmdJEnqxeD/dvBWgpzQ33HgKMk6zZzDuet4cFQUi89af5L3nE2qgGSbbup7jj4G&#10;AAAAACMko5OHC85tE+SEfo4Bh2W5Wib5I90FOZMqyCWrc4Lq+8Csvi+06W2qzM5DrQ4AAAAA4yPQ&#10;OXF1Btcm7WfVCHJCP8eAWZLrJL/u6SPMXYVp6jjYeanFAQAAAGB8lK6dsDrDZZNqEbhNgpzQv+//&#10;UZLzJO968HF+qs9uZJp9sasythdFsZhrcQAAAAAYDxmd07aJICdMTlmuzlJlcb7ryUdSvnbCOszs&#10;fF+Wq3MtDgAAAADjIaNzospytU7yvuW3EeSEfn3vZ6myON/28OP9WBSLjas06f7ZVWanDGIAAAAA&#10;GAmBzgkqy9Uy7Z/HJ8j58utzlOrcwuuiWDhXjib61GGqAOf7Hn/Mq6JYzFytyffVroKd/zK+AgAA&#10;AMDwCXROTFmu5kl+b/ltBDlffn3OkizzZZHfYjxN96k++6EoFltXbfJ9totgp/sUAAAAAIyAQOeE&#10;1IvH/235bSwev+zaHCVZJzn56j/dJjkuisVnrcQLvu/n3+hTfXZRFIu5q0ddZvk/Lb+N8RUAAAAA&#10;Bu4fmmAa6kDapoO3OhXkfPa1WSa5zrcDUm+SnGklntGfDstydZ5qU8PJwD7++7rMLhNXn9f6U8tv&#10;8ybJRp8DAAAAgOES6JyAehH3Mu2XrvypXpxmt+syK8vVdarzUh+7NmcW4tmxT82TbJP8POBfQ2Cf&#10;JElRLNZpP9j5NlXmMwAAAAAwQAKd07BOtZjbpp/qRWme8CDj7j87XpeDWIjn8T51XJarTarzdw8G&#10;/uvMXVHudRTsfF+fZQsAAAAADIwzOkeuLov6a8tv80tRLATidrsep6kCzy8JRv2vssB81Z8Okywz&#10;7AzOb7Fxgn3cy/5VFItLrQ0AAAAAwyGjc8TqMpZtLwxfCHLudC2O6oy7f+flGXdrLclX3+9txhfk&#10;TJSv5StFsVgmuWj5bdZluTrW2gAAAAAwHDI6R6perN2k3TKWF0WxmGvtJ6/FMs0FnGW66U/HqUoZ&#10;n4z8V5XBzLf6/zrJ+xbf4ibJrCgWn7U2AAAAAPSfjM4RqstZrtNukPNGkPPJ6zAry9U2zWbVnmrZ&#10;6X6v67Nd/5vxBzkTWZ18Q33fuWnxLd5G9jwAAAAADIZA5zitUy3WtuUmyUwzf1sdkLpM8p8kbxp+&#10;+UMtPMk+Nc/+y9TeJLlK8uGrPxf1v79r+P3e15s24GuztBvsfFdn4gMAAAAAPfdPTTAu9eLsuxbf&#10;4i7JqbJ+323/syTLtJtNy3T6077K1N6lKn29SbLZtYRs/XlnqbIxmwjy33+f4E9FsfhclqvTJNct&#10;jrW/luXquigWl1ocAAAAAPrLGZ0jUparWaoswrbcpTq7zLl5f2/747SfSZskH4tioaTn+PvTYaoA&#10;5/sO3/Y2yWWSdRPf8Xo8WuZ1Qdrbolgc6RE8Mu5u0l6w8y7JcVEstlobAAAAAPpJoHMk6sDINu1m&#10;Ev5Ldss3232ZbkqK3iU5kk07+j7VZVbwXaoA/bqtDQx15t36Fb+PcYen+te/W3yLm6JYHGtpAAAA&#10;AOgngc6RKMvVddrNJvylKBbnWvovbT5PlXXXVUBKNu24+9Os7k9vO3i7q1TBzXVHv9thqsy7l/xu&#10;n4picaqH8MRY/HuLbyGTHgAAAAB6SqBzBMpydZ52MwovimIx19J/tnfX5yZexbmoY+5PR6kyONsu&#10;U3ufvXm+r1KcZblav/D3/EH5UFrqW7v6qauNAQAAAADA7gQ6B07Zvk7bussytUkVmFrKpB11n1om&#10;OUu7WcGdZm/u8Duv8/yA1IeiWCz1GJ7oW5u0twHFeZ0AAAAA0EP/1ATDVQfe1i2+xW2SmZbuvExt&#10;UgWn5hbVR9ufZvV3902Lb3ORKnuzb+WOz5Ic53llbOepNhnAY06TXLf0vTpIcln3XQAAAACgJ2R0&#10;DlgH2SuTPxNyD2VqE9lrY+5PR6kCnG1+b89TZXBue94O13nexoEfi2Kx0YvYYczepL1NKc7rBAAA&#10;AIAeEegcqLrk5a8tvsWkzyPbQ5napMqgPZ16cHnE/emsxe/sbd1fL4dylmtZrs6S/PaM/8VZweza&#10;t9ou6f6volhcamkAAAAA2D+BzgGqM1b+2+JbTDpjZQ9lapOqzOjZUIJU9KY/9er8zRe0zTa7lxm9&#10;K4rFoR7Fjn1rmfY2FtwlOTJeAwAAAMD+CXQOTJ0Z1tYZZElyVRSL2UTbdh9lau9SBTjXerf+9Jzv&#10;aZLl0Eu51kHg35/xv8ik4zn96zLJO/dKAAAAABivf2iCwTlPe0HOuySnU2vQslwdluXqPFWWbJdB&#10;zptU56CudevR9ad1S/3pKtVZlbMxnFdZ9/3bZ/wvp3oYzzCvx9k2nNTllwEAAACAPRLoHJD63LH3&#10;Lb7FbGql+OqMsm26PYszST7V7e08znH1p7O6PzX9PR1VgPMr62f8rEAnO6vvZ/NUm3ja8FuduQ0A&#10;AAAA7InStQNRl6zdpr1zI38pisX5hNpzlio79u0e3v5DUSyWevXo+tM6zWdbj6JE7RNtd5Tkj2f8&#10;L/9rgwDP7GPzPK9E8nPcFMVCsBMAAAAA9kSgcyDKcrVJe2VVPxXF4nQi7XiYKsD5fg9vf5dk7ozB&#10;UfWno1QBzjZK1I46wPlVOz7nLEUbBXhJH1u3OO5/LIqFMrYAAAAAsAf/1AT9V5fDbCvIeZuqtN8U&#10;2nGZ5CztZcU+1c6nMtFG05cO6770a8MvPakA5wPr7B7onOmBvMBZkuO0k8X/c1muLif4vQUAAACA&#10;vZPR2XN1xth12gvOjb4MZItlRXd1kwmefzri/jRPlRXc5HfyNlWAcz3hdt3u+B29K4rFoZ5Iz+6n&#10;t0mOjfMAAAAA0K1/aILeW6fdczlHG+Qsy9VRXfL3P9lfkPNTBDnH0p9mZbm6TnXWX1PfybskPxXF&#10;4mjKQc7armcEH9QBK3iWolhsU2V2tuFNkqVWBgAAAIBuyejssbpk7W8tvfxoz+Vssazoc10UxWKu&#10;Jw++Px2lCmA0eb7fXarA3rkg+F++t/+344//qEwor+hr67R3Xqe+CQAAAAAdktHZUw+CK224y0jP&#10;5azLim4jyMnr+9Jhfa7rdZoNilykKnG5FOT8om6Lix1/fKbFeIWzVCXF27Cug/YAAAAAQAf+qQl6&#10;a532Staeji3AUp/DeZ7kbQ8+zk/KkA6+P53W/anJksdXqc7h3GjhR8e995qBNhXF4nO9Kea/Lbz8&#10;fQnbMy0NAAAAAO1TuraHWi5Z+7EoFmcjaqujVAGpdz35SIKcw+5Px3V/OmnwZW9TBTj1i92uwTZP&#10;B5iVB6Xv91p9FAAAAAA6INDZM3XJu23ayea8KYrF8Yja6az+c9CTjyXIOez+dJ7mswk/xDmcz70W&#10;8yS/P/Ijt0WxONJSNNTfNml2Y8Po7rcAAAAA0GfO6OyfddoL3M3H0EB1IOQ61Tmcgpy8tj8tU20u&#10;aDLI+SnJD87hfL76e/S98xPvkpxqJRp0Wverpr2txxYAAAAAoEUyOnukPhfw3y29/IeiWCwH3j6z&#10;VGefnfTso42qHPDEvm9Nn8N5m2SuZOWrr81hkssH3/W7+p+XRbHYaiEGdO/9QZ8FAAAAgPYIdPZE&#10;vbB/nWaDLveuimIxG3DbHKVf53A+dFEUi7kePLj+tE7zAfPBbybo6bh4KFBEB33tsqV7zKDvvwAA&#10;AADQd//UBL1xlnaCnHcZaMnaB+dw/trTj3gjyDm4/rRM8nPDL32VKotzq5WbVZf9VfqXLszTzvnY&#10;J2W5mittDgAAAADtkNHZA2W5Ok7y35Ze/peiWJwPsE3mqbI4D3r6Ee+SHAtuDaY/naUKch403Afm&#10;RbG41MIwinGirRK2d0mOnNcLAAAAAM2T0dkPbQUir4YW5KzP4VynnezWJjkrcNr96WPdBwQuYCSK&#10;YnFZlqtPab6E7UF9n59rZQAAAABolkDnntWZiyctvPSgSta2eG5iG66GmCU7se9VW/3pJslZUSw2&#10;WhlGaZ52Sti+L8vV2tgBAAAAAM0S6Nyj+szAtgJm50PIOHzQBu8HdOmWem+v+9MyzZ/DmSQfimLh&#10;2sOIFcXic70BqY0StudJjrUyAAAAADTnH5pgr5Zp5wzKm74HZMpydViWq2WqzJkhBTmvZOT0tk+d&#10;1f2p6SDnVZIfBDlhGupzdz+18NJv63EKAAAAAGiIjM49KcvVcdrJOkt6XrK2zpZZpv/ncH7LUu/t&#10;XX+apcqUetvwS9+lOodTmWKYnnnaKWG7rEvYOt8XAAAAABog0Lk/bQVPPhbF4rqPv3CLAamu3Mjm&#10;7FV/Oqr707sWXv4qyXwI5Z+B5tUlbM+S/N7wSx+k2jAjsxMAAAAAGvA/mqB7Zbk6TTvnf90mOe5b&#10;pkgdkFonORn4pftFdl8v+tNhqiDBry28vCxO4OF4s2np3vWDjRQAAAAA8HoyOvejrSDKWZ+CnHVA&#10;6jzDOoPzMZe67t771LzuU22cbSuLE/jaPMkfLbzuOslM8wIAAADA68jo7FhZrpZpJxPtU1EsTnvy&#10;O95n3J2lnYDUPtwWxeJID95bn5qlvbLHsjiBfdy3f1QOHQAAAABe5x+aoDsPAoBNu0tPzvuqM+62&#10;qRaFD0Z0+a714L30p6OyXF0m+U/aCXJepSr3LMgJfFNRLJapSsM3ba11AQAAAOB1lK7t1jLtBP/O&#10;911usz539DzJm5FeO4HObvtTm+dwJrI4geeZp9pw0aQ3Zbk6Mw4BAAAAwMspXduRslwdpZ1zvvZa&#10;UrUuKbpMcjLyS/hTUSzWenInfWqe9s7hTJKbJKfO4gSeOTZdJnnX8MveJTnq0/naAAAAADAkMjq7&#10;01bGxl5K1taB23XGH+C8t9WFW+9Ts7R3Due9D3UZSoCX3G9naXYTxkH9usYlAAAAAHgBGZ0dqAM4&#10;/2nhpa+KYjHr+Hc5SrUg+35il/HHolhs9ObB9qmbJPOiWChBDLxmvFqm+ZLad6nOCt5qYQAAAAB4&#10;Hhmd3Vi29Lrzrn6BDs5MZGIe9KmztFemNkk+FsXiTIsDDTiv771Nnkd9UM8T5poXAAAAAJ7nH5qg&#10;XXU2ZxvlXT92kf1RlqvDOoNlG0FOmutX8yTXdZ9qK8h5myoTV5ATaER9lmYbY8r7OrsdAAAAAHgG&#10;gc72tXE25106OM+ro2DUUBzpyo30qVlZrjZJfk+zGVFf+5SqFORGqwNNKorFZZKrFl56qXUBAAAA&#10;4HmUrm1RHSh828JLn9dZJW1+7mXaDUQNzZEmeFWfOko3Z7veJTkrisVaqwMtWqb5s7ffl+Xq3FnC&#10;AAAAALA7GZ3tWrbwmrdFsWjjdbvMthuiY03w4n61TJUZ3HaQ8ypVFudaqwNtqrPFL1p46XOtCwAA&#10;AAC7k9HZkjorso1g4bKFz3qcanH1xJX7riNN8Ox+dVr3qy6C5h/a2gAA8Mj9uOkNETo5CQAAIABJ&#10;REFUHCdluZopuw0AAAAAu/kfTdCOslxt03yA56YoFscNfsajdFNOdCz+X5slg0fU97sMnN8mOVXq&#10;EdjTeLdMdY51k66KYjHTugAAAADwNBmdLWgxm/Osoc93WL/WWZIDV2xnsySXmuHRfnWe7gLnF6nO&#10;4xR8BvblvIV7qaxOAAAAANiRMzrbsWzhNa+aWPSsg7DXqTJQBDmf51QTfLdfLZNs002Q8y7Jv4pi&#10;MRfkBPapHoPaOFdzqXUBAAAA4GlK1zasDiT+3sJL//iaQGdZrmapFmPfukovdlcUi0PN8Ld+tU43&#10;53AmyU2qUrVbrQ/0aCzctjAO/iirEwAAAAAep3Rt85YtvOaLszmdw9mog7JcnRbFYvLla+t+tU43&#10;53De+1AUi6VuCPT03v97C68507QAAAAA8H1K1zaoxbM5ly/4LId1OdHrCHI26XTiffywLFfnSf5I&#10;d0HOu1SZTUvdD+ijolisk9w2/LInZbk61roAAAAA8H0Cnc1atvCaz87mLMvVaZzD2ZbTslxNsnxt&#10;Wa7OUp3D+XOHb/spyZHyjcBE5wBnmhUAAAAAvs8ZnQ2pg4v/buGldz6ja0/lRKfopzp7Zyp9e5Zu&#10;z+G890tRLM51N2BA4+W2hbHyB+cSAwAAAMC3OaOzOW1kXeyUzVlnGC7Tbabd1K/1euy/ZB04P0/y&#10;bg9vfyPICQzQMu2c1TnXtAAAAADwd0rXNqDOeGsji3K5w3vP03050al7O+Zz0x6c7/pH9hPkTJLP&#10;uhkwNC2d1fm+3ngCAAAAAHxFoLMZyxZe89FszrJcHZflapMqc8Q5nN0b5blpDwLnv+75o5xY2AfM&#10;Cf4016wAAAAA8HfO6HylOhjzRwsv/c2zOesytedJ3mv9vbpLclQUi88j6cezVIvzfTrf9aIoFnNd&#10;DRjgmLpNs2d1juqeAwAAAABNkdH5essWXvPqO0HOs1TZdoKc+3eQEWTYlOXqqCxX6yT/Sb+CnIly&#10;jYC5wajuOQAAAADQNIHOV6iDMG0EHZdfvc+sLFfXSX6LMrV9cjbgvnt/Dud1+h04X+pmwNC0dFbn&#10;mZYFAAAAgL8S6HydeQuveXufzVln212myrZ7q7l7501Zrk6H9qHrz3yd6hzOvgfO39flmgGGZtnC&#10;PWeuWQEAAADgC4HO12kju2JZlqvTupzoH0neaebJ9YFWlOXquCxXmyT/TrNnx2ljgK+0lNU517IA&#10;AAAA8MX/aIKXqbMqftcSJPnxW2eq9qivHiY5z3DPdr1LclQUi8+6GjCwucJZqrLzTfrfolhca10A&#10;AAAAkNH5GktNQK23GYf1Ivs2ww1yJlV5XVmdwBCtU23WmMQ9BwAAAAC6JqPzBcpyNUt1bibc+6Eo&#10;Ftue9dF1hlWi9jGyOoGhzhmWqc5EbtL/Mx4CAAAAQPJPTfAic03AV5Z96BdluTpKFeA8GVn7HtTt&#10;e66rAQNznuYDnWdRWQIAAIAn1GuFRy/4X7d9SuoAeIyMzpfdHP4Yya9zVf918+Df3d/8jlMFl9jd&#10;3rI663M4z9L8Ynqf3BbF4kg3AwY4d1in2RLixkMAAIB+Pwce5ekA43GSw0f++1OvcZTuqrndryNv&#10;H/4pisXG1Qb2TaDz+TepZYYbTLpJle23KYrF9Y435NP6z4mr/6SLoljM99An56kyhqYQmP6pKBZr&#10;XY1nfD9m9d9eK/XJnh9wm94k9a+iWFxq3UH3i4f379t6oeB7Pif51txt+9X/Z9c1AABTfu46SnK/&#10;DnD/z02zRvp3988zm/q5ZWMNBuiSQOfzb5rbDOvcw7tUi2jr1yx81ZOFs1TlQ2V6fl9nWZ11AGc5&#10;sQmWLCZ2/X4s6zHrfry6STIz0WaPfXLT8Hj9qSgWp1p20H3i/+vgba6+8e+uUwVOh+jcOP6suftR&#10;qgyBYy3y56aA0Wx8KsvVfQbI/bUek43sEHj22kDyJbhDcrnLBv+BjffJ09l/Q3K/ke/za6/VxBIA&#10;huQmVeBzE4FPoGUCnc+7cZ4m+feAbibnTWe/1SVSz9NsCb4xaT2rs164Wk74Gsjq5KnvyGWSd9/4&#10;Tx+LYnGmhRjRHOIH2XuD7Q+zJP/REs92VRSLmWYY1TNL1+6SHA957Kyfxy4z/s2ON0WxEKSHp8eE&#10;6yRvtcQ37aXqVsPXd51prP286lm9ow2EvN6neg5zOcSg54PKh4cuZT7X13E7sGt4vwl0rJtBt0P9&#10;fjVBoPN5X4bvLZ73aiKXKntz03JbHKcqg2tC/XetLTx/I0ttiixy8th3ZJ7k9318P2GH/rlNs1Uh&#10;PhTFYqllB9kXjjKeM987VRQLzy/jeGbZp0GPnRMLZP+463Ot59MXuU21Ofq85T57v1n6KNMt93iV&#10;5KzpDEMbp8Y9b6i/O//nWu3lOWuI7vLtoy6+Z9/j8adUAZn1gJ7friNr+Os+N5gNhGW5Ok/y80Su&#10;y9EUg53/9J181oD2rscdeF0/pHQyuNQT9OMJDRLPsUxV4rfJ/ndaPxy+0bw5KcvVTDkrvuPoif++&#10;jpJO7M95kt8afL15fc9hYIpisS3L1U/19XNvf96cF15rO/DPL4vg+/dYQc7neVPPS847uDZTrwh1&#10;Ut/zHTtAk8+2fHFaf8dmGW8g6v4MzPtjKDb1v39VWf4HpZFnqTLcjjt6PnmX5F29rrxOh2var+hj&#10;gpx/dZCBrEnU/fzniV2X86l1SIHO3c17epO7vxnsJUpfFIuzulSKWvhfvC/L1bKJG3QdYF/HQedf&#10;u5/AwrMXGQTK2aN1PX41db98U5ar06JYXGra4al3L68f3O+Pv/ojAPp3yo8/b55kbv53N6lKpg3Z&#10;5USevW7M10bDc1ul8U0KRbHYlOXqIgLJ33M78LnidVmubjKNTRwXr22r1BsJvppXz+q/Hgys325T&#10;BTK3SbZt3g8fZJr/+R51G87qP20H+A5SBaB+rsezpSpcgzKUazW17MZJboxU+mlHPSuDcFsP/Ose&#10;tc9xfVO0oFJP0l5zFkRdomQZ2bKP+dHiB98Zi/771BhaFIsjrcWe+ug6zS5GfSqKheyAcfaVw3ph&#10;4TTjL0P6cEEnD/760PVUzxp5RR+aPfjH+9369+fRDG3R7yWu8iXrYZuWFwr3ND7cz2cenjc0xAXx&#10;m/pabevrdf3ca6XS0H6eW3e8Ns6QrPyrrc1pD84cu3dU/7n/91PcON1KueA9jfdjPJf5ftzfJNm0&#10;Hdh6EPyc1X/6NCbdV+m77Ot8t55TztNdVmPvAp71d3Hjfva37/FsKM9oEzrzOEl+GkpZ6CYJdO72&#10;RejLOShXqc7fXPe0nY7qG7NBv/KiswDLcnWWZjN+Hk6eNvlSs/9+kjfURa7WH8oZ7Ji9zdMbU35p&#10;+zwi+E7/3CUY/1z/TwBo9P3msF5cOMt4Mj0/1fPGjV3bex2P5qkWrcbQr25SLRRuhr6w3cC1nT2Y&#10;67/r+Rhw2dQ9rD6r/TRVcOcoMuO/9R25b+tt3faXHfTH0/w9I3+oQfldXD34+239/H2573vdgzF/&#10;nnFsdPnbZpaH7T62uUW93nZUj+2fH/y+Rw/+HPf4e3WVL0HNTU/a87Qnc+ufBnRO5f1Gq2VH7da7&#10;c9W/KvU7lc0kdw/G2z9LJw9xvv1gLL3/kwGMn7vM6x66nOp6p0Dnbl+CdfYb8b9KtZNlM4C2ssPl&#10;i2cF4uoFiTbOlnn0gO8HD55DvDH/YHGUb/TpXXb0T/ZwbnrRR5vObBC4n1b/aWtDVBdu67nO2vjb&#10;u351v2g1xDm8MmdPP5/N04/F3LsHY8C2w9//OF8WtGYZ74LkfWnm6ySfB7J+cH9NZhne+Wc3+bKR&#10;eFAZ4/WmgCGWwL5IRwH6AY/5R+lPAO+m7meXfZ739WBuPchqZfU4suygn90kmfc9qFbPpU8zjrM8&#10;r/Ilw3iTiajnjPfzkb5lft4nL21iU+d3CXTu1sn/b48Dy3Jog4pg5188GYirJ6LnaXa39f35rTsv&#10;ItQ35fXAbsiyOvleX94lC/9jUSyc98a+Hgp/b/LhrygWx1p2cvPTdYZT0rZ3xy7w3b51luS3gXzc&#10;T6nKEm5duWfdf/YV3PiQ5Lwvi931JtP7BcmhZ36OJthf99F5+huMvsqXzPHtwNt6SCVRr1IFOoz3&#10;z7+nL/cw5t/W12szoLY6yp4q1BXF4n8G3McOUwXVf+1iHtG37M5H2qTLrNemdL4ZbSB9+yz7XSf/&#10;VF8TG3x2INC520T79z104vMh75oQ7Pzy0Pm9QFxLg+arBsCBnv8gq5NvPaT8of/Q83vktuEJ8//a&#10;1Wee2lMfUy3Ay+AcTr86rufxfd78JpP9dfegdbrbKNH7TIw66HmW4Z2HfJPkdIxz2fqaLHvyXDrq&#10;xd8BnFlmvH/9mL9Jd2tzg5337Wsdc8iBzq/mjusO2u5TPacYypmQQ6nEM6h23cO4cL6H+6SKNS8g&#10;0Pl0h266vNxkOrFg55/+tvhcZ5ydp5ndPc/O3tzh2i3TzY6sRr43sjr5Rh/+/3b80auiWMy0GHvo&#10;o+uGJ8sylKfbl2apNin17QH6LtUC/MZVGmS/6muwU79q7hrvUur/tW6SzAa0IHmUakHy/QA+7iSe&#10;gfachXwf4Dwf++JvWa426edm559Ug+jts8cor1dLG1IfNYZA54O26yIgNLS5Rd8r8Rhnd7uOXVVB&#10;VLHmFQQ6n37Q+aODtxptlH4gO8LbdlMPUpuGz8NsNX19IFki9w+gzlrkNQ/r/1IGgj3dH//b5FhY&#10;FItDLTvp/tSn+dZdvQAhy3jY/WqW5D89+1iy14cz3x/UQuQ3+v55+rthd7Bt+8LrsY8N1L0qtdxR&#10;G2/Tr3Ubi+/NX+fLtBdsGc316notbCyBzgft18UxCLepNr5dD6xf9e1sZONsf565b1PFDqxNvsI/&#10;NMGj5i2//kWqsomjPWugvunMUi14TdXbJP+pM8z+ndcFOW/rh64fimJx2uYAWN/sfhzAtTtIFTyG&#10;h56zKKEUEvu6P940ORbWm2mYbn/qy71QkHM8/WqTqgRdX/ykX7Uy379ocRz4PNS+X599/UtPn4Um&#10;VQ68/l1nDc+bvucq1YaKKbZxn56pLyy+t2Keak2paR/HdL3q3+W2o7e7HVsnq0tN/9Ty27xJsqkD&#10;T0PqV7MeXfMr4+yLnrnnLbz0pyTHgpyvJ9D59CSglUlbRh7g/MZAYPH19Q9c/yqKxVH90LXt6Npt&#10;MoxA9Vm9CxXuPWch9E1drhm61vSDhXvttB+81qk2Q+19/iwYNSrLnswDLXq3N3bM62eNpseBzyNo&#10;m/N0F2Db1d0UF8Lq/jRv+W0+FMVisht16jH2qgcf5TY2Mg/pe3Q70uMzutoMvR3xeNJ2sPMgyXpI&#10;a4H1/eW4J/MKG/5fdg0v0+wmwV/qRCZVChsg0Pkd9a6QNw2/7E0mFOD8aiDYdHCTG5u7VLvof6gf&#10;uC73dO2GEKiW1clrHxgEy9mHdcOvJ9DpwWu55wfnCztRR9enPmf/CyEWvdt3muYC2ldjGgceVCi6&#10;6MlHmuxGkvpatHEdblNncRoK0oc2WFrwbfV7tGn4ezQfaVOZz76+r63TfmWQt6kyO4cU7OyySsFj&#10;NnrpXu+Vd6kSmgScGyTQ2d3N+r58z9ZNjifcpCrNdVgUi14cQDyQQLVAFQ89dxHoIHa0sZ+HnE8N&#10;vqTytST7CwjdpR8LpDRv3/dHi97d3I+aGjvOxtg+debrL3rL3jV9n7lKVS5OJYIvz/37LKt4K3t/&#10;UN+jq7rPjPG7sM0Iy8ruoR3P0n6m+NsMbC2nD8FOc+tXjw+vuXb3MSIbKhom0Pl9TS8UnhtE/rzJ&#10;fdK9vjnIXaTaSXrcx8l9j0rifY+sTh7215csVrwf0hkPjEbT4/1ck05+/NtkP5lHl1Pe0DfyPvU5&#10;+8tms+jd7Vz/tQtuV2MOGHV07thTTibeT7dpLvhwUVdOstj7V/sMGCw1f2ffoybu62O/P9sA0Ywm&#10;q0Z8z/uyXM0H9j3sS2YnL/PS5977IKfxpQUCnd/QUtlaD+hfzA3kf7pNtTP4qC5p3OuBri7n0+dA&#10;taxOHnrJzkFZnXQ9rl42/OD3zjhI9rNQuNTso7aZUF82dnjmfey+vc6eg51DW8xtwbaB1/ilztKl&#10;P9/juygX2qXXPvfeTWAjUhfrc9uxd7SOzlhOkvOyXB0NsG1m2cMaeVmuZobBzscHQc6WCXR+W9MD&#10;8Cc73L95k7ubcDPcJPmxKBZHRbEYWrbvPP0t4XEQZ9TxxeYF/8+J0p/sQdOLOvqwudY27ZeJ+su8&#10;xlzXPXUg4yOPjx2Xr5znX06kndbZb7Bzqbe+yk/OxHq0f3/OfjamX8qu7fQ6X7/yOm8m0Exd/I7b&#10;ifS3yw6eTQ4ywA1Xe1wjnxkJO20/Qc4OCHR+W9MLhGtN+s1J1XzKfWyoZxnUN+E+L6J78Oe1DyYW&#10;Puha0/MEgU66nn9uNPfo5+7bdL/R7ZNF77146TzoakrXa8/BzjcTz+p8zVETPymHvZPLibyn8d71&#10;eoyARLO6uG8NcuN6vUY+6/htrRl0Oxc5E+Rsn0DnV1ooW3vrcNnvDuSXST4aEAd57a5TldztozfK&#10;OfHKB5M3Zblaaj46HFM3aTaAMNOqpNsFKHPdadiOuA/z+nbfTPD+vc7+gp2TnKvW6zUHL/zfBTn7&#10;+32+s242uLni6Bfs6807d7pJY+25TTdnvp8PtH2uO55TvK3vqTx/LjJ75lzkg/lHNwQ6/27uAb3T&#10;gfws0zyvczmCa3eebsviefDnJQ8mL+W8V7rW5HzhQAlm6jGwq/u03anTsOn4/fSr/Ywd2xc+n20m&#10;2l7rJB/28NZT3dz50t9ZkLPf4+9Gk+9trvjpBf/r3YQyk8xFmrV0f3xyTnHR4Vue6ZKtz0UuimKx&#10;1GTdEOj8u6YXBpVA3K3Np7ZL6u1IHkznPb12sjp5rQPjNx1b93w+wzBtOniPO+VFJ6PT66y8015d&#10;vuB6babaWPUC1sUe3no5wY15L5nfXAhyPrtPd53JJkFgQON9phX8MxdpdmzZ5mXB9WffHwfcRvN0&#10;lxD0vixXR3rm7up5165zkZsIJndKoPOvnbXpsrU39SDO0ze6KX7xB/9gWl+7vk4glr5dNDDpU8qD&#10;rsbT6zRbvlagk6SbxRkLQPpTG240915tnvnzt1NvsI4XJu+9mdJz9AvXay7qa0O/x/yN5t4bgc7H&#10;fdb3G7fu4v448OSHLhOCBOKef212KVt7l+TUhuBuCXT+vbMObfAey4PhOt3s6umTUTyY9riErXMW&#10;aYKsTrrUdPnamSadPEFImtTlg/pWc+91fr9xvV5klu6DvlM6bmH+zJ+/EeQcxJh/K0Fgr+P95zx/&#10;k8aU5pcbvaTxPneZboJ48wG30bbDz/+zrM5nWe74c6fubd0T6PyqEzb8emtN+uyb0NR2A4/lwXSu&#10;fembhq79ibMO6VDT8wZ910JCFw9XHuCm05+6XNgUpN+/G9fr2d+Rz+n+WJYpHbdw+sz+O9MrBzEO&#10;Gz/2b2Pux8Cfe7/lZMgBvDog/LGjt1vqkk+rs4R3qSzxy5SPdNgngc4vnfUoydsGX/KT9OQXPRjO&#10;J/ZrH4zhhlIvpH7oafsqwzBds4ZeR1YnXY2lytfShrarLmw1MS2w8L1/z/lue+7967286+eP0R+3&#10;UG883LVsrXJxzeiq/Yz3+7d55ji3mUrDCFb0o89N9Xm4KBZn6aYsvmObdrPc4Wcu6sqH7IFAZ3uD&#10;n8PUXz6J+DixX3sUZQKKYrFMPzNyZXVO16yh11EGmS41OX94owwNEYCgWVf67WQ8J/iw0Vx/eS5a&#10;J7no+G3Hvqi2a/D4LslMubjOx4AhvA/NXIM7zUUD98mu1sznI2iuripFCM49oixXZ3l6w9VNJNvs&#10;lUDnF7OGX0+g8+WWmV4J2+VIfo8+TiJkdU5XkxtYBMzpymWPvwcMkwVEBkcGRS9sNcGr+vA83WRh&#10;3DupS6qNTn3m+Mmuc/aOy2xjrBnDeLXN7oGUKX6/bvWSVnSxee7t0Ndx6u9nF2uao51HNDAPOcrT&#10;6/Z3SeaqSeyXQOcX7xp8LWVrXzeIT7GE7SjKBNSLUhc9/GiCVNObiMyze3mrXUzp/CP2P442uWNT&#10;oJOtJqBBAgjGDv3ieffgLrOfzkf6zLPrHPxDnU3LgOYPAtODu79/9l2gIZuO3mc2gjWCdZJP5hF7&#10;c5lqTfAxc/ez/RPozJ/nPTT9BeB1g/gm0ythO5Ygyln6V85EkGp6li28pnML6HIi3ZQTDyuTt9UE&#10;NKiLBc4rzTy4ZzebfL/dLtt0u+HoIOOpFJQkqY+PeLvDj17UR6nQbP9tmzKow7u/W8hv9nu2mfCv&#10;39XvPpY1nHnazy4+SLL2zfzLPGS9wzzkY4flmHmEQGdl1vDr6dzNWGZaJSJO6rI8Q5+ofU4/S8W+&#10;d1bdZCYiyzSbzfmQgDldaHoeMdOkkyYAAbzErovZSvo9/my0SfKhw7f8eSwb8+rf49cdftSZWOMf&#10;Z3At0Ocm/SzcYfXDdy0khA11HjJP8v6JH7sqioU5SE8IdFaa/ALf2NHa6CA+tcFiOZJrt04/d+Mv&#10;fbNGPxHZdUHkpU5M+ujApsfzHIZ3T7ZwRZ/Hp2/RZ/vzLLaLrdZ6si2XHT8brUcwpz/Mbhu/7pLM&#10;rMG0xkYG9jEPYDrzjC6yuo9G1GabdFP9cD31qlB1ItLvO8xBrLX0yOQDnXWGV5OZP2vdqtFB/DLd&#10;1CHvizEFUeY9/Ezvx5A1y3fH8+OOHrxkddLFQ1+T9z7jHm2yuIw+BU87TXdBo7d1hZMhW2a3dRpB&#10;znZtNcFk2GTEWPvdmzE1WJ09eNPy2xxkwtUqn7HZ6tQcpF9kdDa/+LfRpI3r45mPbRpFEKU+0+ND&#10;Dz/a0ldqlBORo1QbTQ46eLs3I1g8ov82DffZI01KSyyM0bStJnC9xqZeCOtyQ+vZUO/99cbfn3f4&#10;0Z9ULTB+0BiL9eh3wzHv4D1OynI11ZKsl3l6bfHDxM/Y7SWBzmYfNm5NtFt5KNxmWsGpN3Ud8DE4&#10;T//K3ZzI6hyXOpPzOk8fEN6ks6mX8qCTyXWTjHtAE/PyLh7ot1q6N65cr0a/P9dJfuno7Q4ywGpT&#10;9fx6l899UR+XwrAZP8wDhmDjyremkzX0sa0BdjifWI7l3O9n9JWzJCdP/Nin+lgCekags9mFv0vN&#10;2dogfp72U/P7ZDmS69bVYdnP5aF4PJOQef3gcdDxWx9ECVvaHT+3aXajiLMjAKAfz7VdHc0yxGyM&#10;9Q7z+puiWMz1pk7YyD8dMutgePOJts//HuSmqZeqg7q/PfFjt+nnOjeZeKCz7sBNLo5vdKlWTSll&#10;/s1YSgTUO/4+9bB93ZiGPX4fluVqnepw8IM9fYz3U9vdRuea3EA105zAQGw1ASM3T3dVb5ZDKWFb&#10;P/++e+LH7sxpOiX4NRGq08Egnab9o97eluVqKpv817u0uXM5+2vqGZ2NTpCLYiGjs92J1ybJxYR+&#10;5eWISmPO079zVs+VHh2mB6Vq3/ehH7kitGjT4GsdCMwDDWl1TldntDMcrtfz+3iX53UOIhujDsYu&#10;d/hRC4ww0vs/8KL5xLyDt/p57EeAleVqmaePw/rFppB+E+hszpXu1ImzCU2uDjKSLNb65rvUvjQ0&#10;+fhvkjc9+UgnZblSEpS2bHo87wGmywM+D201wYuej7o8r3MIJWzXebpKyy8TPR8Q3P+B780nLtNN&#10;UtDlWJNF6s1Wvz7xY5/qcsH02NQDne+a/MLrTp0M4H0MmLXpbCw3ko7qxz/Xr0Mp5TR1Zbk6KsvV&#10;9Q6Tj30w2aHNe16T4+ZMqwI9J1ukXyxqt/981NURH70tYVtvZDx54scsMAKMT1f3pbFXAjhL+yXx&#10;x3xe51O/l3M5B2Kygc4WyrdtdKdOHwhvJvLrji3rsI+/y9K3qvfj9Vmqhba3Pf2Ib+oFGmhDk/OL&#10;meYEek5grV+UCG3fPN0E+Hu5QFmvyzy1kfEmFhiNyTA+KgN2FOgce7nRDkvYvhtAhYjnzkPO8vRm&#10;K2XzB2LKGZ2zBl/rTo3mzk2p5OjZWLIO6+/Jh559rPdjrzU/4AnHUVmuNkl+y9OlrPrwPXXmK23Y&#10;NPhazukEgH49H3V5XudJDzfnrZ/473dJ5hYY96btdreO1i83moCOWUNpbj6xSTfrrcuxrCnUa3hP&#10;zYs+iPkMh0BnMza60l4G8IuJ/LoHGVfW4XnaL6nw7Bu1b1XvJhyn9YPvyYC+p8pp0db9rq/zH2Ca&#10;tpoAGr/Xd7UZ9Ne+LFDWQdenKracWWAcNQFs14Np66Jq12QyZ4tisUz7GxYOkqxHstF/nceTKq7q&#10;NmUgBDqbsdGV9mKZ6Zzj835EWZ1dlVR4jpOyXM19pfavLFeHZbm6TPLv9D+L81vfU9ly9P3hTB8F&#10;XmurCaDxZ6RluluMvdz3AmVdUeepkrUXRbFY6x0A49Ph2snUAvjzDt7jbQaeMFInV7x75Efu0l3F&#10;DRoyyUBnPZg2uYC+0ZX28jC4zbQyqJYjunabJJ969rHOlR7txURj+8Rko+9kddKGJucZM81JC/d0&#10;aIrMLddsyubpZiPvm33OWetnrvUTP3aTaR1XA0Ow1QQM8Ll0UvOUugrCLx281c/1Gt7g7DgPcS7n&#10;AE01o7PJXSPO59zvAL5M/8qgtmU0WZ0dP8jv6sDD9N4mGfdncQ4xi/NrJ0Od7NFrmwZf683I7iXA&#10;uFhQGN7zmGvWXFtu013lm/d7nLOepwq2fo9zOY3J9NNWE9Cg2QCfpYcynzhPN1UihlrCdp3H1x4/&#10;2Mw7TFMNdDY5mOr4+zel4NR6RDfez+lfluqvAgDdKsvVWYZ1FucuZHXS9HjZ9FxD+VoA6Oc9/zLJ&#10;x66eLbt+9qmDq++fer63mbw3/dF1ANoyG+iz9FDM035yyUGSyyE1yg4la2+cyzlcMjpfz8SvHw+D&#10;Uzlc+qQ+z2Qs1+68h9dOkKqbycV9FudvGX4W59felOXKxIimOacTAKZhmaotif99AAAgAElEQVR0&#10;a9sO0uFG2jqo+tT7OZcTYOTqYFMX60BXU23jukrEsoO3OqkTGIbQ754qWetczoGbXKCz7tRvG3zJ&#10;jW7UC/OJPfiOSd9uiO/GFEzu6Ti8TPJHxpXF+bd+7cxXGtbkfMMYBwA9VVe+maebYz5OOtygd5nH&#10;F7Zv4ygRgCnoKph0OeVG7jC55LeyXA1hM/VT85B5HSBmoKaY0dnoF0/N5t4M3tt0V+Jn38aW1Xmd&#10;5EPPPtbat6p5ZbmaleXqOsmve3j72ySf6r72U5Ifv/rzoR5Dmto9fxDZwTSryQoSJ5oTAHr/jLTs&#10;6O1+bfv5sg6mPrXh/NS5nADjVm8If9/R211q8c42TvX6vM466/SxdZCLumIkA/bPCf7OTU7gr3Sh&#10;XlnWA/jBRH7X2Yh+n/P62r3pyed5U5arpbrsjU5kl0l+7vBt7+pJ7WWSzQ6LJpuvPu9pqh3lr6kA&#10;8L4sV+fOtqEhm4a/l8f6JvBCxg7oQFEszusA5LsO3u6yLFdHbQQa69/hqY2Ov5iXAExCV5n7N7Lz&#10;qsSgerPRby2/1dtU6369q8xQZ5suH+srUVFiFGR0esgf0+D9OeMr6/o9J2W5mo/s2vXt91F6tJkJ&#10;xWmSbboJct4luUjyr6JYHBbFYl4Ui8vnLtgUxeJzUSzWRbE4TpXt+ZosT1mdNDlO3vZ0PgRMi4wr&#10;6M483WRiHKSFzJcdzsNKkqu6vB5AH1n7bVZXASX3lVqHJWx/rtcA+2adp0vWer4ZAYHO19noQr0c&#10;vG8m8usuR3btNqlKi/aF0qOvUJaro7JcbZL8O+1nWd+kKkd7dB/cbLJf1gHPX/KyRaaTnk70GKYm&#10;5x0CnUAfWUyEv85FP6e7s8zaOK9zncer9tx1+PsBvIQASEPqe0wXVfjuK3zxxTwTLGFblqvzPF6p&#10;TUWJEZlUoLP+ojVZGtMXoZ+mkm7+ZkxZnR3feHf1fkznoXY1ztaT1z/S/jmAn5L8WBSL4zoDs7UH&#10;kHoTxSwv20ghYE4f5x0CnUAfWUyEv89DN6nOku9CY+d11udhPVV217mc/Xfbct8GJqBek+8sm9O9&#10;5W/j7TbdJMy0UiHihX1ulsery6koMTJTy+hsclHvTq3vXj8IfprIr7scU3nVnpYfdtPbfRJxmioQ&#10;82vLb3WR5IeiWJx2+XBc7/Ka1e//HG9a2B3PNDUZ6DzRnAAwmOeks3RXuejytc+YO5yHlSQfBboG&#10;YasJgAYs0102p3W8b88luiphe1Jvdtqbeh5z+UQ/UVFiZKYW6Jw1+FqyOfvtLP3KDGzLm4wsg7XD&#10;G++u3u77Bt13dZnay1Rlat+09DZ3ST6kCnDO97XRpD6/c57nBzud+UoT/W/T8HdXVicADMc8Aziv&#10;88G5nI8taN/UwVsARm6HzLomyeZ8XFf33t/2vN5w+cQ8REWJEZLR+XIb3ae/6iDIVHbwjDGA0reH&#10;3qUg1Tcnq/dlaq/zdFmql7pNFeA8KorFsi+Z9C8IdjrzlaY0uRHkSHMCwGCeca/TXfWb15zXuczj&#10;52HdpQraAjByDza/dEE2525ziQ8dvd1ezuus5y+PVbBSUWKkBDpfTkZn/52nxfMkeuQg48vqvE53&#10;59Ds2sYmS3+dODwsU9tG+ZHbJD8VxeI+wPm5h/10nucFO9/LoKNn8w/9EQCG9Zx0nu6OaXn2eZ31&#10;M8JTWTvL+nkPgPE7T3uVv752Jktvp7nEMt2Uw3+bjo8nq9fcHjtOS0WJEZtaoLPJgdXEvP8Ddx/P&#10;e2zzIfRoZL/TMv0KVL9/7oP+GNVlajdpr0ztwwDnegDjzDzPC3YKmPNa2wZfa6Y5eaUrTQDQuXm6&#10;O6Zl5/M6d8za+VQHawEYubJczZO87+q5ZAhrSD3SVbDv53oTVBf9bZdzOecu/XhNJtDZcIDiri/l&#10;E3lcfZObyiLccmTX7nP6l6k62YfyukzteZI/8ngJiJcaVIDzGxPEXXfDnXQ1yWO0mtxodaQ5AWCQ&#10;z0nzjt7uOed1PnUelgVGgImo1+F/7+jt3F+eP5fYpLtKel2VsF3n8YQMFSVGbkoZnUcNvpYvxbBM&#10;JSV9dGUxi2Jxme5KM+3ibb0jbWoT1HmqLLI2Do8fcoDzvp9+TpUZt+vOervYee0DSVPeOH8YAAb7&#10;nNTVAuVJWa7OnnheWObpzZCnSgoCjF+9NnnZ4VvOJSS9yDLdVNI7aLs/1POUd4/8iIoSEzClQGeT&#10;AaCNrjOoh8DrPK+05JCNcdA+S3elmXZq46kEBspyNSvL1XWqXXhNn8M5+ADnV+PMfbBzF2/qxSB4&#10;qSbP03BOJwAM0zLdnLGVJL99b1PtDudhJcnHhjdrAdBD9T1hk+bXkL7nQ735h2fquJLek5umXtnn&#10;fnvkR2T8ToRA58tsdZ3B6VuwrM0bx2xkN95t+lWW9yAjP/u1PofzMsl/Uh0e3qS7JB+SHI/t/IR6&#10;U8Uvu45JMunoyTxEoBMAhjn37LKEbfKN8zp3PJfzpigWZ64YwLjtIch5URSLpZZ/1Vyiy0p6vzVd&#10;iXCHczkTFSUmQ6DzZZSuHeZD4FRS1M9HeP3O091u5V38PLYywfcThDrT8I88XvLhJe4DnEdFsViO&#10;dZJR99VdzgU+iBK29GMeIuAOAMOde17Xc+wuvPnG/HWZxzdGyqIAmID6yKP/ptsgp/tLM7pMDmr6&#10;vM51Hj+X84OKEtMxpUBnYwOtg2sH+xC4TDe1x/dtrOdI9m0X8KiCVA/O4fy1hZe/SJXBuZzILqrT&#10;HSeJ78tydWR05gWanKjPNCcADP4596qjt3tflqv1gw2SPz/x80vrJzAavst8U1muzlMdedQVQc5m&#10;5xHbdFe57m1T71XPQx5L0riR8Tstkwh0NlzK80a3GbSplMwZ3UBe78D52KOPdDKGgHJ9Ducm7ZzD&#10;+SnJD0WxmNTB8M8sI2bSxUs0+X060pwAMHjzdJeN8T7J/+XpDZJXdbUTYByUfuQv6mOPNnl600uT&#10;PgpyNq/jSno/l+Xq9JV9b/bEPOQuVRICEzKVjM6jBl9rq9sMeuC+THe7XffpTb2zZWyW6ddZq+dD&#10;PWexnpCuU53DedLwy18l+bEoFqdTCnB+Y6zZ5ZwDEy9e0r+a/F690aLASJ/bYGpzgz5t6rXACDBi&#10;Zbk6S5Xle9LRW94l+cmZz63qsm1fXMJ2x3M5z6a6HjllAp3Pp1TD8M2ncoMaahDukQf4zz27fgcZ&#10;WEbegzJT16l2Yzfptp54ztTA/3OsudMMtOSqwXHhWHMCI3xu4/XcH4b1rLTObhvtOpkHT+TICoBJ&#10;3WPLcnVcZ3H+lu7O47xJMqvvc7Q3j9ikOnqqCwd5Olj5PZdP9L1P+so0TSXQ2eTN4/9n7/6O28bV&#10;/49/zs65l08F1lYgbwVmKrC3AitD3VtbQegKotwTE7qClSuIXMHaFaxcwdeq4Pe7ILSryPovAATB&#10;92sms+fEjiSCIATgAR4Q6Gx/wz1XXClQfX5pFAnev9h25d63JUhgU0O8qE7v4LJDulB9wHefzsRP&#10;dfWQwDyrEXEql5OHFxQnAIDvhyQM1fxCu292zAYA2K7Xpg+7khXsL4XbxSnVc01XnPcczDhgP+La&#10;7gw+ph4We+rfm7qzwQlruhLodDlAm1NtklCoGzut7o0p+4kO4GMS9dkzKyvu/pT7NJXfJPU54Hsz&#10;O8mzaUXcQtLvBIZxBpcDvYziBAAgib7nu5pNGbsQZ9ADQDLsfFIl6W+5zwq2y7OkX5lraqQfEXJB&#10;/tdDN4/YzRv7zgcno0SHdSXQee3wgWcFSToNd1e+LIsE799c0kNMbYwx5TDCDumFxxV3T7bTOaYT&#10;sbe+DlUHhBeqU648qA4Os9Id53DZH2HHDgAA6fQ9Z2oug9GUsQEAtJudSxoaU76onk8KHeD8ZI9E&#10;mnM3GulHVAqbSa86oE72D/i9B47R6rb/dqFxdvhyr1SZpBruid0if5n4pd4ZU1apNfZ5PipscDGW&#10;+zcxpoxmYG/rdiH36VBeVR/qTefhuPo6Fmlq4ZbLtoYz2AAASEuhOmPDIPD7zil6ADiMMWU0KVnt&#10;rrrM/rlp4CM8SZow1xSNseogdwgDY8qJnTfbZt+5nM/s/sV/O3CNLifvWJmYnqGkHx0a6HL//Fme&#10;idpoMMuYMlO9ysl1AHihOsBZ0WwAzcvz0cyY0tXL9SlRAACS6ie820WhfwV+axZPAcDhgmfWsTvj&#10;+ra9Xv73Ss2cGbpQfRRUxe7N6PoRL8aUjwq3m/febh6ZbaizE+1euLUQ53JC3Qh0uvzSmFFlkmu4&#10;Z8aUT2pmtVJI18aUWYK7OmO7f/d2FVLwDtpKGgcfh8I/qF5Zx2IPIC4LRwPSS4oSAIDkxrovxpQP&#10;2n+elUs3Me1QAoDIXcnhXLPNani18toXqoOZffu/B5Fc97Pq4GZFFYjaWPW536GC4FNjyv7q3KM9&#10;l/N+z78bEiiHxI7OYzHJn27DfdOB66yU5q6doeoUSb2IyjkL9Wa2IzuWnwmMR0kFHQYgWi9ytLjB&#10;Dih41gEASIg97iOTn8WQu8ZD7OwE2ofnNrzCmPJlfVPCWsByKVv53+s/v27Btb7Z7wd2b7anD/Fu&#10;TFlI+hroLXu2jtza56Cv/edyPuX5aMrdgsSOzmOxKjHNhnvewErXJlwaUw5TWzHVwBfvPtfGlLch&#10;vmhtOqqJ3Ad5n1UHOGe0EEDUXC7A6otztQAASNFQ9VxGqIWhA2PKgrOygNbpUQSNlPkPh0eSxGah&#10;+mzFivmldsrz0cTOPYbaDXxj53gn2n8u50INHx+GuPzSgWt0uSJpTpVJ1sQ2kMlfp10ZltwXr6TX&#10;rpSzMWVmTPki6bvjwcibpM95PsrohAKt4HIB1gXFCeBAGUUAtGqsNJdUBH7bL8aU7A4DgG56Uj23&#10;dJHnoyHzS60XOpj4RdL/aX9wdcLuYKz6hSI4eoCANO/tu7qxCqSX8HUOI/oslz7K2Ziyb0xZSfoh&#10;96upHiRdcUYCzqifGRNawbnsl3DvAABId7w7UZ21JSTGFQDQHU+SPkv6X56PbplbSqoPMbP3NyYL&#10;1ZuWgH90IdDpKk/5G9Ul+Ya7Uly7An0ZJ7qr80XSt8jKue/qxWzqhhdJdx46o7/m+ahYPfAbOLBe&#10;XhhTFsaUc9UB+L9c1nvsNacIAADAgYYKm8VoYMcwAIB0/aGV4CbzSsmKbdPMlLqGdezoPNycIqDh&#10;TkRP6a56KRRPCuKeHKSIMqa8tUGkL3KfpvaT7YzSvuGUunllvxu/qN7FvHRL6QTjsmOfUZwAAKSr&#10;wRS29DEAIF2FOCexK32Ih4g+Ers58UHSgU7HKfTmVJdONNwzxbcd34e7FHddRZiC+O7Ugb0x5ZUx&#10;5UzSn/o5iHSuhaSHPB/1OScBZ3y/XkiaaXPwPaOEgrV5L5QCGsYqWgBoV99hovBZjKoUMwoBgCev&#10;qlONP6oOLD1I+l3SpwP+/L7ybx7t6/jOUNhTvahlbkw55PYlbaI4Npe8MReCTf6b+PW57EzPqS6d&#10;MZZ005EvqOR2XuX5qLKdq+uIyvngRRd2EqCQdO/hszxJGrODEw5cafsO4xtjyoxAeivvKXAsBpgA&#10;0M7x7o+A73cpdvwAaK/M8+s/qT7TeOYoFed001/aRfh9ez2Z3C6oX7b13+18XMF8QHryfPRuTDmW&#10;9L3hjzLlbmCT1FPXugx0smK9Ow33XHFtx/flJuE0QsOIPsvg0FVttsMwl/sgJ2lq0aln0O6ILowp&#10;xx3YQfDs6HV6VFsAEWDRBeB/vDuT/x0+6+5JYQsAHzzZeRrv5w3m+Whmz9Ac5vmoL+lX1edrut7l&#10;fy3phzHlLMVMcvQhRlUDfYh1M+4ENkk90OlyoMyK9W6ZRNBwh1Ak+sU7V2S543cFW4wpM3sO51e5&#10;DzaQphZNuGsiwLhypu1fqs8O/SppRro0AGgN2msgjCZ2Q5DCFut9d+pDPPeiTyk0orFzBvN8NM/z&#10;0STPR1eqg56PcpuW9FrS38aUtP3pGTb8/sRosNEvFAGw8Qv/XYkGAdc7HsaUt4leW0zB6p7qVCQf&#10;BhPGlFPVqaNcpw15lvRrno8Knmh4aCNnB/xaFnBgnu0403agtA+qf3FZjtRuAAA6oYmMVZeJ98lw&#10;PHbxx6NPEUQ7rg7xOeZ5PhraeuB608CdpLkxZcEdT6rePjf09gsy1WGb1AOdLr+oWS3QvYa7arDh&#10;DmmS6P17V1znwNwsV7LZtJqVpL/l/jzYhaTPeT7K+PKHZ/sWEgx9fwD7PC0XC+w6l/cu4VWkpNYH&#10;AADHaqpfdJfwQttUEYwEOiLPR+92sfyvcjsf2pP0xZhyzuLaZDQ130p8BlsR6Dyisae6dFLRgWu8&#10;tGdDpthJmyquYPWdpP9TnVbzzsPrP0nq2yA94Nt8z89vfKZAsoHLFx2+WIBJNQAAgOb7RaQxbBfO&#10;cQc6xu7wzFSf4enSperzO6d8D7S+jryoTncc2pzSxzakrgV2N9yzhhru0IqEOxnDDty/N0mf7CH2&#10;LMpAKLMDfsfnJFqh41I+Dzt8Hw6VUa0BAEib3U1z2eBH2HisB4DoMdfQMXk+mkj6TW7P7pTqxcpz&#10;dvi33thD3dhnTrFjG3Z0HuaZqtJpRQMNdxODzVR3dc7l/oyBmHyTdBXL2Q5goLuh4+vLsWm0rn3u&#10;MAUAAGjR+LZpN0xwA+1id3Chm/e9L+nV8Uv3JP1pTMnZze2tG+/i7G1EJPVA5yW3GA4a7nlHGu5x&#10;wkGAifafJ9g2r6p3cY7ZxYmGHDLQvTSm9HWuz/yEf8OEGgAA6CxjyqF2n2seUsUiNACIn51zyuQ+&#10;2ClJ98aUL6SybW3dKBR2vpUFF9iK1LXAYVIMlK3rKdEzSW2nLKUdqw95PmIXJ5p2aIDd17M3P+Hf&#10;DBNs31y2A1dUawDAEd4ogvawk8gxLeAlhS0AtGfcuQx2+vjuH0iaEexsrSLge7HRA1sR6DwMqwX4&#10;Qn9XokHANXeprqrN89FU7U9D/SrpN7tiCmj6mTr0u9HXLsrZKQModg7sxMASwCEyigDWnCJolUp1&#10;cHGXB0mfFe7olmtjyjG3BmgcCx5xyBzAux3f+/iOINjZ3npRicVviECygU5jSpcDcFYLYNlwd+G8&#10;1irhaxu2+LMvd3Gy8AJt0/N0BtOpzwLpawEAQKfYlLU3e37tc56PCjvuzQJ+vIKFaEDjCC7hIHZO&#10;ytcCFYKd7VVRBGgaOzqBIwdhHbjGa8cLBWLqkM1Vr1JuE3ZxIvb6eYhbD8/zu047I2TY4fsAAAA6&#10;xgYR96WsfbQBzmU/6yXguKknacqdAoB2sN8XT55efqDTsjehWRVFgKYR6ASO+zKfSXrswKVOEr+2&#10;tqRU+CYpYxcnInZoxoM7T6syTxkApZi+1lXmCVJWAQBW9SmCJFTanbL2VRt259iFlqEyGg2MKQtu&#10;FQC0xlD+0pwPjCkrirg97MYSFmCjUQQ6D0OQAasKhTuzpCkDm94oxS/fd/lLs+HKQtKnPB+N7ecF&#10;UkD62vj1KAIAwIpLiqDdbPDwes+vDXeMOYYBx75fjClZdNUtpKcEWsp+bxQe3+Iu1XnJhJGdAY1K&#10;OdDZd/haBBqw+mU+V9o7HpeKhO/hVPGet/oqqW93DwOxmx/xuz6Ci6c+JwQ6AQAI2w9AYDZo+GXP&#10;r/2xK3uMHfsOA37sijsXVR3KPL8Fge147As6P1NE2PAd4Ttj2oQznFuFjWJoFIFO4MQvW7Un/emp&#10;LhNPHzSM9XOxixMtMj/id29cp6+1k2+n7DK49pRKtw33AQAAvn8SZ/s51Z5fe7KT1Pv6W1PVR2qE&#10;MDCmnHAHgeAIOoeXypxi4fG1e+rGRpNUMJeJRpG6FjhBgBQNsRgnFgxYvYdzSQ+RfaxnzuNE4tjV&#10;6cecqgUAAFYUkgY7fv6mIxZ+5vlorHBnb90H2EkIAIzhHMjzUSW/QdsbY0oyMrWjLswoBTSJQCdw&#10;3pd56uk7eko7oBvbzlyCnEgd53RGjrOxAABHYOV+nN/lt5Lu9/WDTsgic6tw53VWqS64BYAEVZ5f&#10;n12d7bGgCNAUAp3AeYoOXON9qjnx7eB+HNFHynikkDgfdXx24r+7YQJtI8oEAKAD+/8s0ovvvh2S&#10;svaPU7LIBD6v81Kc1wkAbeG7vb40phxSzK1A3xCNIdB5WId+RilgR9147MClFgnfw6ni2Zk74KB1&#10;JK7nOu3Mmd/R7OoEAGAz+qTtVKnOyrPNQedy7hk7hTqvk3SFQDjXe35O8AK7vhvmkp48v01BSbcC&#10;2T7QGAKdwPnGSn9r/l3i56TEtKuTzhtS52PC6tQzozJuBwBEhfTZ7cLEd0SMKceSbnb8ylHncm4T&#10;+LxOUtgCcehy8ILvusNMPb8+uzp5XoCdUg50MkhGEDb9aRfyxRcJ38MXhVuZvE/qQWXAR/2enfjv&#10;UtklwKpJAKnoUQStGwchAvaM7X3jtaHDexbqvM6e/E+eAwBjrfOFaKvHFDPPC7BNyoFOVv0h5CC/&#10;UL1CNmXXiQfgCsWzM5eD1pGySzsZ59KpqwZ7iaREY9UkAMC1/p6fv1FEUam0e6HAg8sjeQKf13lt&#10;d6siPRlF0LwDx2ZzSgp7vhfe5T997cDDXALcYm4CjSF1LeBOFwZfVeKdslju4YDBPBLnOrh4Tmc6&#10;43YAAPBBf8/P5xRRHIwpC0mDHb/ybBfmuh4/hTyv8yuT24A3h2wUoc3HIWYB3oO5MgAbEegE3A70&#10;nhO/zKRz4uf5qFK482b2KTiPBi2Qnfjvbh0/uy86fUf2LbcRAICjkZosAjbjzpcdv7Lw2dcJfV4n&#10;dxwAohYifS3j97ixoxONIdAJuNWFlUWTxANwsdzDnhI+FxWdN/DQjpzaob5khwAAxMOYsk8pRGHf&#10;9zQTWc0/KxfaH/y7DXCWaqjzOgfGlBzxAbiX7fsFl6mvkS6b1tx3avtUjp9JtQ6wEA6NIdAJuG3Q&#10;XyQ9Jn6ZPSUc0LUd+Fju4T2TfejygPpIs4g+CwDgdPR94sAioPhVki53/PxbiOBE4PM67+0uVgBA&#10;nNjVCaARBDoB98YKs6K10WtMfFdnEdE9rHikELHriAYn5+wsGXIrAQA4yowiaI7dzXKz41debVrZ&#10;IAKf1znliA/Aqf6en79SRIisf5BRzFF7pgjQBAKdgPtB3ruk1FPq9FK+RrsqOZbru2bVMhLlul6f&#10;E+gcMGEGoA2MKW+NKefGlP/PmPIl0dTbtMftuA+kJmuuHehr92LIhZpZxFUoTECkJxaDpqJPEbTi&#10;PtDe4xizAO/B8TMAPiDQCXiQ56NC/vPSN+0u8bSqk4juIQN5RMdBAP7SZRvi4DwQ0t8AiL3d7evn&#10;VJUDpbmrjomrOAz2fO9yRmezY4Pejp8XTdwfu+B3GOjtbowpx1SF1rukCKKwb0xGe49jvwtCLHrJ&#10;KG0Aqwh0Av50YeBVJd45i+UeXjKQR4Rc7LhxPTh5ieizAICPvuV6cKPXQOYHdnZgQRE0w5iy0O6j&#10;A57zfNRYZhobYP0j0NsV7OjxjgBXN+wLOL/zHOBIswDvwULleM0pAjSBQCfgb5A3Vfp5yZNOqxrZ&#10;PSxIrYnIuJhYct1+nDMIZaAEIHaxtFO+J/z63OpmHdC/Z9K3mftyJenLjl9ZxNBO2EDrU4C3IoWt&#10;/3vJwpb025VDvnNnPAeIrK8o7V70g2bNW/raaDkCnYBfXdiFV3APg+h1pD6hPbJIXsPVILzHebgA&#10;YmXbp207LlKbgOtzx6NHoDN8G3Ch/UG9YUQT8kOF2fk7MKacUENaXbfZlRv/d+6cYkLAcfmx/WN0&#10;iD2yCNiIQCfgtwF+kfSY+GVeG1MOuYdBfEn8XFS0i4tJiUvHdfrciVd2dQKI1XBPXyUlZLBoXrbn&#10;5+xuCa/Q7nNTn2w2mljGUO8B+1X3xpT04fzxHbCmzY98TEdgASd8B8wVZrELCyUA/INAJ+DfWOmf&#10;Y1NwDylrdIcNTvZiG5zYSbW3M14i4+4CiLTNvdvy4yb6J74DqwPueuP2BR5mFFHQNuBW0v2OX1lo&#10;x2KIpuT5aCbpW6C3qzjmo7VtPvetWf09P3+miBBp28H4HcBPCHQC/gd475JST6dzaUw55h4GcUd6&#10;H0Qgi/S1zh1QDdg1DSBChac271Ted/MRsGjcvr4mqWsDaWHK2vVx1FjSa4C36kmaUmOSbG/QbPnP&#10;KSKcaEb7ASAkAp1AmAFeofN2GbVBkfKkVGT3kHNo0LQs0teSzp98zbi9wMH6FIFfdnHT3Y5faSK4&#10;MQ/wHkxcNWtX+S9iDaolqtLuLBpRpazdYhjofa6NKQuqjHO+FzbQl4i3vQ9x/0HbcY5LFipHaU4R&#10;oAkEOoFwxolfX68D1xjL9V1z6Doa5rL+uU5RyDmdQDh9isC7fYubgk9ABjqri7rVkAPS0zPpHe5e&#10;jCXd7PiVKFPWbmgzXiT9EejtvjBOcs73wgba++bamAvtP46ENh9NjcsPxeK4+MwpAjQh5UAnq0wR&#10;2wBvqvTPN/iS8mqqyO4huzrR1ID4StKl49fMIhpQZS28LQzugDTb21tJ13t+bd7Qx/OdirJPDYj2&#10;O2VGEQXrbxV7fq1oy+7aPB9NAo6jpqS/dsr398w1RRzvGMKetQuc0u7PFeYs+YzSBiClHehk1RFi&#10;NO7ANRZcXxADY8ohjxQa4KPeOQvUORhQ9Vp4Di6TeUBi7CT9IYua5g19RN/BlYxa0Jh9Zc84O4xK&#10;u3daPdvgYdv6kCEmvTmv0y3v3zMt7Ht3pb1/poi86kK9f6EcAYRC6trDOl0MtOGETdvzmPhl3qU8&#10;ULErGmO5hwVPFRrgI7Wr6zaD9LUA2m6sw3bPNxV0mnl+/T5VoDFZw/e+8+w5k/tS+7duAa1djBZq&#10;/MJ5nfH0q5sYC8BNubOwxa9eB64xRB1iV3i3+kiMEbAVgU4gvLHCrGRtUuppVYtI7uElA3gE7lTe&#10;ynHa2gMH2aEHVF0OdJL6H2i+rb2S9OWAX100mLbS9/teknqykbp3oQWb5U0AACAASURBVN0Btte2&#10;pEpt8T3IDnj+v9kFtK0TOIUt53W6uWfvAca+3KdmkKocvgX5rmJXeKf0KQJsQ6ATaGagkHog8Drl&#10;QaVdjRzLPRwzEYiQ9c3T6w4cv965A6pBV5+rtk6cAompArV1Tbazh8ioCsHtK/MZReSP7Xvse/4X&#10;an9Wl6HCLRrlvM52tPlkUwnf3vS1fwErbT7ONY+k/4Kw+N5FIwh0Ag3I81Eh6S3xy6wSv76J4tjV&#10;2VM3zn5FHIPha4+v73Jw4mJAxWAJQBNtbaHDF38Q6IRr+4INM4rI+/hpX+Bh3PZdtYFT2HJeZzva&#10;/B47soLb9x3LDn64aO9D9RtoP+LC/UAjCHQCzUk9OHVpTDlMuMP2HtE9HJOnHgEUbekMOxpQtWll&#10;OQMJbOV5JwsTYG7vVabDUtYuzRvuB/le8MUOn/AIdDb3/A8l3ez5tdc8H1WJjKVCprDlvM7zhVjc&#10;MqSYae+RpBCbPDKKGUDKgU4mXhD74G4acHDXlEnKqYLsREMMO3N7an8KK0TMBtLvPL9NP7IBVZsG&#10;S6SGwS4+A+GkOnbXzh6SsjK28vf9/pcs5ApaB29tn3Ibdvf47WcdcixGagtlhwHfi/M64/++Z3FL&#10;2D7HvoUVM0rqp/LC6eYB3oM+I4CkA51MvKANUt/V2YW0qsNIPscdHTt4VAR4D9fBmHMHVJek0AIQ&#10;0FT7U1bGNt4J8f6k5w9nX5Chooi8qbQ7yCxJjwFTAAZhU9g+hGxnCVicfK9CtPeXdsEFmm/vlwvz&#10;4Wec+o+OtEmhvrsyqirQbaSupbFE8wOGx8Qvc5z4rs6Z4tmZO+GpgofBVyb/uzl9DCBdDKi69v3/&#10;TI0HGmlnCx1/BvIigt11swDvwaR3mDp4ccB3PZPezT3/CyUa9M/zUaFwGXI4rzP+fuKQYg5i33fr&#10;E0UUTBcW1s4DvU9GdQK6jUAn0Lyx/J9x1KSe0g/AxTLxcENKJnhQhGorHC+KcDGgasvz1KeaYgd2&#10;JkfM7l75csI/jSF7DTt80jHc8/M3u/sObp//qwOf/2HiaYOHAd/r2piSxaHxtvk3ZCny3u70tT9t&#10;LQsC4FKo/kNGUUeDdhyNINAJNMwOWlMfbCWdVjWynbkFTxUcDoTHOn6X0TlcBmRcDKjaMli6pLZi&#10;h4uWvnYX2tgrnZ4OtPFApw18hdiJRfra5suYwJD75/9ChwUTnlJPIWkz5ITcQXZvTDmkFh5txng2&#10;CcOI7jU6IGDadc7pjAf3AY3gjE4gji/+QuFS9jSlSvz6YhmQXbPzAS7YCbjQ9dpZoNPRgKrHLmkg&#10;zDPb0TZ2qv3n8m0zj+RSZgHe45q22GtdHGr/ghl29/gZO+wr94W6k8oz9IKGCWexR9neS4kvko6g&#10;77HvWXtiBz88CJXFjrmw9LHQFlslG+h0nNqFThZSHNyFlvQklR0MPETycVh1DxcqnT4BH0un1cUC&#10;kqxD93xGtU9SRhHExU40znTebuxYFnWGCoAV1JzGyvaZSW/nbcCtpPsDfjX1lLVNjqV6kqaOj01I&#10;/R69S3qlzW+18QHjOxa2hO1L9ztShqH6rQQ64+CzXrNICVuRupYvHsQzcJhKek78MlMfsEwUx3mr&#10;l6RjwjlsytqbBt7a9SBynvpgiV1OQCtNJQ3OfI0oAp22/xqi70PGCj/fIUPtD7hXlJTTMr84sEyT&#10;T1kbwVjqUgR1Tvn+CuGOHbde2p59i+sXeT6izQ+r35HrDNVvvWYBSxQ4WgeNINAJxKULuzqHqV5c&#10;ZOetTujg4cRB8JXSWZTgYkA14FlCyzFRGFcbW+n8s48Xke3yCjXxTd/GbV28OKDf+sakt5fnZd+O&#10;qoU6eDatbddC90GvbbuMuNp7iSxFrhUHtD2UOXyZB3wvFsYBHZV6oNPV7jgG1Ag1uHuR9NiBDnbK&#10;JorjvNWeOjhBgvOs7DLoNfQRrh2/nqtAQBbxbXPZR+F88zT5fJ77FO9RbWwl6S7BZ7UK9D6XIp2h&#10;6z55L5J725U2YHxgX2fS1XTBeT5qYix1Rzacg+/PS8D7c22fGZzf9lxpf7rshQh0bsOiwXb1XWk3&#10;mm1vMkoBTWFH52EGFAECfykvEr6+S2PKIuHBXxMrkbfWJWPKPo8UjlA1/Z3neLfOzNHrxLwq1OXA&#10;+51HILmBpu/vANISHX4vKrkJckqRBTrzfDRTuInve1LYOqmPmZj0Dl3mh2bMeMvzUdHx4mri+r/T&#10;thw1XghWF0hhG+yeTbpyJvAJfG5+6Ur9Dtl3HTAPljS+E7AVgU4gMpGlP/VlnHLqMZviK5ZdnQVP&#10;FQ5hTDlRM+dy+uy4dmFHJ7CL90E+qUQPKqNK7oKcUpy7r0P2NyomsM5+Zg9JP1kw6e223uqwHfad&#10;77s3OJaqCKodXJdDjmcr+hpnj/H2LWRlYctuFy197Zja9ffA7Tq7Optz1eLnES2XeqDT2SQAg2kE&#10;7gQUiiNQ5nPAkvogfhjJ57hjwI4DvuOG2r+zo41tqat+wGXE/QCXn4vUtekJUW/5jtndvlZyG+SU&#10;wp5zdGh7WwXsu/YkTZn4PtkhZ0S+2RSicNMOHBJoWJZ7RYlJDY0Ve5JmjJ32tvdzhT1uZyCCcL7H&#10;eGMWtuytg2hX/3VIP7ExlDsak3qg0+UXdZ/qgsBSX4F0n/ICApvG7TmSj8PAEPsGwN8TvkRXE++x&#10;pjNz1o4ywZGkEN+zTAhvb18ruQ9yLvsYMSoCvtdAh+1KxMc6ecgZkUNKy1mZ3+rwxWQFJfZPO1ep&#10;mYW/LKSIs67epXz8jae25+rAeYBnFljsLEfffeku9aND9l97YldnUzKeGTSF1LVAvIO7qeIJlKUy&#10;QOrq9V1z5gx2DIBjC3K63lU4b0mH/VSuJuIWPBFJCjEQ7FPMH9rWC2PKqTwEORVxxg87URqy73pt&#10;A3c4rF6OD6yT3yIOpretzPs6PM3ngmBDNGOpS9U7Owl2bm/v5wq7q1OSvtgFmjhsjDfT/t37C7Gw&#10;pel+bq9DZRk6exC7Onlm0DGpBzpdDtAyqgsakPoKpDtjymSfLTtJ9BTJx2FXJ7YNgGPyzcOuwnni&#10;/QBXqZRIW5umLJH3aFPbemHbVl9nHs8jL4LQfdc7Y0oCEvvr5VDS1wN+9VXsKnTZFhySJnipotQ+&#10;jKUqNbe4YyCCnfsUCr9Q7jvBzoPHeIe0PWMbtEaD/dyU58QaHm9eil2dTfR9Lnlm0BR2dAJxD+5e&#10;FH6lZBMDpJTF0rG6JN0PThwAh/LNU3vgavDeo0ONFj7nIZ7xARPBH9pWn2c5zVrQd/0j8Ntei4DE&#10;rnpZ6bDsDQtJQ9KYOzM5si2oKLLoyoVg5+72ft7QWP4741onY7xHdpEfJMT4r9+hNiP04pUxbXhQ&#10;odLKck+xEWd0xvewAh++mJV2SsGk06o2lNaHTh5cDYB9e1Md4Pw1z0djT5Or85YNdI+5ly4/Dzs6&#10;05Ml+l6xt60Dz281j70s8nw0UfiMFgNJcxak/FQnL448J3ZoA9U4v+yPKfflc0PZb9Z0VhqCnfvb&#10;+yaO2/liTFlxX35qd4aS/jpwjPea56MhpXaQ6wDv0aW+yyzw+/XEQqIUx5/EaLBR0oFOx4MFOlBo&#10;qh6/K/20o6lfXyzB6p5IYcsA+PABsE/Pkj7l+ahvA5xzj+/l8rVTPuuWHTzpGQZ8r06fAx24bZ23&#10;qP69NtDP+cFOn58C74cG2z7n+WhKs+msPTj2fN5nSm7nWLjp8iHYub8P0ESK4Tt7Xzo94b2yqOX7&#10;gf/kVSxQO7RsbwM+Q10xa+A9b1LeXBHh90EItGHYiNS1h+tTBGhwgFeoufNJQrg0phwnfP9iClbf&#10;sduhswO14REDYF/eVAc4M3uGbQhzh68VW4rOLNJyQvPPeyb/OwvXv1suOljOx04uuuhTzNpQNrbv&#10;c6tmFnp9MaZ86erktw30/nVEG/CZ9IVJ9bVSFEO7t9w1zi6SuNr7ZRC6k+fw2f7eiw5fXPEqKSNF&#10;+cFCBW16HQrENdWeswPcf3vUDzj+vKbEsUkXAp2uVv9dUl3QsNQ770XiHY+J4klBXPA4da7TWajZ&#10;ibeFpD/sDs6ggxsPu0WzRKvJnCclre9U+ine29VMx00uutCqRW+2/c3U3OT3X11KbWhMmRlTziV9&#10;OeKfEeR0V/7DM/paBM/aoac6qJZRFB/a+5cG2/uepK92gUsn7o0xZd+Ycirphw6fqyTIeWQZB+7j&#10;jTvSVswVPuPHP+03NdurYeBnlF26+IAdncd/0QFNdQimSjutUS/lzp0dUBSRfJxrOxmDbnx3VTpu&#10;0tO1b5L69gyfFMTUoc4cvtacpyWZZz5TM6tcO3EOtN3FOdFxk4uutO4Mv4Ynv6V6knJuTJnsgjob&#10;4JydUCcJcrrta52zoKxH8KxVY9YfjKW2tvdXaiaIIdULXH4YUyYbjLYBzkrS35JujvinBDmPF/oZ&#10;v+7Q90BTfY+BfX6QxjNDoBMfdCHQ6XJCoE+VQcNSX+U1TnlBgQ30xLIbY0LqjrTZyfjQu41WPUv6&#10;1Z7B2fSg2uUikSQHoJ7PSUXA577ByYNeg+8dqnyHdmxxn8C4JmT70nSws6d6wc//2R2eV6nUR/s9&#10;/0PHLW5YSPqdIKezvlblqK9F33y7GJ/Z70yYb+1PZpIeG/wY1/o34JnERLhd0FKpDnAe2948iSDn&#10;seXdVzMLhScdKeImzwS/o+328syMFX4B6C39JqzrQqDT5Zc5KWXQ9MDhpeFBg289pZ9WtaCsEaCj&#10;eaV6QnzQwNu/6t9zOOcJFu9lRAsyXO3ae+OpScZEzR63cJPiOVk2oDRXvWOryfJ9aWsZ2j5sX83t&#10;9Fm6U53S9sWYsnUL7Iwpb22w9t3Wx2O/55e7eqaCi77WTO4WlA0kTZm02yiL9HPd2bakzy36qb1/&#10;z/PRUNJnNXt0y7WkP40p58aUk7YtcrG7N8e2//HjxLbmIc9HtwQ5j1Y19L4DmzUk9TZirmaz1RHs&#10;dNtWXaiZucWkswLiNP/pwAN3K+lPRy/3kOejgmqDCL5E5rZRT9VvdkIs1Xs4Vzzn/iZd1h1tI4aq&#10;gx2h24iFpHGMO0Qc7rZYajzdn/0u+D9HL/ec56OMp6f1z77ren6OP9qerto+Y7d24M53tttynURU&#10;V6U6+DdTvcPgJaYJYTsxn638Oee7/ZukgglvJ/dlbNuGnqf6eEumhZ/6td8j/5gLSUMWEGxtwyo1&#10;s/hykzfb3s8kzWJ7zuz8ZWb7H5dnXucwz0czauHR96BQs8e+RDHWDFTX/2z4Yzzb71v6Refdy5ma&#10;OTYlmfER3OlCoDNTvfrJSSPIRCDofIXpcKT8rDlulyhrrNaticKnVFyonrSexDpI8NBmPuX56Lbh&#10;a3LZjjzalfdo77NfKa7AkVSnShu2bfLATrws/0S1qCzPR/9JqM4O1cyinEO8qt49+6I68DkLVCYX&#10;qjMIZSv/dVE+THi7u0dXtt76ntBbqA5KTzpe3m1b4NvK772Oz1+8rbT3M0nzUMFPuxN4tc131a6w&#10;qOW8vkksCyv+SP07IJINACxUaf8Y9E3SFW0epG4EOl3ueHjN8xHpa0GnIIxPKU/IRLDqadVnzmlK&#10;4rtu2kCderQD6Xnk5VPI7eTKIs9HFw1f01jSV0cvR8aK9j77fdU7Ja4j/YjLhRBVrO2E4x1zPiU3&#10;DmlB/V31pjrg8qL6aJTlf6UjdoHaRSqStAxqLv975anuPSjihUgtq6uFwk/mdTpIHdl46Zjvvc4H&#10;qXd831aKZ3fnLs9rbf1yt9BRgdCVNr+/9sdHvX5VnV1nRm07qX42sWB4n6QXT0QWWH6yz8+cp+Hg&#10;+1cpnoW2C9W7c2n/Ou4/HXn4/p+r10ppJTVaX69jSPXgdWCf56N+wvcvUzy7OheS+kyCtXrSYKqw&#10;Cx+eVU/izFpSRj7ay0ZTpDgO3v7OKtbWPfcXqs8kGas9O11ebVs1U+D0oDZIsfrnyv530KLb3vhO&#10;cs9tdNPny6amFQuRWtLHGiuO3QqFpGkX+usNLuBzfs9YTLq1D9um/gt1Le36mNk+SKx9wuizJ51Z&#10;/i+Rlf2jLWtSoe7+jq4k3dD/RWy6Euh02XCS+xkx1e1ZyweA+yS90zCy+/ctz0cc5N2+OjRU2FWQ&#10;b6pXOk5bVk6Z3C8saHQXpOP24xOrH1tTl/uShkpjgnChlR0S9s+qQ+rkcjfcquUuOSXWR0p653VL&#10;g/cxelI9wcN49bx29ta2tbFNfC9UBwCnqs8XTHHSe6h401qf2ndeZjZgUenPbX5s5zW3sW4R4Dy9&#10;/i3b+Tb1FR9t/ziZRS+RbQBY9ao6mDclaPbT/fJ5Rrnr/vCyr8T965CuBDpnDr+82PUAOgVhB/P9&#10;hFN19CX9HdFHYiEHkwO7nsVJWyfZPbWVjZ5v6zJ9Odkqoq+/y9SqQ7VrByLc6sQYhIDnyVjBfnp9&#10;u1r5k6ldO4tfZXfJq06pOWtxP215NnLKO7uXE69Tgp4/jYcLEfA8BgHO/e35XP+ml5c+pou/TqQe&#10;zPXvwsC51hYNtij70lRx7g5cLevZSnm/d2nezI5Fh/ZPr+XPyvI5mdNnTlNXAp2F3KV34xwrxFa/&#10;q8QHBqnvYIjp/jUauMFRHc1K4QIej6p3cb63uMz68rCooMkAocO0/I2fN8ozXa7uSlxOwvTl7wwn&#10;tFPnFiPZnV1jEeDf5s32Byoma3a2rcv2dLWt7SvtgNqr1s4XbGqhxErq8OX3W5fuw7579LLyRwqc&#10;1j3CvnohAp77xmQVWVg21p/Uj3U6eZwnKYu9/2if/xe1N4j2onpR+CyBZylbGZO2cQHYKfdvvvJd&#10;zEKklutKoHMs6aujl0v2fBy0elDQ1k7BoZ2zq1QncCLc1fmZ1aFR15ehwqXzepY0TOXZc3le94pG&#10;dlg53qHKAodm6uNyV/at2LWGA3R557XtK42V/m6vQz2qnoghy9D2OnOleuU+7eu/XlVPeIc8H3ki&#10;6Z6iP3rsO+nq4nrbPxraNp/2nl3Ah9abmVgcuLXPkOejId/bQfzatrkT+z09pL/UXF8Jbv3Sket0&#10;uXqlT7VBTOwX6SThS+ypXt2Z8v37FtFHmtgBJiIb9NuULt8DdELfVJ/ZmLFDZK+sofd12RchXXUz&#10;KtW7FhhU4hDPXe/r5vlonOejvqTfbL/ptWPF8CTps6T/5floSJBzLxaRfDTQxzONfSPIedrY94ud&#10;9O9ie/+e56MJ7f0/7f1tno843xVdePZf7HfUN9vvfWvhZfTb9GHtIvp7+kuN95Xg0H87cp1zx5Ue&#10;iM1yFU6qqx7vjClTPneoUDyrqJaB5TGPVTQd0Ex1UMT3871QnaK2otQPljX0vi4733NuY+vvIdJH&#10;UMuyE2Fj+/3Yt+3w8k9K/eDleVBTSTMmudFSCzGBeqrOLzxda+8v1tr7lOblaO/PNxE7Olvfh7Tz&#10;ff/MQ62du9pf+W+M/b1FC1PX9nk8kJrOpEBynLLuE3nxEWEdH6re7ZWqpNMrOj5LmHaOenGsB9Vp&#10;st4TLsuZpwHw/0KXm+Nr4VlP+zt7107A5dlt+Hew3z/w90JOsHBsxuHPVV8/nyl0pfYEWZZnPM1U&#10;T3Sz2/78unDO0R7LM5s2cfWduW9c47rP8prno6vA9+FW9WI9V8/hru+0udwv3tr1veAzqLKQ1Cfg&#10;tbd+ZStt/pXaE/x8te3Ii23v59xNJ/XhSvVuftTeVac8nid6v/f125fnQh/qmN+/WGlvlv23om19&#10;N0/HoD2f8R2dbbkvIfvywftKcKtLgc6Zw84oZ9ihC/U8RslOyNvVanPFMyHHF3zzA7UqwID9SfUu&#10;znkHytRX+xi8T2BM+e6wrfgfE2mNtvtXK4O6TQPsTYPCd31MOfxOYCSaCYO+w5fkvrq7J5n+DVo0&#10;HQBdBtFm9ll+YaLbaxu7U1vHFjbIs8/yd2ZNXqft116kei8O+A7Ydq+2fe9PaPvPqmvLdr7pNn/Z&#10;1r8s/8viQgARfm/drnwXZdq+oGv971+anEfwMO4SbXT7dSnQWak+C8mFb3k+Iq0jYh3w/kj4EpMO&#10;vkW4q/Mhz0cFT1bwejBWnT7Y54D8WfWqw1mHynUmP4HOxzwfDQN36P929HKLPB9xJi+ALvebpX+D&#10;EH39O2HS12k7dxf6dyHC6qKEmQhcA0AMbf5qW78ebF7dqbWvjddK+77a5tPWAwDQgP926FrnDl+L&#10;XU6IUp6PZsaUj3IX1I/NwJhymPCO6onqMwli2dU5Nqas2GUQbPDdV72L0+eu7DfVAc6KEncmC/x+&#10;LvsgTMIA6HS/2f7PGaUBAJ1p8wEAQIJ+6dC1uuzUcMg1YlaoXmmY7PXZVFQpDr7etXL4egR6qgNv&#10;8Mzu4nzx+P2yUH0O51WHg5xzT697aYPUoRDoBAAAAAAAAKwuBTrnLl/M5v4HomN3300SvsRLxRUM&#10;dH3/KtW77mJxbUx5y5PlhzFl36ZU/Sp/O3kfJfXzfFR0/CzGucfXDvmMZA5fi0AnAAAAAAAAWq0z&#10;gU4b/HG5y41AJ2I2UVzBMtfGqe7qtIrIPk+VeHk3IsAuzmdJv+X5aNjxAGcIWcD3YkcnAAAAAAAA&#10;YP3Sset1OaFHoBPRskGNIuFL7CnhXasR7upMurxDM6a8MqZ8kb9dnG+Sfs/zUZbnIwJZYWSB6k7f&#10;ZZ2hfgAAAAAAAKDtCHSeLqP6IGY2WPac8CXeBT4XL7QiwvKm3TuDMeWFMeVE0l+SBh7eYiHpjzwf&#10;9fN8NKXEg+oFSmnv8hl85bYBAAAAAACg7Qh0nm5A9UELFIlfX5XqhUW4q1Mihe3J7DmnL5LuPb3F&#10;N9XncLLztjlZgPcgbS0AAAAAAACwgkDnGdjdhNjl+Wgm6THhS7xO/DksIvs8l0o/eO6UMWXfmHIq&#10;6U9bfq49Sfo1z0djzuFsXNay9yDQCQAAAAAAgNbrVKDTw1lUGVUILVCoTmmZqtTP6owt/fA9izz2&#10;s2lqC9XBpBsPb/Eq6VOej27zfDSnxKNwE+A9XGaTINAJAAAAAACA1vulg9fsMmhwRRVC7GwQJOV0&#10;lgNjymHC11dE+JlIYbvDSpraL5J6jl9+Ielzno+u7I5txHXvs7a8NvUHAAAAAAAAKehioNPlDoaM&#10;KoSWmCi+8x5dKlINvNlgRGy7Oklhu4Ex5ZUx5Ux+0tQuJD2oPoezorSjlbXktZ+5VQAAAAAAAEgB&#10;gc7z9Iwp2dWJ6Nmz+4qEL/FS0jjh64vx3pHC1rJpaitJf0m69vAWj5Ku8nxUcA5n9LKWvDZpawEA&#10;AAAAAJAEAp3ny6hGaINIz3t0acyuzuA6n8LWnsM5l3Tn4eWfVZ/DOeQczta4bslrE+gEAAAAAABA&#10;EjoX6MzzEYFOdFmR8LX1lPZZpDHeu86msDWmHBpTzuXnHM43Sb/n+SjjHEWnLgLVjawFr0m9AgAA&#10;AAAAQBJ+6eh1u9wZlVGN0BY2aPKY8CXeGVP2E753Me7q7FQKW2PKzJjyRdJ3eTqHM89H/TwfTWmx&#10;nAuVaj6L/DXf2CEMAAAAAACAVHQ10Dlz+Fqc04m2KVQHVFJVJX7voizz1FPY2gDnTNIPSQMPb/Eo&#10;qZ/no0Jouyzy1yRtLQAAAAAAAJLR1UAn6WvRWXYnT8opXq9T3WEY8a7OZFPYGlP2jSmnqgOcPs5f&#10;fJb0qz2H850Wyqt+qDYo8tecURUAAAAAAACQCnZ0upFRldAyE7Grs62KSD/XvTHlbSqFbAOclaS/&#10;Jd14eIs3SZ/sOZxzmqQgLgPWnyzG1/LUBwIAAAAAAAAa08lAp9018+rwJTOqElr4DIwTvsRLY8ph&#10;ovdupjh3dUoJpLBdC3DeeXiLhaTP9hzOGa1RsPsa+nva5fu5XECwyPMRqWsBAAAAAACQjF86fO0u&#10;J/o4pxOtk+ejSm4D/rGZJHxuZBHp5+qppbtpAwQ4JelB9TmclRBa6O/oLNLXmlEVAAAAAAAAkJIu&#10;Bzpnjl/vluqEFkp5V2cv1euLfFfnjTFla8o9UIDzUfU5nAXncDYmC/x+147q54WkQcR9HwAAAAAA&#10;AKBRBDrdIdCJ1rEBs6eEL3FsTNlP9NqKmD9b7LvcjSkzY8qp/AY4n1WfwznkHM7G3TRRxyLsW8yo&#10;CgAAAAAAAEhJZwOddtL5zeFLDhJOk4m0pb6rs0i0DZsp3tTD0aawtQHOmaQf8hf8elN9DmfGOZxR&#10;3PNhQ2+dRfIaS5zPCQAAAAAAgOT80vHrnzl+PXZ1onVs0P8h4Uu8c7SzKkaTiD/bwJgyms9nTDk0&#10;pnxRHeC89vQ2C0kPeT7iHM64NPXdnEX22WdUBQAAAAAAAKTmvx2//pncpizMFOkuJmCPieqdnb1E&#10;r69Q+DP6vMvzUWVMWUi6jPQj3htTzvJ8NG3ize0u+6Gt277L6FHSmDM442JTV9809PbXZ372zHGb&#10;PKNGAAAAAABOHKNekSVo69j9StK2TI8vkuaU3dbyu7Dlt6kMZ2RKw6H+0/EHqa/6fDZXFnk+In0t&#10;2vo8DCV9T/gSP6e4y64F920h6SrkGZW2bR+rDnL6Dt4/S+IMznifj0r+zmA9xKdTO+V2R/S9w8/y&#10;GwMrAAAAOOpn36qelD5HtvK/XyRNjhlX2cnx8crrzPJ8VDi+zivVC6cv7Gcsjl3cuvI5r+xrbLr+&#10;dS/2z9TnYlo7nzDc8zlW379v/+z83C7mXmy5ZbbcDhlTvYcc79h5h77r9zWmHGt7Zp/3tTp0qOrc&#10;OQsbzJtKypoYV64sZL+wZd5YBjF774f2Pg2O+KcLW5envp5t+0wXqhf7v0la3vdj5iXWn/OprUPv&#10;ju/nrW0bBweU28R+R7C5AFv9p+sFYFMZDhy+JBOJ4HmI01uej/qJ3re54t3VKUmveT66ClAOme1s&#10;hghsvakOcM6EWJ+LvtwuZjrFw6mTLY6f62TbPwAAAATvZxeSvnh46ac8H90e8TnGkr6u/fVjno+G&#10;jq7zStJfa3/9x7EBFmPKqc7LMvOkOihSOb6PQ/lbNP37OZmdm7BHdQAAIABJREFUbBBkrtMWLj/L&#10;Q2Bmw9zDj3PqxZbXdb3YdensjTkr17yQ1A8dcNrQ7vwROthpn5lDAnPHPNsTl/NKxpTv8rPg31l5&#10;27a7OOFzLlTPwzWSNQ7x+4UicJ7KbUiRosXGCV/bpe0YpSj26/J2Xqcx5cXa+Zu+g5wL1buD+wQ5&#10;eS4OkJ1Yr/tyu3iBugoAAIBG+7gHODYYuGmTwZ0NyJw9zlQdLDvkPX2X142k78aUcxfXFuA+Sufv&#10;9h3q9GDNteoA+NzjHFDmqSxvPX3ensO605M0s89Ik+3Obag3tnNOc9ULA1xuDrmR9MM+20OH9yfa&#10;dt9m3fp64ufsSfrTYVkhMQQ63U/+ZRQp2soGbp4SvsRxA52xEPetUr3DMGb3Nr2Rq47mle0g+ehs&#10;bvOgeuViRWsRNzuIu4vgo5x6TqfrQduMWgEAAIDIHTWmtfMXjxt+VLiYO9DHhYffTlzs6irwcKk6&#10;KOJqPNr3eC/P3e3nYt6mJ+mLMeWL3Z3r04XDe+yLy+yDA0mVEmfnnWaq55z23Zs31buJv6meO3qw&#10;7dOz6gXz++77d1tXY52zfHFQnhNtn6d5XSm3ZdltK7fvjhd9IBH/pQicT/4NjCn7nNeGFhvrvLQq&#10;Meupzus+TPDaKvlJH+T0M9rD609qH+0ut9stg06fHlWfxUK73h6TWD6IMWV2woSI6zaK1C4AAADw&#10;aaHzJsLfdVqAcnlG5+r48NqYcnjqAlU77vyy4foKx+VVqZ6TXAYFr1QHH6+0e8HknR1X+wreveq8&#10;QOW7/ATBTi2zgeodiFmLjxp7PvPf+0jje2NMWblKFR2bA1N0P+nA8zZtu5KpntO62VFXfcxZnts+&#10;z3XmHIsNTN5vaW+G255Nu3tzoo8LRm7Fgm6s6XygM89H78aUzzp918Umt4pokhU48pmYG1M+KP6g&#10;2anujCknCZ6lO7GDvF7En7EnaWoHGAd1su3Ky1sdf8i7q8FEQYraVg5IYjpr+OqYDrgdALn8/K+h&#10;z08BAABAp7xJumqiz2nn9MaS/lz7UaHTg22b/l3h+Po2Bd1mK2OCC9VBkaE2B0UGdl7D9fFDwc89&#10;dFxmt7bMrjfMRVTHzEVEYrHlupuwaafhnTHlS8R15pT5hGXa6l1xgqMXw9vfrWw9vLD1dNMi/r7j&#10;S3q1dajpel9sKsd9gfI8H1X2nOP1e3IlYA2pa2uudzoMKVK03ET7Uyu0/fqSYjstbbiu5WrK/pZO&#10;Zd+ef1DZQ9T/Uh10Dxm4elN9DmdGkLN1g5JM8S3SyI78fddpa9nNCQAAAJ+qJifR83w01ccdb5en&#10;nM9oj1tZD3C8OQ7kPO0LXOX56D3PR9M8H91K+k11sGLd/ZnpG983vG+scwqPB5ZZleejTNInfZzT&#10;GqgOLLXJS0SL9LcFlr6mcmaiDUDOtD3I+Szp1zwfDc/J+GXr6iTPR31Jn/Vz2u6548uaNh3ktPN/&#10;H9rVQ59HW16ZLatn1YHmJOoc3CLQWZs5fr3Btkl8oA3sl+A44Uu8TjSfe1sCuANJfxtTTo0pC/tn&#10;ag93/1v1+Qd3Cr87daH6LIArzuFs7aAkxqDesW2N6w47gU4AAACkbtP8xfiE8+4mAfrnRwWubKAr&#10;0+bF6EWoz9Gw+ZFlNtPmBaTjiM9AbLNJgHNQQ5hp8yL7herdzpnrI41scL6vOoj3JPeBzhhkm9qu&#10;YwOwy4UM5waakS4Cnf92Gt4cv+wtJYuWPxeVNq8aTEWV4D17V72yqS1uVO+++2L/92WDn+VRUj/P&#10;RwVpPltrqjhTN/cOHfR5SFv7lmCabgAAAGB9LPwi6dt6P1xHLAa2O0DXx6TPMWT52bEY/bojGy36&#10;J5TZTB93+vbEfK2XMa/qzF2tDXYaU1baHuTMfO92tkG82zwfFR15flmQDecIdP7Ldcclo0iRgJR3&#10;dV7aszxSU1Btj/Is6ZNdEUaAs72DkoncnrXt2qEDPteD7hm1AwAAAB1R6OOux7tDgi82WLhpfmDo&#10;4XNmp/wjuxh9ccZYo836J/67qqPl1YTlOait2zFrU1bfbfjRq+qMXywedtvmPTP/Bh8IdP7L9UqC&#10;G9IhoO22rIBLaiCU2nNq0zc8Unv34hzORNjzQO5b1rHfZhh53wYAAACIdSy8bdfjITuxCn3MDvMt&#10;wvSIm/r3BO62e6G8vFlo8zmoszZdhJ0TrLZcHylSgRYh0Plvh2iqzSujzjGkZJGAlOtxT2nugKyo&#10;tjtxDmci7OrsNpxNmx1wLX25TVu7sH0bAAAAoBPsGG99sfa13bG1rR+e6eNurkWkcwWzDX/X585v&#10;rQ/sxPPndss4d2DTwLbFWJuPwLlNpP7MIvxMLDaAFwQ6/T78Q4oUCXQM5/p41kVK7lM706IDO3FP&#10;9STpV87hTINdeTlTnOdyrrs8oJ1x3WeYUUsAAADQQRt3de7I5rRp4WSsY8b5hr/rc8uPck0RuGED&#10;gZ83/OjOHi8TNdsmbGovvpH5y6n1suztWnwCnIpA589c73wYdORQcKSvkPsdzzGpErymCdX2H2+q&#10;z+G8Je1Icp3lXos+b7bn58PI+zQAAABA9GzwZX2x9qU2BDTsMRjrWVVe83zEeDpdrxSB0+etUp01&#10;a929fb5iNtTHOYVYd3Ofah7BZ9i0M7bg6YFrBDp/5mNSkBUKSKHj8p74l9C1TVeT0j2bqg7wddlC&#10;0kOej/qsxkuLTYUzaNnHznZcz5XqyZfY+zQAAABAGxT6uFh7vLoZwe7m2hTQHLfsWufc7q3jrP6G&#10;vya702n6236Q56NC0uOGH32PfK5t4+7vlDKAxbDYf8txgW1LcYwWIND584P3rjq1oUtDShaJPB8T&#10;pR04S/ELtuhwlX2U1LcdbqQ1WB3r4xk6bZAdOcA6xxPpmQEAANBVti+83sfurY37C33czfUY+SLZ&#10;Tel359zxrTadBcg46TT9Pc/cUJuPUJrahb1R2bHYuErppkUUaN60qOTOmLLakVYcOAqBzg0NsOPX&#10;I30tUjJM+NoubQAltfZs0bE6+qo6Te2QQE96bOqbry1uY7b1B249PPsAAABAZ9mUmuuBl2tjyuXO&#10;zvu1ny0U/27OTeOGOXd7q033c0axeK2f66mBe5JmEQazsg1/95zgcUdZJO1xoc1po+9s/bji8cG5&#10;CHR+5GNycEyxIpGBwkybV2ilokhpJZEN9HXlbJGFpD/yfHRFmto02Y5v2+vz7YbrGsr9WaMEOgEA&#10;ANBYHzciw03j/i395SLmxbJ2rmJTWc8cvkcyx2/ZcdZ1y8dKrTpmyT4/t/q44D7GYGfm81mKyBdj&#10;yljmOjNtDnYOJP1lTFnwdYpz/Jci+NgoG1M+Sbpx3Okj2IlUDCX9nei19eygJ6XntZL0JfE6+Shp&#10;zA7OdNkV1zO5Dwg20bGfbGhTXSJtLQAAAEIaGFO+6OeUoFdH9t2f7ZjuxeUHy/PR3JjyYW1M3FM9&#10;sf7T+9vjekLonzG272343HOHn+1PY8r1v3tdubcXG8ruTf/uKn2XNLW7aRspMzt2nGjzvG4bd+z9&#10;MKZcSFp9Nq6PfLYqD/dk1zOXbRi/D2wdjiWYnm34u1mibfQX1WcUz9bq0bKtXg2Cvts//bW/G5/7&#10;7NiYy7JuDDZ9TrvYYuj6uwDdwI7OzVyv7rlMaVUUus1+sX1L+BLvU0o3be/XY6L3ijS1HWBXHk7V&#10;/iDnh8GUbWuuHb8HuzkBAAAQ2sD2a5d/ju27X8tT9habMvFtz6+FXOx8eczuKmPKC2PKSpsDd1Xg&#10;e7spOHG58vMbSd897EK83PeaxpSZLae/tX3zSlsXtffWnq9jn63vIT+sDVJtKusbe49iKdN184Tb&#10;6J59Lr6s/blZq1s3qtPJrv/d0FHdeM/z0ZW2zysvd3dOOLsTxyLQuZmPSUICnUhJobTPfqy4nqiR&#10;prZbZlsG1K0cXKydPTH08B4EOgEAANBG1x5fu9jxs6cGdg/tnSM0pryyqRznqgMP657P3KXX93h9&#10;mYfXnNhg5uqfsTFlZUz5LunHlnJa+tzlXWKhU+Dauvl5w4/ujCnHMZZFgudzRivPR2NJn7R9Ecq9&#10;pBc2juEYBDo3P2zvkp4cv+wdKxGQ2DNSpDzAatM5CAfcr5n2r2Bti0dJ/YBphdDsAKRSOkHOpdWO&#10;+tDxa5O2FgAAAG315PG1dy0GbCL4NTGmHBpT9u2Ozcz+/4kx5cyY8v9J+kv1jqtNO88WOn9DRd/j&#10;9fko04HqYObqn6+qg5v7dhB/DpW6NVKLJhaJ2zLflGHsqz1DFe3x7qF+zFSnzn3Q5s00l6rTaU9T&#10;yrwHfzijc3cn6Mbxa94qvZ1V6Kg8H03sKqzLRC9xYr9wU7qery3+/K+qzwSY8fR1gw1y3iV4aZm9&#10;vlsP7Sd9DAAAADQ1Xjs3s4jPvuzFiT/zpafT04m+qj7DzscCx4W9D+e89nuej2LJMuPl7NfAXNyT&#10;WVMfPs9HQ7vxZ32O/bsx5QtnMbai/sx9LRRYbqSx8z+FNs8B3UjKjCkLNj1gFwKd203lPof5WExC&#10;Ii1D1avoUjQwphwmtOpvqnYGOheS6Mx0jF3deZfo5V2v9AmcPisRTSgAAACgO57zfJRF/hmHO352&#10;q/ac3fjNjo9dBDlf9DFdcJZA4OlVdWCvSiSIdpVAStWhNh9JMzOmzAh2+i37NswT2Do+XAl4rrdN&#10;Pf27E3hIncEmpK7d/oC9a/P2+nMM1s7mAtr+nMxUr5BLVTKHX9tOw2vLPvaT7dQT5OwQ23H93oFr&#10;dH0GEUFOAAAANGEWed+7r92BzMvI02i+qk7t+Guej8YOd3K+b5g3iDl48KD6TL9t8xp/5PnoP3k+&#10;urLllEIg5DmFcyNtnc30MT1pT1LFUW9evbesrszswpnP2nwE10A2QM6txToCnbv5mDQcU6xITMp1&#10;upfY9c1a8jnfJH3K89Eth8F3SxeCnJaPa6yoQQAAAMAHE+0/wzH0IudX1RP5n1b+PKz8+cP+3f9s&#10;4K7o+Nj42ZbBTHXA7I1q3S47gp3LwFXI5++9Q0V/0dL6Uunf8zvX9ST9YDMZ1hHo3P1QTbX5MNxz&#10;3LJSBYk9Jy9yv/s5Jl8SOvR61oLP+JDnoz5ncXaP7aSye/c0bzwzAAAAwIcxxq0+ng0obd5ZVgT6&#10;WAvVKWIru3tp+adY+TOxf/fOXfyZLZPhhh8VBD6iv3cvqlNFrxuEnAvYtts30V2CV21+1vN8VKhe&#10;9LEpPjMjxoJVBDr3qxy/Xm9Low602VjuFwXEJJXgS8ypW55Vp+IpeJw6OQFxpToQ36M0ouirAAAA&#10;AG0fY1xsGct/0uadZfeBFjlPCWCexy7y/Lb216RBbc+9+7zhR3fGlCHn3jbtCqbuxFtnNrXZqWXh&#10;w5kIdO5XeXhNHkKk9qXzrrR3Yt2ksLIr0lQ3b5J+z/NRRprabiLIGW1fBQAAAGizsaTLtb97tDsl&#10;X7R5B2eIfjXjXgfyfDTWx/M6g+4MxMn3rtLHQLVULzYYBvoYmzYCZNydaOvMy5b7Q4wF/yDQediD&#10;9Or4ZQekU0CCz0qhtM9JSKWz/BzRZ/km6cqmCUcHEeR080yzSAAAAAD4aZzRl/Rl7a8XWglu5vlo&#10;oo9zGNeJpq9M1a0+7vK6Cxgsw4lsoHrTMVjfbcpp32Yb/o5nP+46s+notF6g+oIWINB5GB8BDlYc&#10;IEUp1+sBnWVnXiX9luejMSl7uosgpzMVRQAAAADs7SNPNiwQHNO/bi97P4cbfvSdDSatsGlXrlSn&#10;IPZ9/zYtuB8ESl+N022K0fCsQxKBznMav3PdkTceCXYyp4prx6DzL9QEntsmz+lcSPojz0dX2w5/&#10;RzcQ5HT3TNm0PwAAAADqscatpOsNY9EPE+Rb5jAujSnZnNAS9h5uSoM6Zd41+nv3rnoX5Xqwsydp&#10;5vP+2SD5piDrkDsTdZ3ZNJfIcw5JBDqPaXgfPbw0HSekKOV6ncJB103toHyS1LfpgdDtiQeCnO5U&#10;FAEAAADwz1jjQpt3/OzKJrRpjF94DLKw+8ixLed1XjJeasW9e1cdXFxPQew92LmtrSBAHr1n2lRs&#10;QqDzcD6+HIcUKxLspGzKmZ6SL6SyOMqbpE95ProlTS0IcgYZmAEAAABdNVYd4Fr1vCsLyrZz37Ry&#10;nqdjBFH8yPQxWHbD7tz42Wcw2/CjgfxkWVyaanOAlTrTLnOKABKBzmMa3Zk+HlJ+rkvO/EPCg4tF&#10;wtfX5uBCFvC9HvJ81LftJzqOIKdzzxvOGAIAAAC6Ot7oa8vuzAP++aY5jHvOeWwPu7D6dsOPvnIf&#10;W3H/XiR93vCja2PKqaS+pzqzaX7vC3WmVeYUASQCnccqPLzmkGJFoh3MlHca3RhTZi397CE6a8+S&#10;fs3zUcHTAIkgpycVRQAAAAD8Y7JhvPF4yMJbO4dRbHlNtIS9139s+BHndbbj/lWSHjb86EYfd2q7&#10;bDfeqDOtsn4GM9njIIlA57E2bWk/++FsccAE2NVBKeR+F3Rsg6hWsTvIfQaaFpI+5/koY6cZVuod&#10;QU4Pz9qu9FsAAABAx8YcmepgyPr49OAUlHk+mujjOY/XZGJrF3sfn9b+mvM623P/CgU8DssuctjU&#10;TlzK/xmhXWibL4wpC2PKqYtdslteY0ZJQyLQeUrj5yM3OLm/kaqU6/aghQOewuNrf5PUJ/iCDZ3Q&#10;mQhyusZzBgAAAPxr00Lkws7jHWPTHMaEYEfrDPVx4f2NMWVB0cQvz0dDfVx04PP9ptocXB2oDnaS&#10;xvYEtt2cSfqieiGKi12y6+mpFzbtMUCg8wQ+vhRv7FkCQGqdk6nqNKbJDqbaMuAxppzIT6qPV0mf&#10;8nw0PmEQibQ7tQQ5PbY9FAEAAAAgGVOOVQckVj3bnX1HsalP1wMePfrf7bLjvM4vZNVrjUwBg52q&#10;Fzlser9lsHPosQ3rG1NWxpSpBVWv1trmS50RV7Hzr+uLUaY8Klgi0Hn8l+VcfgI3BaWLRKW8q7PX&#10;huuzHbJ7xy+7kPSQ56OrQ848QecmGwhy+vNEamgAAADgn4nvYsOPzhmnj/Xx2Ko7AmTtYnd5bTrv&#10;kbMX23H/lsHqRcD3y7Q52NmT9N11IHKZ1lXSi6Q71WdPpjSHumkzxP0ZQeNN5zBXPC1YItB5+oPl&#10;2h27OpFw5/Ix4Uv8EvOzazsQ3x2/7JOkK3t2ArCpzv2l7gY5F6pTOX/zNChjNTkAAABiMmzwvYsN&#10;445v56QytAGPTX3uKrEAWX/DWC6pFJ12zmI9cNVTe87063c5KGsX+GaKI9gp1YHIv+zuy5OfFbuD&#10;s5A0V53WtbfruTy3fW6qDtl2+NuGH30/No20zVJ3t/bXr2y8wKr/UgQnPahTY8o3uU8DORQ7O5Gm&#10;QvVKrFQDHxNtTovSKA9BzjdJY5uSGAhR59rkWVK1PKfWLoBwvZP6jY48AAAAInNpTDnX+TtrpscE&#10;KLf0txdyMK+W56PCjm1W5/2WaRdT2XHV3/B3M2PKSpt3Yh1qvhwTRWKoeiHuqoExZWXPgoz62ZL0&#10;Yu/JOV7aOo+T56MXm576e6D3e7e7tyvV50pucqd6w9Kr/b3ZvrbLBkYzWx8HO371PdI6NDnluKo8&#10;H41tW71ell+MKW9VzzHOdpRbZtvd6w0/TjmDIE5AoPOMB1zSV8evOTamnHDOHVKT56O5XX3zJdFL&#10;vDGmzGIKQNjVUS7L+5ukgvYJO+rc2MP3Yhs82k7/+sCm8PBeBTUNAAAAEbp0MP68VX2m26E27boc&#10;OxyzDiX9WPu7e2PKacKLD3tysFjTmPI9lsCaDZR923Bdd8aUM0dB2ffIny0ZU/6vrfM5eT5a7qb+&#10;Guj93iXd2jmOQts3bQyWn8mYUtp+1N31gW/tZKGGrzp0xmcbqt5FPdhQfj/sZrKp6h2uL/Z7oK86&#10;MLwtKPzAInCsI3Xt6Sq53zrfivP+gBNNVO8ITPn6Gmdz/E/lLsj5LOm3PB+NCXJiR72r1K0g50L1&#10;eS+/5vlouB7ktCsW71y/Z2QrowEAAACXjk2vuL5D6Nllf9lOom8KXBw7b7eItLznHl87thS4xZb7&#10;8N3RUUSuUoO+deieHPs8ThT4WCz7nldHvO/1lj+Hzi/0z0m7HfG925cS+FL1QoSvqheXfLX/f1uQ&#10;8xtHaWETAp3nPaSVh5cecyg2En5mUv4iGpxxoLYTNhXGTNvTaxw7GPsjz0dZih0tOKtzFzbIedeR&#10;S36T9NkOQAp7Zsi2gbRrnM0JAACAGPjqlx6TtvZ2w/jVx8aBoT4GyI5dADzd8/+bMvP42ude4/zM&#10;Mv+JnY/adC+l04KU1dprzR2VW+Xpfiwc7H6b7/n/3tlUw0+B33Nu3/dX1ZnOXC5ceF2bX3CxueDZ&#10;U1HMHTyDmc4LVr9J+j3PR2wSw0b/oQhOZ1f9/O3hpR9YmYCEn5uZDk/b0DYL20F5b6Bcb22n2MU5&#10;qI9ym/IHaT7LF9qcfiRFP52/eUC5zOX+TOL/8UwCAAAgkrHAlepUs6682/72+xGfIVOd3rBv/+3c&#10;47hnfOrntK8xtJ8zqvMr7TyC651+Tu6Fvb+ZHVtNXYyF7Dzu2F7z3H7W2Rn14kr6Z/dvF+7Jsh5P&#10;m1oQb8u9Un0u5qShz7Csm5mOn998VT2PUvkoQ1s+Q7nbZSzX93vPuZubPNnPEE3biTgR6Dz/4azk&#10;IT2dGgqWAIE6BD8SvsTgCxXs+af3Dl7qTdKQPPc4cIA4VfpBzmfVZ9POjiibQu7PI360q0gBAAAA&#10;AEAk7PxI3/7fbMuvzSS9MNf/odyutDmwP5PcLiJA+gh0unko2dUJHPfcVEo71eWvvlaTrpXjleqV&#10;bOcGmxaSJrQ5OKLezeR+x2JMjg5w2rLxtZszSJsCAAAAAAAAtA1ndJ7JTjz6yH/NWZ1IWSG3ee1j&#10;4z19hjHlWG7Shj5LuiLIiQPr3VBpBzkfJf1mz6adnfLd7aFsHglyAgAAAAAAAJsR6HSj8PCaPfk5&#10;SB1onJ20nyR8iTc2Ra9zxpQX9pzTrzovoLI8xDsjiIID614h6bvSDHI+qt41OTz17Im1s3tcqqh9&#10;AAAAAAAAwGYEOh2wuz7Y1QkcZ6I62Jby9TllD6Wf6/jDztd9U72Lc0o1xAH17sKmm/6S4OWtBjjn&#10;Dp5510HgZ86kAAAAAAAAALYj0OlO4eE12dWJZNkDuIuEL3Fg03yezQaappL+1HmBlGfVaTnHHICO&#10;Q+ue6lS1qZ2p+yzpk6MA5/K8bh9lVFALAQAAAAAAgO3+QxG4Y9NJXjt+2YWkPkEJ8Ny00pvqnZPv&#10;Z5TPrerUlecEOBeSxnk+qqhxOKLuXSm98zifJRWud0naHa+uA53PeT7KqIkAAAAAAADAdv+lCJwq&#10;JP1w/Jo9+7rs7ATPTftc2me3OPYf2p10laSbMz/DN9WBHRZL4Jj6N1R9HmcqvAQ4bVn1xW5OAAAA&#10;AAAAoBHs6HTM4+60X12k1wMifW4qpZcac2mhelfn/IjycLGL81X1Ls4ZNQwdfh7f7HMwbVl5sZsT&#10;AAAAAAAAOAA7Ot0r5Gd3WiFpSPEi4efmVmmlyFzqHfr82l2chaT7M95voXrn2oRqhWOsnMc5SOBy&#10;3uxzUHkus0zs5gQAAAAAAAAaw45ODzzu6vwtz0cvlDASfW4KSV8SvsRPu3ZX2oBJpTrd7akeVe9e&#10;I00tjn3+MklTtX+xwULSJM9HRYu/79nNCQAAAAAAABzoF4rAi8LT67JDCymbqN6F1bl2wQZ5f+j0&#10;IOer6kDqkCAnjmVMObb1r+1BzgdJ/YBBzkx+FjUV1EoAAAAAAADgMOzo9MTjrs5PnLmHhJ+boaTv&#10;CV/iH6spZW2q0OkZbQVpanHO83ahehfxTcsv5dE+B/PA5TfXeTuwN2E3JwAAAAAAAHAEzuj0p5Cf&#10;szorSX2KFynK81Flg53XiV7iV2PK5XM8tO3EqbvoSFOLkxlTXqkOsl+2+DKe7TPw0kD5DT2VXUHt&#10;BAAAAAAAAA7Hjk6PjCmn8rNT5g92cCHh5yaTn0UCqXhVHdyZURQ48RkbS/ra4kt4kzRs6hmwO2Hn&#10;cp/ql92cAAAAAAAAwJHY0enXWH4CnYUxZcVOLqQoz0czY8pHSXeUxk8WqgOcFUWBUzhIlcwz8O93&#10;u4/zTAtqKQAAAAAAAHCcXygCf+x5YY8eXronJkSRtkJ1UAO1b5L6BDlxKrtTeq52BjkXkh5ieAaM&#10;KfuSvnh46Wd2aQMAAAAAAADHI9DpXyE/AZt7e8YakBy7SID0zPUZhL/l+YizOHEyY8qJ6nTQvRZ+&#10;/EdJV3k+KiJ5Bny1S0NqKgAAAAAAAHA8Utd6luejuZ1k9rEDZCIpo5SRqInqyf/LDl77m+oUnVOq&#10;AU5lF8NUkgYt/PjP9hl4iag8M/lJR/9oF3cAAAAAAAAAOBI7OsOYyM+uzmtjyiHFixTZ3VtFxy57&#10;maLziiAnzmFMOZb0l9oX5HyT9Huej7KYgpxW5emZL6ixAAAAAAAAwGn+QxGEYQOS3z289EL1uWWk&#10;tUSqz85M7TxX8Fivkm7Z2YUzn5e+6oBc256ZhaRJno+KSMu1kJ/MDA+xXjMAAAAAAADQBuzoDCTP&#10;R5XqQIZrPbEbBGnrQv1eSMoIcuIcdhfni9oX5PymesFOEWm59iWNPT33nEUMAAAAAAAAnIFAZ1hj&#10;T697b89iA5KT56OZpKfEL/OFXdk4lTFl3+58/qp68UtbPEv6Nc9H48jr/8RTuY557gEAAAAAAIDz&#10;EOgMyHPApqKEkbBx4tfX5xbjFC3dxfkm6ZM9h3Meeflmkm58lIHN9AAAAAAAAADgDAQ6wxurTlfn&#10;2sBOeAPJscGQh4Qv8dKY8pY7jUO1dBfnQtIfeT7q24U/sZfxhfwtIhpSiwEAAAAAAIDzEegMzAZs&#10;fJ3JVdizxIAUTeRnkUAsKhtYAXZq6S7OB9XncLbpTMqxpEsPr/vUhkAvAAAAAAAA0Ab/pQgaMVG9&#10;m8P1BGpP9e6TjCJGavJ89G4DPN8TvcTl88vOTmxkF7Kro1KRAAAeTUlEQVRUaleA80n1WZTzlpX1&#10;laQvnl6e7AsAAAAAAACAI+zobECej97lb6LzmhSYSPjZqSS9JnyJN/ZMQOAnLdzF+ar6HM7btgU5&#10;LV87Tx9aWh4AAAAAAABAlP5DETTHnq/mY9J6oTpF4DuljASfm0zSj4Qv8U3SFc8vbH2/Ur2Lc9CS&#10;j7xQvYOzanGZj1WffcqzDQAAAAAAAESOHZ3NGsrPmYPLFJhAcuzZdk8JX+KlSG0JScaUhaS/1J4g&#10;5/IczqrFZd6XVHh6+TFBTgAAAAAAAMAtdnQ2zE5k+zoH7Pc8H00pZST43PQl/Z34Zf5KisvO1u9M&#10;9WKVy5Z85Faew7ml7Gfyk2nhOc9HGbUbAAAAAAAAcIsdnQ3L81Ehf2cOVsaUF5QyEnxu5qp3j6Ws&#10;4k53izHlhTHlRHVq5jYEOdt+Dud6+Y/l7wzUITUcAAAAAAAAcI9AZxx8pakkhS1SNpGf1M+xuDam&#10;vOU2d4O913NJ9y34uAtJn/N8dGVTSadQ/n35S1n7wO5sAAAAAAAAwA8CnRGwE8XfPL38DcESJPrc&#10;vCv9sywn7MpOmzFl35hyKulP1YtTYvdNLT+Hc4vKU/m/qV6UAQAAAAAAAMADAp3xKFRPiPpQ2d0q&#10;QFJssOUt4Uu8lL9dZmiYTZX6IummBR/3WfW5sWO7yCC1++AtZW1q5QUAAAAAAADE5D8UQTzszss/&#10;Pb38c56PMkoZCT43meozDVP2KZUUoZCMKa9U7yActODjvqkO1s0SvRd91cFmH7s5n/J8REYFAAAA&#10;AAAAwCN2dEYkz0dTSU+eXv7a7loBUntuZqp3m6WM1JcJMKa8MKacSPpL8Qc5F5L+yPNRP/Eg+1R+&#10;gpwLSUNqPQAAAAAAAOAXgc74DFVPkPrw1e4kAlJ8blI2MKYsuM3tZXfszyXdt+DjLs/hnCR+Twr5&#10;CziPSVkLAAAAAAAA+Efq2gh5TmH7KiljAhYJPjeVpLvEL/O3PB+9cLdbVS/7qtPUXrfg4z6rDtC9&#10;dOC+XKneWeulHEkVDwAAAAAAAITBjs4IeU5hO5BUUMpI0Fj+dkPHghS2LWJ3DP6t+IOcb5J+z/NR&#10;1pEg54XqlLU+kLIWAAAAAAAACIhAZ7yG8he0ube7RoFk2F3KqQcCOWu3BYwpM2PKuaQvkX/UhaQH&#10;ew7ntEO3aCLp0tNrF3k+mvMUAAAAAAAAAGGQujZinlPYLiRdMSGLxJ6ZC0kv8hfEiAHPbrz1r686&#10;iHbTgo/7qA6eI2lMOZT03dPLk7IWAAAAAAAACIwdnRGzO2wePb18T/5S9wFNPTPvSj81c0+ksI2O&#10;TVP7oviDnM+SPuX5aNjBIGff47NDyloAAAAAAACgAezojFyAHWrf8nxEKkyk9ty8qD6PNmW/dyzd&#10;aKx1LZNUKf5dxG+q06pWtAte/JHnIxYgAAAAAAAAAIER6GwBO5H+w+NbEDABz0z7LCT1u7YrL6I6&#10;1lcd4Lxuwcd9kDTpcl0xppxIuvf08qSsBQAAAAAAABpCoLMlbFrEL55enjP/kOIzM1M7glDneMrz&#10;0S13O2i9upA09tgeO60fqs/hnHf8nvk+75oFBwAAAAAAAEBDCHS2iOe0e6+SMiZrkdDzciXprw5c&#10;6qc8H82440Hq1FD1GY+9yD/qm6Qh9eKfdmDm8Z6REQEAAAAAAABo0C8UQavcqt494sNA9QQ+kIQ8&#10;H71IeuzApVZ2lyE8MabM7A7h74o7yLlQfVZknyDnP7tvK4/37JEgJwAAAAAAANAsAp0tYtMPjj2+&#10;xZ3dsQSkoujANV525DqDM6bsG1NWqs97jT0N8jfVKVRZsPKvifxlQXjz/H0MAAAAAAAA4ACkrm0h&#10;O/F+5/EtfrO74YAUnpdC7ThP8VyksHVXZ5bncI4Vf5raZ9XncNJm/3wPx/+/vbs7buNK0wD81tbe&#10;ixkIEwG5EQgTgTgRCKrGvekIDEVg6h5dBiMwFYHBCIaMYMAMxAh2L05jRHul0Q/ZjdPo56li2eOL&#10;6cY5X4NV/fI7X5JfPW8AAAAAcNx0dI7TRcpMzb5sHYXJEblMf0c+18QRts+g62q/TQnHaw4571Pm&#10;Q86FnP9vD8/Sb8j5TsgJAAAAAHXQ0TlS3Yvcbfp7EX+XZN40y49WmyN4XlaZRlfnh6ZZntvxH6qR&#10;efo96vS5PCS5bJrlyq59dh9Pkux6/N140zTLuZUGAAAAgDro6ByproOnz/lgpykv/eEYTKWr83Xb&#10;rgWd36Gbw7lNmcNZe8h5leRMyPnFvTxJv38A9JBkYaUBAAAAoB46OkdugHmdPzfNUuDJMTwriyS/&#10;TeCjPiSZ6cb+aj2cpATgb0Zwu3cpczi3du6gvw//0TTLaysNAAAAAPUQdI7cow6WPjuRvNzlWJ6X&#10;XZKXE/iojtf8z9+ZF93Pi8pv9yEl4NzYua/u60X6ncv5vmmWF1YaAAAAAOri6NqR67q2Fun3WM5N&#10;NxMUxm41kc/5qgt+eKTr6t2lzGutPeR8l9KZu7FzX93X8/Qbct4JOQEAAACgTjo6j0T3ovf3Hi/h&#10;OEyO5VnZZRpdnUnyP90836nv+SIl5B7Dvt8kWTTNcudp/aa9PUv/cznP7AcAAAAA1EnQeUTadn2Z&#10;5KceL3GXZC7sZOTPSd9/FFCT+5SQ5uNE93qeMofzdCR7tTCH87v29ySlQ7fP7lxHtwMAAABAxRxd&#10;e0S6o/VuerzEaZKNlWbkz8l1z89JTV5O8Zlt2/W8bdfbJH+k/pDzIcnPTbOcCTm/a4/386n7DDnf&#10;CTkBAAAAoG6CzuNzntIZ1JfXbbveWGZGbjWhz/p6KvM6/xJwvhrBLV+lHAl+6ZH8bpv0G2LfNM1y&#10;ZZkBAAAAoG6Orj1CA8wsS0oHkpfzjPk52WYcYdhzOdp5nW27nqUcUft6JLd8k+TC/NQf3u9Nkjc9&#10;XmLSRz4DAAAAwJgIOo9U264XSX7r+TJvm2a5sdqM9BmZp3T+TcVDSvfgxyPaw1lKd+6bkdzyfZKV&#10;780n7flFkl97fk7mQmgAAAAAGAdB5xFr2/UqyS89X+YfZpgx4mdkm2l1dd6lhDgfR75vs4wr4HxI&#10;6Ti91CX4pH1fxB/wAAAAAACPCDqPXNuur9PvcY66Xxjz8zHPtLo6k+SqaZaLke7XLOMKOJPkQ8ox&#10;tTtP3JP2/jzJ7z1f5n3TLC+sNgAAAACMh6DzyLXt+iRlXudpj5cRdjLmZ2SbaXV1Jsm7plmuRrRH&#10;s4wv4LxLCTi3nrIn7/8Qc6dvmmY5t9oAAAAAMC6CzgnoQoLb9PuS+CHJma4lRvh8zDO9rs5kBEd0&#10;dntzkX670vv4Lrxw/Omz1cAQIedRHOkMAAAAAFMk6JwIL4vhPz4f20yvqzOpdMZuF3CuRrgn72IO&#10;59h+bzmRAAAAAABGTNA5IW27XiT5refLCDsZ47MxzzS7OqsKeUYccN4kWehof9ZaOEk5ieBlz5f6&#10;u+OFAQAAAGC8BJ0T07briyS/9nwZYSdjfDa2mWZX58HDzu6PMFbpP9R6bvcpAefWE/Ss9TDEbOlk&#10;BMc3AwAAAAD/maBzgtp2vUnypufLCDsZ23NxnuT3iX78wcPOLsxapMzgfDnC9Vo1zfLSk9NLXWzT&#10;f8h51TTLhRUHAAAAgHETdE5U266vk7zu+TLCTsb2XOwyvtDtuTykdCde97zGJynh5kX6nb3Yl/cp&#10;IafvtX5qY5v+Q84PTbM8t+IAAAAAMH7/bQkma5H+XyifJrlOMrfcjMQq/c+xrdWLJL+37fpd0yxX&#10;z/1/3nXMnqf/bvK+mMPZowFDzrvu9x8AAAAAcAR0dE6YIwLhs8/FLtPt6ty7S3LxlNmTbbuepfyR&#10;w3n3zxcjXYv7bi2uPR2j/110n+RMNy4AAAAAHA9B58S17fos5QVz3yGEsJOxPBOLTLer869uklx+&#10;a8jXfZ8sUoLN05F/9ofus6+UQa/P21Ah5+BzaAEAAACA/gk6GTLs/JBy9KNuGmp+Hk6S7DLeDsQ+&#10;PHTfEbfdz/4ZnnU/8yRnR7RmVyldnL6r+n/WthFyAgAAAAA/SNBJkn+Hnf8c4FJ3KS+cBQjU/Dys&#10;kvxiJSbnJiXgFIj1/4wNFXImydumWW6sOgAAAAAcn/+yBCRJ92L/7QCXOk2y7V5yQ602lmBS7pP8&#10;o2mWuv4GIOQEAAAAAJ6Ljk7+ZMD5hDo7qf1Z2CR5YyWOmjmcwz9XQk4AAAAA4Nno6ORPupfCOjtB&#10;V+exu0oyE3IO59E86CFCzishJwAAAAAcPx2dfFbbri+S/DrApXR2UvNzcJthQhmGc5Nk1TTLraUY&#10;9Fnah5wvBrjcVdMsF1YdAAAAAI6fjk4+q2mWlykdT307TbLrXoJDbS4twdG4TznKdC7kHJaQEwAA&#10;AADoi6CTL+peFg8Rdr5IOcZW2EltrlPmODJeD0neJTlzlOnw2nZ9HiEnAAAAANATR9fyVW273iR5&#10;M8ClHpKc67ZiovXP87tKOaZ2ZykO8uwskvw20OXummbpj2UAAAAAYGJ0dPJVA3d2/tG9HIdaOL52&#10;fG6S/L1plgsh52F0c54HCzmTzK06AAAAAEyPjk6+2cCdbT93c0Khhtq/TZknS93uUzo4N5ZiMr8r&#10;7pLMm2b50coDAAAAwPTo6OSbDdjZmSS/di/LoQZqsW7mcFagbdcnbbu+jpATAAAAABiIjk6+28Dd&#10;Oh+SLLzI5sA1P0vyLytRJXM463hGTpJsM1zns5ATAAAAABB08mMcTcgEa/46yWsrUY2blIBzaykO&#10;/mycJblO8tLvBAAAAABgSI6u5YcMfIztaZJd9zIdDuXaElThPsnbplnOhZyH17br85ROTiEnAAAA&#10;ADA4QSc/bOCw80WSbfdSHQ5B0HlY5nBWpm3XF0l+776fhyDkBAAAAAD+xNG1PNnAx9gmyc9Ns7y0&#10;8hyg1h1fexjmcPrev0lyLuQEAAAAAB4TdPIs2nZ9meSnAS95leTCS28GrvNFkt+sxGDuuud8aymq&#10;eQZOUo6qPR3y+747QQAAAAAA4E8EnTybA4RAjjFk6BqfJfmXlejdQ0rAubEUVdX/WUrI+WLAywo5&#10;AQAAAIAvMqOTZ9OFEm8HvORpkl3brudWn4FqfJcSsNOfd0lmQs66dH/I8s8IOQEAAACAigg6eVYH&#10;CDtfJPmjbdcXVp+BXFuCXnxI8remWa50adelm8c59JHN74WcAAAAAMDXOLqWXrTt+jzJJgN3/8Tc&#10;Tvqv7XmSP6zEszGHs95an6UE+6cDX/qtjl4AAAAA4FsIOunNgea53SVZNM3y1g7QY21/HLiuj5E5&#10;nHXX+Dwl5By6zoWcAAAAAMA3c3QtvenCxnlKoDGU0yTbbp4c9GVrCZ7EHM6Kte16ldK1PGTI+ZDk&#10;72oCAAAAAPgeOjrpXduuT1KCoaGPP3zfNEuzO+mjpldJfrES3+1DShfnzlJU+119neTVwJd+SDLX&#10;iQ8AAAAAfC9BJ4M4YNjpKFv6qOd5zOn8Hvfdc7i1FFXX9CGOqr1Lci78BgAAAAB+hKCTwXRh52WS&#10;NwNf2ixA+qjn/7UK3/TsrZpmeWkpqq7lyyQ/HeDSdymdnB/tAgAAAADwIwSdDK5t15sMH3Ym5djM&#10;hZfqPFMd75K8tBJf9D4l5PS81VvDs5QuztMDXP6qaZYLuwAAAAAAPMV/WQKG1r3cfnuAS79Octsd&#10;0QhPtbMEn3WT5G9Ns7wQctarbdcXSW5zmJDznZATAAAAAHgOOjo5mLZdnyfZZPiZcEl50b6yCzyh&#10;fq9TwnMKczjHUbcn3ffuoWr3rWPEAQAAAIDnIujkoNp2fZZkm8OEnXcpwcytneAHaneV5BcrkYck&#10;l/5wYBQ1e8g/LnlImcfp+xYAAAAAeDaOruWgupfes5TQcWinSbbdEY7A97tKMhNy1q1t1ydtu75M&#10;8nsO90clZ0JOAAAAAOC56eikCt1xipdJ3hzoFm5Sujt3doNvrNlVptvReZPkQnA1ijqdp3RxvjzQ&#10;LVx1tWJeKwAAAADw7ASdVOXA4dFDklXTLC/tBJXX6qHcp4RW1yqg+vo8SbJK8tMBb8MsZAAAAACg&#10;V4JOqnPgOXKJ7k6+rU5XmU7QaQ7nuGpznsN2cT5036ECcQAAAACgV2Z0Up3u5fg8h5nbmSSvktx2&#10;QRZ8ydlEPudVynxFz0PlHs3i/COHCznvksyFnAAAAADAEHR0Uq3u6MVNktcHvI27lM4kswj5a31u&#10;U0LxY3WTcpTz1m6Poh4P3QmfmMcJAAAAAAxM0En1Kjki9H1K6OMFPvu6/JjDhkp9ue9qfWOXR1GH&#10;sySXOewfhCTJz+YbAwAAAABDE3QyCpV0K92ndCs5klE9zpL86wg/2ruUWZwC/XHU4UWSVQXfi+e6&#10;3gEAAACAQxB0MhpduHSd5PTAt3KTcpztzq5MthYXSX47oo/0ISXEV9PjqL95ShfnaQV1sxCMAwAA&#10;AACHIuhkdNp2fZnkpwpuRffbdGtwk+TNEXyUu5SAc2tXR1F3JykBZw2156haAAAAAODgBJ2MUiVH&#10;2SbmGU61/sY+n/MhJeBUt+OpuRqOqd1/5zmqFgAAAACogqCT0aroKNukHGd74eX/JOruPMnvI/4I&#10;71PCeZ3I46i3eeo4pjZxVC0AAAAAUBlBJ6NX0VG2SXKVEiLt7MzR1tt1ktcjvHWzZcdVZ7OUDs4a&#10;jqnVAQwAAAAAVEnQyVGo6CjbpIQClzG/8xjrbJbkXyO77fuUgHNrB0dRYydJLrqfGr7P7rr60a0O&#10;AAAAAFRH0MnR6AKC6ySvKrklXVDHV2Ob1NFh9631t2qa5aWdG019LVL+SKKW+a/vmma5sjMAAAAA&#10;QK0EnRydtl1fJPm1olu6Twk8r+3OqOvqLMk/R3K7V13N6SgeR23NUzrSX1b0naULGAAAAAConqCT&#10;o9SFUpskpxXd1k1Kh93WDo2yprapp1v4P9XYhWNGR1NT85Q5nDXV1fvue0pIDgAAAABUT9DJUWvb&#10;9SrJL5XdlsBzfHVUW5fwX+kaHlc9zVICzjeV1ZAuTgAAAABgVASdHL0Kj4XcE3iOo35mSW5Tz9zE&#10;xx5SZjpe6sAbTS2tUt+cV12cAAAAAMAoCTqZhLZdn6QEDD9VeHsCz7rrZpu6jkDeu+rqZmenqq+j&#10;WeoMOHVxAgAAAACjJuhkUiru7kwEnjXWyyb1hVPqZDz1M0udAWeiixMAAAAAOAKCTian8u7ORJBV&#10;S51cVlYjDylzODd2p/ramaXegFMXJwAAAABwNASdTFbbrs9SujtPK73FmyQbwdZBamOR5LeKbuld&#10;zOEcQ93MUm/AmSTvmma5slMAAAAAwLEQdDJ5bbteJblI8qLSW7xP6fDc2K1B6mGRekLODyldnDs7&#10;U3XNnHXfIbUGnDcpXZzqCAAAAAA4KoJOyL87sTZJXlV8mw9JLqOzr886qOW4WseLjqNe5ikdnLV+&#10;bzjuGAAAAAA4aoJOeKRt1+cpgeeLym/1KqXLc2fXnm3vNzl8R95Dt6+XdqTqWlmkBJwvK77N910t&#10;+aMIAAAAAOBoCTrhL9p2fZISYvw0gtu9SenwvLZzT9rvbQ4/q1UwVX+dXCRZpO6A8yali/PWrgEA&#10;AAAAx07QCV/Qzd27TN3H2e7dd/e6EZR99x5f57DBlfmJ9ddIzfM39xxTCwAAAABMjqATvqI7pvIy&#10;9R9nu3eV0uWpo6vufb1PCaZ049ZbH4uM4w8d3sXsXgAAAABgggSd8A0eHVv5y4hu+y4lyLsWgPy/&#10;/VwdcC8fUkKplZ2ori5m+XQ87Rj+sOFDSli+s3sAAAAAwBQJOuE7dEHIZZLXI7rth5TjWTdNs9za&#10;w/UmhzuG9ColmBI811UTi4ynezMpxx2vPM8AAAAAwNQJOuEHtO16nmSV8QQje/tZntdT6wLrunK3&#10;SU4PcHnBVH31cJYSbi4ynmOp77s62thBAAAAAABBJzxJ1wm2SvJyhLd/k2STCRxt24Va1wfYJ8FU&#10;XXUwS3KeEm6ejujWH7o6urSLAAAAAACfCDrhGbTt+iIl8Hwx0o9wlRJ4Xh/h3sxTQs6h9+ZdyixO&#10;x9Qedv9PUsLN84zryOmkm+eqjgAAAAAAPk/QCc+kC1Quup+xBp77eZ5HEXp2Hbe/DXzZDylzOHee&#10;ioPu/T7cfDPSjyAoBwAAAAD4CkEnPLNHgecvI/8oow4923Z9meSnAS95lxJwbj0FB9vzfbh5nnF3&#10;V68E5QAAAAAAXyfohJ508wBXGW9H2WP70HObymd6dkHz5YDrbn7iYfd6H2zOM95wMxFwAgAAAAB8&#10;N0En9OzIAs+9D/kUeu4qWuuT7r5OB7rk+5RwyvGiwz5P+2Dz9RF8JAEnAAAAAMAPEnTCQI408EyS&#10;+3w64nZ7wPU96+7j5QCXu0myEE4NtrfzfAo3T4/gI+07pAWcAAAAAABPIOiEgT2a4XmRcR+1+SX7&#10;bs9t0yxvB1rTs+6afa/nfcoczmuV3Ot+zvIp2Jwf0XPykHKs8qUuYAAAAACApxN0woFMIPBMSrCz&#10;TY/BZ9uuF0l+G+BzCKj6exZm+RRqzjNMV+6Q7pNs1A8AAAAAwPMSdEIFurBuleMLeP7qWYPPtl1f&#10;JPm153v+kNLFuVOpz1bvsxx3sLl3n3I87cauAwAAAAA8P0EnVKRt1+cpHZ6vJvSxb1KCz9skt98S&#10;KHbdsJfpd97pfcoczq3KfHJdz5OcpYSaZzn+QP8mJeBUOwAAAAAAPRJ0QoW6mZMX6TfIq9V9utAz&#10;JQDd7cPPLjA7T7JIf8f9PqSEVJcq8Ydr9/HPVEL7hyTXXe3sVAIAAAAAQP8EnVCx7ojPRY57jmdN&#10;rlKOqTVH8dvqc54SZs4yrVDzsfuU7uKNugEAAAAAGJagE0aim+O5yDTDpL45avTLdXeST2HmLOX4&#10;2VmO//jZr/mQEm5eqxIAAAAAgMMQdMLIdF2eq5QjXHV5Pt3bplluJl5T+zDzr6HmmRr7k/skm5SA&#10;c2c5AAAAAAAOS9AJI9WFU/t5lbo8f9zbJLskt8d49OijEDP5FGbOup+TJKdK4Kt0bwIAAAAAVEjQ&#10;CUeg6/K8SAk+X1qRJ7tLsg89d91PvvC/k+Rj0yxve97j+Wf+8+P/9jjQTITfT7WfvXmtexMAAAAA&#10;oE6CTjgybbs+Twk831iNKj0OUWcRTNfkIcl1ksu+g2sAAAAAAJ5O0AlH6tHRtudJXlsR+CJH0wIA&#10;AAAAjJCgEyagO9p2P8/TTEYo4eZ1ytG0Hy0HAAAAAMD4CDphYoSeTJhwEwAAAADgiAg6YcIehZ7n&#10;SV5ZEY6QcBMAAAAA4EgJOoEkZnpyNB5Sgs1thJsAAAAAAEdN0Al8Vtuuz5PMU4LPl1aEit2nCzeb&#10;ZnltOQAAAAAApkHQCXzVoyNu59HtSR0+5FPX5s5yAAAAAABMj6AT+G5tu57nU/B5akUYwF1KsKlr&#10;EwAAAACAJIJO4Im62Z7zRz+CT57Dv4PNlHDTrE0AAAAAAP5E0Ak8q0fB51n3z1dWhW8g2AQAAAAA&#10;4LsIOoHedUfd7oPPsyQvrcqkPSS5zadg81awCQAAAADA9xJ0AoPruj4fB5/Cz+N2kxJs3qaEmreW&#10;BAAAAACApxJ0AlX4S/g56/7dvM9x2XdqCjUBAAAAAOidoBOoWtuuz/Ip+Nz/uwD08G6S7LqfbZJd&#10;0yx3lgUAAAAAgKEIOoFRatv1LJ8C0JOUTtCTCEGf012SjylB5seULk2BJgAAAAAAVRB0Akfn0TG4&#10;+38mJQhN979fWKUkn4LM3V9/hJkAAAAAANRO0AlM0qMwNCmdobPP/HuSvBrZR9uHl8mn4DIp3Zgf&#10;k3w0NxMAAAAAgGMg6AT4Dm27nn/mP++7R79mlj+HqHv7Y2G/ZpdPweXebdMsP9oZAAAAAAAAAAAA&#10;AAAAAAAAAAAAAAAAAAAAAAAAAAAAAAAAAAAAAAAAAAAAAAAAAAAAAAAAAAAAAAAAAAAAAAAAAAAA&#10;AAAAAAAAAAAAAAAAAAAAAAAAAAAAAAAAAAAAAAAAAAAAAAAAAAAAAAAAAAAAAAAAAAAAAAAAAAAA&#10;AAAAAAAAAAAAAAAAAAAAAAAAAAAAAAAAAAAAAAAAAAAAAAAAAAAAAAAAAAAAAAAAAAAAAAAAAAAA&#10;AAAAAAAAAAAAAAAAAAAAAAAAAAAAAAAAAAAAAAAAAAAAAAAAAAAAAAAAAAAAAAAAAAAAAAAAAAAA&#10;AAAAAAAAAAAAAAAAAAAAAAAAAAAAAAAAAAAAAAAAAAAAAAAAAAAAAAAAAAAAAAAAAAAAAAAAAAAA&#10;AAAAAAAAAAAAAAAAAAAAAAAAAAAAAAAAAAAAAAAAAAAAAAAAAAAAAAAAAAAAAAAAAAAAAAAAAAAA&#10;AAAAAAAAAAAAAAAAAAAAAAAAAAAAAAAAAAAAAAAAAAAAAAAAAAAAAACYsv8Dx3+QrKtfctEAAAAA&#10;SUVORK5CYII=&#10;"
       id="image1" />
  </g>
</svg>
