<?xml version="1.0" encoding="UTF-8" standalone="no"?>
<!-- Created with Inkscape (http://www.inkscape.org/) -->

<svg
   version="1.1"
   id="svg1"
   width="1850"
   height="700"
   viewBox="0 0 1850 700"
   sodipodi:docname="LOGO PNG BLANCO.png"
   xmlns:inkscape="http://www.inkscape.org/namespaces/inkscape"
   xmlns:sodipodi="http://sodipodi.sourceforge.net/DTD/sodipodi-0.dtd"
   xmlns:xlink="http://www.w3.org/1999/xlink"
   xmlns="http://www.w3.org/2000/svg"
   xmlns:svg="http://www.w3.org/2000/svg">
  <defs
     id="defs1" />
  <sodipodi:namedview
     id="namedview1"
     pagecolor="#ffffff"
     bordercolor="#000000"
     borderopacity="0.25"
     inkscape:showpageshadow="2"
     inkscape:pageopacity="0.0"
     inkscape:pagecheckerboard="0"
     inkscape:deskcolor="#d1d1d1" />
  <g
     inkscape:groupmode="layer"
     inkscape:label="Image"
     id="g1">
    <image
       width="1850"
       height="700"
       preserveAspectRatio="none"
       xlink:href="data:image/png;base64,iVBORw0KGgoAAAANSUhEUgAABzoAAAK8CAYAAACX9rlHAAAAyXpUWHRSYXcgcHJvZmlsZSB0eXBl&#10;IGV4aWYAAHjabVBRDsMgCP3nFDsCAioex65tshvs+APRpG32Eh+Up68AHN/PCS8HJQHJVUsrBQ3S&#10;pFG3RDHQByeUwQPcsc7qrQ7bG2lkZCX2myFoiZhWfT5YMXXL8sVI31PY7kKTiKQPI5qdeUee79Oo&#10;TSOmENI06DEWlqb1OsJ24B0aB5zKSWMgWo8f31Jte3u2/zDRwYnRmFmiAfbDwN0FY2S1i8jN8sxl&#10;1NdItpB/e1qAHyHxWnx8X4btAAABhWlDQ1BJQ0MgcHJvZmlsZQAAeJx9kTtIw0Acxr+mSkupD7CD&#10;iEOG6mQXXziWKhbBQmkrtOpgcukLmjQkKS6OgmvBwcdi1cHFWVcHV0EQfIC4ujgpukiJ/0sKLWI9&#10;OO7Hd/d93H0HCI0KU82eKKBqlpGKx8RsblX0vSIAP/oxg0GJmXoivZhB1/F1Dw9f7yI8q/u5P0ef&#10;kjcZ4BGJo0w3LOIN4tlNS+e8TxxiJUkhPieeMOiCxI9cl11+41x0WOCZISOTmicOEYvFDpY7mJUM&#10;lXiaOKyoGuULWZcVzluc1UqNte7JXxjMaytprtMcRRxLSCAJETJqKKMCCxFaNVJMpGg/1sU/4viT&#10;5JLJVQYjxwKqUCE5fvA/+N2tWZiadJOCMaD3xbY/xgDfLtCs2/b3sW03TwDvM3Cltf3VBjD3SXq9&#10;rYWPgIFt4OK6rcl7wOUOMPykS4bkSF6aQqEAvJ/RN+WAoVsgsOb21trH6QOQoa6Wb4CDQ2C8SNnr&#10;Xd7t7+zt3zOt/n4At6hywvW/vYQAAA12aVRYdFhNTDpjb20uYWRvYmUueG1wAAAAAAA8P3hwYWNr&#10;ZXQgYmVnaW49Iu+7vyIgaWQ9Ilc1TTBNcENlaGlIenJlU3pOVGN6a2M5ZCI/Pgo8eDp4bXBtZXRh&#10;IHhtbG5zOng9ImFkb2JlOm5zOm1ldGEvIiB4OnhtcHRrPSJYTVAgQ29yZSA0LjQuMC1FeGl2MiI+&#10;CiA8cmRmOlJERiB4bWxuczpyZGY9Imh0dHA6Ly93d3cudzMub3JnLzE5OTkvMDIvMjItcmRmLXN5&#10;bnRheC1ucyMiPgogIDxyZGY6RGVzY3JpcHRpb24gcmRmOmFib3V0PSIiCiAgICB4bWxuczp4bXBN&#10;TT0iaHR0cDovL25zLmFkb2JlLmNvbS94YXAvMS4wL21tLyIKICAgIHhtbG5zOnN0RXZ0PSJodHRw&#10;Oi8vbnMuYWRvYmUuY29tL3hhcC8xLjAvc1R5cGUvUmVzb3VyY2VFdmVudCMiCiAgICB4bWxuczpk&#10;Yz0iaHR0cDovL3B1cmwub3JnL2RjL2VsZW1lbnRzLzEuMS8iCiAgICB4bWxuczpHSU1QPSJodHRw&#10;Oi8vd3d3LmdpbXAub3JnL3htcC8iCiAgICB4bWxuczp0aWZmPSJodHRwOi8vbnMuYWRvYmUuY29t&#10;L3RpZmYvMS4wLyIKICAgIHhtbG5zOnhtcD0iaHR0cDovL25zLmFkb2JlLmNvbS94YXAvMS4wLyIK&#10;ICAgeG1wTU06RG9jdW1lbnRJRD0iZ2ltcDpkb2NpZDpnaW1wOjY1NjIxMDk2LWQ3ZWYtNGU5MS04&#10;OTJlLTM3YmE2ZjFmODg5NCIKICAgeG1wTU06SW5zdGFuY2VJRD0ieG1wLmlpZDo1NWEwOGE1Ni1k&#10;ZmEwLTRlMDMtODI0NS1hMzkzYmMzZDYzNjMiCiAgIHhtcE1NOk9yaWdpbmFsRG9jdW1lbnRJRD0i&#10;eG1wLmRpZDpmODE2NmUyMS0xYmRhLTQ2ZTUtYjY5Zi1mNzM0NzJhMTFkZjgiCiAgIGRjOkZvcm1h&#10;dD0iaW1hZ2UvcG5nIgogICBHSU1QOkFQST0iMi4wIgogICBHSU1QOlBsYXRmb3JtPSJXaW5kb3dz&#10;IgogICBHSU1QOlRpbWVTdGFtcD0iMTY5Njc3Njk3NTk5ODQzNiIKICAgR0lNUDpWZXJzaW9uPSIy&#10;LjEwLjM0IgogICB0aWZmOk9yaWVudGF0aW9uPSIxIgogICB4bXA6Q3JlYXRvclRvb2w9IkdJTVAg&#10;Mi4xMCIKICAgeG1wOk1ldGFkYXRhRGF0ZT0iMjAyMzoxMDowOFQwOTo1NjoxMy0wNTowMCIKICAg&#10;eG1wOk1vZGlmeURhdGU9IjIwMjM6MTA6MDhUMDk6NTY6MTMtMDU6MDAiPgogICA8eG1wTU06SGlz&#10;dG9yeT4KICAgIDxyZGY6U2VxPgogICAgIDxyZGY6bGkKICAgICAgc3RFdnQ6YWN0aW9uPSJzYXZl&#10;ZCIKICAgICAgc3RFdnQ6Y2hhbmdlZD0iLyIKICAgICAgc3RFdnQ6aW5zdGFuY2VJRD0ieG1wLmlp&#10;ZDpiYjc5NDJmOC1kMTU5LTRkZWUtYjM1NS1mZmZmNmVlOTBhNmQiCiAgICAgIHN0RXZ0OnNvZnR3&#10;YXJlQWdlbnQ9IkdpbXAgMi4xMCAoV2luZG93cykiCiAgICAgIHN0RXZ0OndoZW49IjIwMjMtMTAt&#10;MDhUMDk6NTY6MTYiLz4KICAgIDwvcmRmOlNlcT4KICAgPC94bXBNTTpIaXN0b3J5PgogIDwvcmRm&#10;OkRlc2NyaXB0aW9uPgogPC9yZGY6UkRGPgo8L3g6eG1wbWV0YT4KICAgICAgICAgICAgICAgICAg&#10;ICAgICAgICAgICAgICAgICAgICAgICAgICAgICAgICAgICAgICAgICAgICAgICAgICAgICAgICAg&#10;ICAgICAgICAgICAgICAgICAgICAgICAgIAogICAgICAgICAgICAgICAgICAgICAgICAgICAgICAg&#10;ICAgICAgICAgICAgICAgICAgICAgICAgICAgICAgICAgICAgICAgICAgICAgICAgICAgICAgICAg&#10;ICAgICAgICAgICAgCiAgICAgICAgICAgICAgICAgICAgICAgICAgICAgICAgICAgICAgICAgICAg&#10;ICAgICAgICAgICAgICAgICAgICAgICAgICAgICAgICAgICAgICAgICAgICAgICAgICAgICAgICAK&#10;ICAgICAgICAgICAgICAgICAgICAgICAgICAgICAgICAgICAgICAgICAgICAgICAgICAgICAgICAg&#10;ICAgICAgICAgICAgICAgICAgICAgICAgICAgICAgICAgICAgICAgICAgIAogICAgICAgICAgICAg&#10;ICAgICAgICAgICAgICAgICAgICAgICAgICAgICAgICAgICAgICAgICAgICAgICAgICAgICAgICAg&#10;ICAgICAgICAgICAgICAgICAgICAgICAgICAgICAgCiAgICAgICAgICAgICAgICAgICAgICAgICAg&#10;ICAgICAgICAgICAgICAgICAgICAgICAgICAgICAgICAgICAgICAgICAgICAgICAgICAgICAgICAg&#10;ICAgICAgICAgICAgICAgICAKICAgICAgICAgICAgICAgICAgICAgICAgICAgICAgICAgICAgICAg&#10;ICAgICAgICAgICAgICAgICAgICAgICAgICAgICAgICAgICAgICAgICAgICAgICAgICAgICAgICAg&#10;ICAgIAogICAgICAgICAgICAgICAgICAgICAgICAgICAgICAgICAgICAgICAgICAgICAgICAgICAg&#10;ICAgICAgICAgICAgICAgICAgICAgICAgICAgICAgICAgICAgICAgICAgICAgICAgCiAgICAgICAg&#10;ICAgICAgICAgICAgICAgICAgICAgICAgICAgICAgICAgICAgICAgICAgICAgICAgICAgICAgICAg&#10;ICAgICAgICAgICAgICAgICAgICAgICAgICAgICAgICAgICAKICAgICAgICAgICAgICAgICAgICAg&#10;ICAgICAgICAgICAgICAgICAgICAgICAgICAgICAgICAgICAgICAgICAgICAgICAgICAgICAgICAg&#10;ICAgICAgICAgICAgICAgICAgICAgIAogICAgICAgICAgICAgICAgICAgICAgICAgICAgICAgICAg&#10;ICAgICAgICAgICAgICAgICAgICAgICAgICAgICAgICAgICAgICAgICAgICAgICAgICAgICAgICAg&#10;ICAgICAgICAgCiAgICAgICAgICAgICAgICAgICAgICAgICAgICAgICAgICAgICAgICAgICAgICAg&#10;ICAgICAgICAgICAgICAgICAgICAgICAgICAgICAgICAgICAgICAgICAgICAgICAgICAgICAKICAg&#10;ICAgICAgICAgICAgICAgICAgICAgICAgICAgICAgICAgICAgICAgICAgICAgICAgICAgICAgICAg&#10;ICAgICAgICAgICAgICAgICAgICAgICAgICAgICAgICAgICAgICAgIAogICAgICAgICAgICAgICAg&#10;ICAgICAgICAgICAgICAgICAgICAgICAgICAgICAgICAgICAgICAgICAgICAgICAgICAgICAgICAg&#10;ICAgICAgICAgICAgICAgICAgICAgICAgICAgCiAgICAgICAgICAgICAgICAgICAgICAgICAgICAg&#10;ICAgICAgICAgICAgICAgICAgICAgICAgICAgICAgICAgICAgICAgICAgICAgICAgICAgICAgICAg&#10;ICAgICAgICAgICAgICAKICAgICAgICAgICAgICAgICAgICAgICAgICAgICAgICAgICAgICAgICAg&#10;ICAgICAgICAgICAgICAgICAgICAgICAgICAgICAgICAgICAgICAgICAgICAgICAgICAgICAgICAg&#10;IAogICAgICAgICAgICAgICAgICAgICAgICAgICAgICAgICAgICAgICAgICAgICAgICAgICAgICAg&#10;ICAgICAgICAgICAgICAgICAgICAgICAgICAgICAgICAgICAgICAgICAgICAgCiAgICAgICAgICAg&#10;ICAgICAgICAgICAgICAgICAgICAgICAgICAgICAgICAgICAgICAgICAgICAgICAgICAgICAgICAg&#10;ICAgICAgICAgICAgICAgICAgICAgICAgICAgICAgICAKICAgICAgICAgICAgICAgICAgICAgICAg&#10;ICAgICAgICAgICAgICAgICAgICAgICAgICAgICAgICAgICAgICAgICAgICAgICAgICAgICAgICAg&#10;ICAgICAgICAgICAgICAgICAgIAogICAgICAgICAgICAgICAgICAgICAgICAgICAgICAgICAgICAg&#10;ICAgICAgICAgICAgICAgICAgICAgICAgICAgICAgICAgICAgICAgICAgICAgICAgICAgICAgICAg&#10;ICAgICAgCiAgICAgICAgICAgICAgICAgICAgICAgICAgIAo8P3hwYWNrZXQgZW5kPSJ3Ij8+jIj9&#10;IwAAAAZiS0dEAAAAAAAA+UO7fwAAAAlwSFlzAAAhNwAAITcBM1ifegAAAAd0SU1FB+cKCA44D8Uv&#10;PbQAACAASURBVHja7N3ZdttIDgBQK8f//8uah066PY61kKwFy72v05NIVQBqQUh9fAAAAAAAAAAA&#10;AAAAAAAAAAAAAAAAAAAAAAAAAAAAAAAAAAAAAAAAAAAAAAAAAAAAAAAAAAAAAAAAAAAAAAAAAAAA&#10;AAAAAAAAAAAAAAAAAAAAAAAAAAAAAAAAAAAAAAAAAAAAAAAAAAAAAAAAAAAAAAAAAAAAAAAAAAAA&#10;AAAAAAAAAAAAAAAAAAAAAAAAAAAAAAAAAAAAAAAAAAAAAAAAAAAAAAAAAAAAAAAAAAAAAAAAAAAA&#10;AAAAAAAAAAAAAAAAAAAAAAAAAAAAAAAAAAAAAAAAAAAAAAAAAAAAAAAAAAAAAAAAAAAAAAAAAAAA&#10;AAAAAAAAAAAAAAAAAAAAAAAAAAAAAAAAAAAAAAAAAAAAAAAAAAAAAAAAAAAAAAAAAAAAAAAAAAAA&#10;AAAAAAAAAAAAAAAAAAAAAAAAAAAAAAAAAAAAAAAAAAAAAAAAAAAAAAAAAAAAAAAAAAAAAAAAAAAA&#10;AAAAAAAAAAAAAAAAAAAAAAAAAAAAAACZ3AwB0N39fr+XKOi3m5oOAAAAAEAbLsWBsqo0MIcXfg1R&#10;AAAAAAAKcNkNpKWROWlh0AgFAAAAACABl9lAeBqagRYNTVAAAAAAAIJwYQ2EoaGZeDHRAAUAAAAA&#10;YDEX08AWmpoNFhjNTwAAAAAAJnIJDUynqcnHh8YnAAAAAABjuXQGhtPY5O1FSPMTAAAAAICTXDAD&#10;l2lsMmxR0vgEAAAAAOBNLpSBwzQ2WbZIaXwCAAAAAPCAC2TgJY1NwixaGp8AAAAAAPzmwhj4keYm&#10;4RcwTU8AAAAAgNZcEgMfHx8amyRfzDQ9AQAAAADacTEMjWluUnZx0/gEAAAAACjPRTA0o7lJu4VO&#10;0xMAAAAAoCSXv9CA5ib8XvQ0PQEAAAAAynDhC0VpbsKLBVDTEwAAAAAgNZe8UIwGJxxcCDU8AQAA&#10;AABScrkLBWhuwqBFUdMTAAAAACANF7qQlObmxMKYqNklDsQBAAAAAEBXLnEhGY2tCwWvceNK3Igb&#10;AAAAAIBqXN5CAppUbxY0DSnxJcYAAAAAANpwYQuBaUA9KFyaTWJQDAIAAAAAtOeiFoLRWPpSoDST&#10;xKg4BQAAAADgAZezEET35pFmkfgVwwAAAAAAHOFSFjbr2iDSFBLbYhsAAAAAgCtcxsIm3ZpAmj+I&#10;eQAAAAAARnIJC4t1afZo8iAX5AMAAAAAwEwuXmGR6k0djRzkhzwBAAAAAFjJhStMVLl5o2GD3JE/&#10;AAAAAAA7uWiFCao2aTRnkE9yCgAAAAAgChesMFDFhoxGDPJMngEAAAAARORiFQap1HzRdEHeyT0A&#10;AAAAgOhcqMJFVRotGizIRfkIAAAAAJCJi1Q4qUJTRTMF+SlHAQAAAACycoEKB2VvoGicIF/lLAAA&#10;AABABS5P4U2ZGyYaJeAfKQAAAAAAVOPSFF7Q4AR5La8BAAAAAOJxWQpPZGyGaIJA7RyX6wAAAAAA&#10;/3BJCj/Q4AR5L/cBAAAAAGJzOQpfZGt0aHCAOqAWAAAAAABduRiFDw1OIH9dUBsAAAAAgG5ciNJe&#10;pmaGJgaoE2oFAAAAAMA/XITSlgYnoG4AAAAAAOTlEpSWMjQrNClADVFLAAAAAAAec/lJKxqcQLea&#10;oq4AAAAAAFW5+KQFDU5AnVFnAAAAAIBaXHhSXvTmg8YDqDnqDgAAAADAcS46KUuDE1CD1CAAAAAA&#10;oC6XnJQUucGguQDqkZoEAAAAAHCdy01K0eAE1Cf1CQAAAADowcUmZURtImggABlqlXoFAAAAAGTj&#10;QpMSNDkBNUvdAgAAAAB6cZlJahqcgBqmhgEAAAAAPbnIJK2IDQLNAaBKPVPTAAAAAIDoXGCSjgYn&#10;oL6pbwAAAAAALi9JRRMAUOvUOgAAAACAjw+NThKJdvHv0h/oVPPUPQAAAAAgGheWhKfBCaiBaiAA&#10;AAAAwHcuKwkt0gW/y31APVQTAQAAAIA4XFISliYnQNy6qDYCAAAAALu5oCQcDU4AdRIAAAAA4BWX&#10;k4Ti8h5AzQQAAAAAeIdLScKIcmHvsh5QO9VPAAAAACA+F5KEoMkJoI4CAAAAABzhMpKtXMwDqKkA&#10;AAAAAGe4iGQbF/IA6isAAAAAwFkuINkiwiW8C3hAnVVrAQAAAIC8XD6ynCYngJoLAAAAAHCVi0eW&#10;2n3h7rIdUHvVXwAAAACgBpeOLOGSHUAtVocBAAAAgJFcODKdi3UANVlNBgAAAABGc9nIVC7UAdRn&#10;9RkAAAAAmMElI9O4RAdQp9VpAAAAAGAWF4xMsfPy3MU5QI56rWYDAAAAAFe4XGQ4TU4AtVvtBgAA&#10;AABmc7HIUC7KAdRwNRwAAAAAWMGlIsO4IAdQy9VyAAAAAGAVF4pc5lIcQG1X1wEAAACA1Vwmcokm&#10;J4Aar74DAAAAADu4SOQ0TU4AtV6dBwAAAAB2cYnIKZqcAGq+eg8AAAAA7OQCkcNceAOo/+o/AAAA&#10;ALCbi0MOcckNYB2wDgAAAAAAEbg05G0ut4GjdUL+Wg+sBwAAAADALC4MeYtLbeBsjZDH1gXrAgAA&#10;AAAwg8tCXnKZDVytEfLZ+mB9AAAAAABGc1HIUzsusV1gQ736IK/FgrUCAAAAABjtlyHgERfXQKT6&#10;QFw7arcYBAAAAAA0lfiRJicwujbIcfFh7QAAAAAARvJEJ39xUQ1EqQ3k4slOAAAAAGAlzSX+jyYn&#10;MLMuyHcxYx0BAAAAAEZxMci/NDmB2TVBzosf6wkAAAAAMIpX17KNS2mIa1aTymtG1fhsMQsAAAAA&#10;xKXRxMfHhydvgHW1QP6LKfEFAAAAAIzgMhCX0MDyWqAOiC3xBQAAAABc5SKwOZfPgN/nxXoDAAAA&#10;AGTkErAxl86gBmxdgNQEMSfGAAAAAIALfhmCnlw2gxpgFFht9VogzgEAAACgNs2nhjQ5Qf6HWIDU&#10;BnEo1gAAAACAC1z8NeNyGeR+qEVIjRCXYg0AAAAAOMmraxvR5AS5D5GsXCfkAQAAAADU82kImEGT&#10;87ivl/DGj9ExFfkzincAAAAAAM7wRGcTXg8Ye248aUTmnIcsa4a8AAAAAIBaNKQa0OTMOTfGkuj5&#10;rnZgrQIAAAAAdnLRV5yL49zzYkyJmOvqB9YsAAAAACACr64tzIWxeUFM+Q5k4jW2AAAAAMARmlNF&#10;aXLWmRPjS4Q8V0uwhgEAAAAA0Xiik0tcEL/Hk0OMjicxhbUFAAAAAOjORWJBqxogLqLXzYWxZnV+&#10;b1uUxDrWMwAAAADgTS72inEpXHMejDddnuAU61jXAAAAAIB3udQrxGVw7Xkw7uKpzcIk1rG+AQAA&#10;AABv8BudRbgEjjEHfjeRjHkN0a1ae+QcAAAAAOTyaQh4lybnYy7HqRpPr/J+xme93+939YafYlGt&#10;BQAAAAC+cpFcgKc564+98RdPGWJs5OcX7+zME/EHAAAAADm4yEtOk7P2uBt/MZUxtkZ8FzGPdQ8A&#10;AAAAeMUlXmIue2uPuzkQT9nj6ep3E/dY/wAAAACAZ/xGJ0+55P1PpSfu6BlPq2PJbyoitgAAAACA&#10;mTRQkvIbZbXG2viLp8pxdOU7ywOshQAAAADAIy7vEnKxW2usjb946hBDZ7+7XMCaCAAAAAA84uIu&#10;Gb9LVmucjbt46hRDZ8ZBThAlx8QiAAAAAMTjNzr5S+fL3J2/+eYSXTyJnZ/HUG4AAAAAAPATl8eJ&#10;eGIl//gac/HUPXY81YmcAwAAAABGcWGXhAvc3GNrzMWTuDk/RvIE+QcAAAAA/MRlXQIubvOOqzEX&#10;T2JmzFjJF+QiAAAAAPCd3+ikJU9xkimWxAwcy5fd/5AFAAAAAFjD5Xlwmij5xtNYy0/xMn7s5A7W&#10;TgAAAADgO5d0gbmozTWWxlpuipV5Yyh/sIYCAAAAAN+5oAtMMyX+GBprOSlO1o2nPELOAgAAAABf&#10;/TIEMfl9sRpjePvNbIgncQJ7arC1GgAAAADqcrEekNftxR+/7mMsH8XIjvE1XlhTAQAAAICvPg1B&#10;P1UvZCM9WePSWzyJD4hTjz15CQAAAAA1eXVtMH5PLOa4GeNeOajJCbV4hS0AAAAA1OTCPRCv14s5&#10;Zp3HVw6KjUjjbgyJvmaIUQAAAABYy6trG6l0ARvx6RkX3OJJXAAAAAAAwDou4IPwlEmMceo+vvJO&#10;TESeC2OK9RYAAAAA+MpvdAbg0jXGOHUf3245p8kJPfm9TgAAAACow6trCS/ypbGGlngSD+PG7tnc&#10;GFsAAAAAAL5zcbyZpzn3jU3nsZVrYiHLPBlbrL8AAAAAwCMu4TbTfFk7Jt3HVo6JBcAaDAAAAABV&#10;uITbSANm/Zh0HVf5JQ6A9bVCnQAAAACAufxG5yaaMGvHA/nVNbeAvbVIzQAAAACAeTQ6C8p0qZqt&#10;wenCunc8mX+ouWb6xzYAAAAAkJNL+w00Y3I+wanJJacAdUQNAQAAAIA4PNFZTPTLVE/NkC2mNCgA&#10;AAAAACAmF/iLdX5iJHOTU7OrXzyZc1BX1BQAAAAAiM0TnQt1fZrRU5xkiycNCWBG7VJbAAAAAGAs&#10;jc4iIl6eanCSLZ40IcBaau0CAAAAgDxc6i/S6TWb1S6JNb96xJR5BlbUHLUGAAAAAMbxRGcBUS5N&#10;PQVDxpjSdAAAAAAAgJxc8C/Q4cmQyk1OjbC68WRugc5rNwAAAABk54lOLvEUJxnjSZMBeKdOWOMA&#10;AAAAIDaX/ZNVfSKky+Wvhli9mDKnQPc1HAAAAACqcMk20ezGzY5L0m5Pt7iIrhNT5hKIVqPUJQAA&#10;AAC4xqtrk1p9Oer1fWSOKc0EAAAAAACox+X/JFWeAOne4NQgyx1T5g+wpgMAAABAXb8MAT+5/2Yk&#10;GB1Xq/4uzQNAPQEAAACA2ry6doLsT35ocJI5pjQkgGz1Ud0CAAAAgHM0OvmXBifZY0qzAJhZX6yT&#10;AAAAABCLpsBgGZ/mdHG7Z9zlgXkC1DY1DAAAAADO80RnYxqcVIgrzQFgZb2xdgIAAABAHBqdA2V5&#10;0sMlLdnif0VeAOyuoWoaAAAAAByj0dmIBidV4kozANjFU50AAAAAEIdmwSDRn+Z0Kbt/DsS8uQDU&#10;PzUOAAAAAMb5ZQhiu3rhef/NSDKSJidgbQYAAAAAdnNRN0DEJzs0N2PMg1g3/oCaqOYBAAAAwBx+&#10;ozOwMxedGpxz3O/3e+eL551x5cIfAAAAAAD4iVfXXhSpsajJSaW4uv1mBoCoZtUo6zkAAAAAvMcT&#10;nUEduTx1IcoMnuIEAAAAAAAi00y4YPdvc2pwbkiYBg243XGlyQmom+ohAAAAALzDE50BaXKyg5gC&#10;AAAAAAAy8RudJ+1qCt1/MwO95t33AojLb3UCAAAAwB6e6Azm0WWpy05miBhX9/v97nWNAAAAAADA&#10;KxqdJ6xsDmlwIq4A4rvdbje1FQAAAADW8urawFyYmpcZnz3D5xf7AOohAAAAALyi0RnIn9d1+h1O&#10;ZhBTAGvWcQAAAABgDRdyB2kW8W/yJLnQzhyzmgaAfYJ6CAAAAACPeKITivJkMMB6GpIAAAAAsI7L&#10;uAM0jfgrgQJeaFeLU00DwH5BPQQAAACAn3iiEwrRjAcAAAAAALrwZMCbNJB4mEQBnrCpHJ+eYALs&#10;G9REAAAAAPjJpyGAvDo04O/3+93FPgAAAACZVbrHc1cHhKpJhsBCVPV7Vl/cO82VzRNn8kPcUHHv&#10;IK7FhpgAAIA15y+cTYAk9ccQ1F8ozy4yNggxF/Ku82KzxNncEDtU2z+IaXFhH4A46x0/1edXvoN6&#10;oIb0mOMRcyUH5CTAx4dGZ9lFc/QiYuOwf+HuPgc2RlzJD/FDpT2EeBYT9gKIr54x5I0ugHrfo450&#10;m18PaJhrOWkezaP981V+o7NYAswK6NvtdlPUxeDucXDhAaAeAoDz0rhzvrnJP84AGdfsLLXRWvbz&#10;mJg/8xKNRqeN8+G/Q4FfV0yMNVjsyb8+q+WAQzyIe3PjLGIkwFlr1jhkrM9/Pof6CIyg0dlsMbOR&#10;cCh0QASA/Xs3az326AAA9tbvfsfZf96uMdTwBIbUNkPwutBWX+CqjU/m+TGmeeKfnPVa/FBpvRTP&#10;4sX6jxjqF0Md5vfIXIn3uHlhbuaPtTGuXfe7zK86FDdmd42fcRCv5s+Z59R3l5Z5EiFqoCr4Y+bJ&#10;OCrarKlD4ocqa6VYFjvWdMSUuMo+ryPmyjkqZp6Ylxg1qeM8VFoDKs6ffMgZrzvGLtLYWNNy19lO&#10;86fRSegEyBCgCv75OZs9dj99luzz5VKUKzEtfqiyToplMWQdR1yJqYxzu2K+nE9j54bmjXFX89V8&#10;Y5YzllePW/Qx8o9S1U/zEmhcDIEFT3HfM3c7GpyV5kxR50o8ix+qrJNiWRxZtxFXZJnfCPNV9czq&#10;FZ3Gu3oeqPe55jfTfO0cr8xxreFZc4/Rvdb6GcPk8WsILHSK+tp5nDlGnV6bq8hzJY7FD1XWSLEs&#10;lqzXiCuiz7GneeRChTkx1sbdHNedL+tjjnHzml9j22kezcmJMTMEFjgFfd18zhqbrr9to+hzJYbF&#10;D1XWR7EsnqzTdIotcZVnfl1IGtsKc1J5rNV7Nd987c0H98C1x8x5TWybk8VjZwj2B3HFANbs/P+5&#10;zfIUj1cG0anuiB+qrI9iWTxZo+kSW+Iqz/z63TFjm31Ouoyzem+Ozde+fKgU55qdzmvqqPnY7Zch&#10;2FtQqgax5PyvEI4uhjPjxu/CYqMCYL9lH4i4MpYd56ry+VysigPzbjzNF1XiwM8tyNtquWM+Bo2l&#10;IVhfLP3LQKLHjE0DneqOGKLC+iiOxZR1GXFFlDmuMF+ecus3H53rjHpvns3Xnnwwfr3GL0qtVWfV&#10;0Ko80bm4kHQKYMmaN2a8BgIA7Lns/RBXxrbrfPnX9XLB9weIXU/8/BaZ5088jKfR6ZCkiAeNl91j&#10;Z+7oQrMcsOeyb8CcImbkQb950NCWb8bXfJE7lzU7kSP8odGZuDhK3nrjFG2sssyd3AW6r4vqIKBe&#10;YoyNEebVeABqirHB/Hek0Sl4jUOAsYk8PuaODjSJAPstewXMrXnGGJlPzIlx7j1fYjHfWGa8zxFn&#10;PWPavM+l0YkivmksMr0mx9yhzgAA1nQ6z1eE7+gf54lVAGqsj7vWI3uJPWNn/zGfRufEJBfA/BQT&#10;WeMi+ue2UCOG6F5TxTD2n4DaYZwwf9nGx7wYb8Sb8cE8c5VGJxIb4DeNIgB7O4DIdc9+1XoFcsk4&#10;Yn1ErvP/NDqR4BbdMnNnUwMAkH//50JAjPjOmC8ANdj4zOH+VOxXpNH54bW1Eh1zBzZ81Kin4hdr&#10;NaB21B+vbuu938QC9d74UHl9FHP1YsucrqfRCRZd4wsAAHCQZqf5wRwBcj3jGNlHiPdqNDqR9A6l&#10;5ebOYo0YAgDA2ci8APKKXjLf58gxMcV5vwSq19Yq4Jg7gDq11CYcAHqcjTqs+We+o7Oqcz7mGrCP&#10;UFt78UQnCoDFxPiCGAIAZwPMF2ISAPXZOPHbkbtBc7eXRidg8YUBGxoAAPt7Y2e/6ruh3gDWjyz1&#10;0VprTauidaPTa2sVAwtv7bmzWMspUEcRV2IXwJpu/AEAjnj3jtH+IwZPdOJQAjBgYwPiFrBPB3bk&#10;S8V1/+h3UqcArJHGyj7CmPSl0QkKZ+mNioVJLgEAQPXzUee9sItzkDtQcV3U7IwfO+poHBqdNgjG&#10;EMCGD+sfAEC6vbc9FDivgNzD3NC20enSWpEQj33mTb7LIZAXAED181GFtV+TE+hawyHTGtx9DNSI&#10;eDzRCdgIYiNmwwcAQIHzUeY9q/02AOzdT3Rei+1DctPoTHyAMZ6KKcbXvK6dV3GEtQ9AHQRxbVwB&#10;oOq61/Huyxsl8mvZ6HRRDQ6cqOUAAGCfnO8zO3M60wNqDIhfvvJEJwqHA2mbudMYkyviCLkCAM5r&#10;xirvfsVYAmA/EWtt7rIPsQeJTaPTocXYJj7kQcf8kCMAADjb9jtXunsxlwDqp2an78hPNDqBVgcX&#10;C5jNhzhC7QQAOqzzGfas9tUAEHs/gTHPoF2j0yZaIRGnGN9882XOAACcv6h19vHKWgCwj4j+3exB&#10;cvBEJzCNhYDKGyrNV+QRAOCMZMwAoPLaWPFOQZOzHo1OG27jnLzgmjuLtBzwGbHmAQDW+kx7VheM&#10;AD25R8m5nzBvRKfRieINhNv02kABgL04yKmxe+xI+30RAABE3oc4/+TySxCDmK12iFcTxLzPDAAA&#10;zpEAYK0co8L9lyZnXZ7oRPHG3BFio6FhCA4kAOCMVHs/4IIRAPLuJzrcLdiD5KTRKegJzuW08TUH&#10;vgP2GACANT/7vlWTEwCIvg8hJ41OHARpP3cWun3jbuwBAHBOqn/Gte8HYOVa0O3+2FOdYz6zvkNe&#10;Gp0o3jYCIKZ9JwAA7MWd9QEgKc1Oe5DO2jQ6XUCDRUONiDHOlcdaHCE+AWrtEaFqDqzcF3iKAgDq&#10;yXLH8M7ntAfJzxOdDuLmwOJh7lgSv5osoFYCAHHW/hX7c01OAFatOVhPxV1fGp0AFj/j6vsCAADA&#10;XzROELO+/yMV7sDUuBo+DQHZC1GnpsL9fr9XKb5R567SGEcYyyybFc1JAAA6npNmnn88zQkA9UW9&#10;S/XK2l5+dUk2Uw0xD/FGQd0dHVNfnfn/WXcAAOh0Tpqxd9XkBGDmOoP1VczxlVfXKhTmQ6HGGA8d&#10;ux3jN7JJOfLPAvUNAMhwzh25R9DkBKDL+mksxu8jxApnaHSicGPuGLKhWb2pGf0U5ujY1FBCjQQA&#10;AKAzdyPmOuLncNdSj0YnWDgwxqnGauUTl1f/LnEEAMCVvWi2fb2nOQHosm4akzl7idl/vzipSaMT&#10;hTupSg0UC0zeGFwZhztfKStGAQDosA+9sr/X5ARg1JpC3r2EeGOHXwIcsOiqH0fHpUuDc0SMiiMA&#10;ALLt92f9fzQ5AawlM1hf+s69OOHjwxOdksH8WDgwxgHHY/bvb6oxdF7b1DUAcM4FgFmcOe0lVseA&#10;V9ai0YnCjbnjrQ3Dik1KxObmiDi1yQcAINNZ6cj+1dOcAHRaI41TLJqcfHxodEKLYm7RNcZXvrsG&#10;pw0SAAD99qDvnAM0OQE4sy5kXRuJFQseLOAPjU4cAIFtm4VsDc4rdcbmCwAAZwIArBnsUv0VthG+&#10;M3todIKNRPtF12bt7+86+/tmbnBeiVWbfgAAqpyVPM0JwNE1oeqaaC+xPja8spavSjc6RyeRxFC0&#10;sWmr/v00OAEAwFn31TlIkxOAo2tC5rUQMUdsnugEBd7hXews+x3OiuPnqU4y1kRxCACc3TtocgKw&#10;82xpfck3hiPjxD6En2h0omhj/oJv4LJ/nw5Pcao1AABU33+u+geSAMS3a01w/5I7ZsQJs2h04gBo&#10;wcCGdFrudcq/I99VrgIAUPms64JRbAF17brTUJuMp9/l5BGNTrDZsOg2GmMNTgAAoNsZDoAxNDmt&#10;2bvix0MDPKPRiaKN+WuwuGpwqjUAANh/AsAZO19fbq2rF0uz/j9ipS+NTgUVCwbi4XJ9VCOtFwAA&#10;2H/aCwPUsrvBaV2puXbPiCmx0lvZRqdGD4qd+eteZ1Y9xSk6jRviBgCwT7BXAahjZ4PTmsL3WDQK&#10;vOKJTrAIYDN6asNp03luQ27csE4AAAAQ8YwYocHp3mTPuO+ItxH/za7PTyyfhoBuRdvFrvkbvShH&#10;WUxXjI2Ng7ECAMB5yd4XoIYo92zWkZ77iGf3qpqcHOGJTloWbZsV81dtnD3BCQCAMwS79uziRh0A&#10;cuT2dxHWLfdNnF2HxA5/eKITwAHUhgEAAABggVlvB8vyjxTcNcWem0hPdcK7NDoVX0Xb5sn8JRxn&#10;r6kFAAAinZdcVAKMrakV1yczy6s9hKc5OUOjE8Bm10YBAAAK0ewEiK3LAxjWBHuIGTkhrviu5G90&#10;+i0BFMT6OdHxtzpn/36C30UAtQ8AAABGnF2dX3PPn1Egk1+GAEW7B83OvOOswYnaAoD1BMhyXpLP&#10;AH3XHXdMVN3fEJtGJ0BQsxucNgdcjc0/8ekyK/dcGgUAqEuzE4DZ64zmpj0E7KbRiaLtqU7zF3Cc&#10;VzQ4bVhQRwAAAADIwF0mj2h0Aha5QLymlujxeeZ/AwCg33nJ/hCgvhVvI6PfHgKO+jQE8E/R7rIo&#10;3+/3u0Uq3jiviD/zDgAAzrzOnwAx6/To+qveA11odC5eZIBaB/cMG091jC4Hm6/5JO4BAACIavaZ&#10;9ac/f/Yd1J8/33m8XqxGuHMVVzzj1bXQsFh6pUSMcfY7nDAu177nkzoHAOD8CRDRrrua2xerz+iI&#10;WZhJoxMUbfO3+FC/YsMnlungVS5VPVjJbwAg2x7ChTdAvDVhdtNTwxNYRaMTmtIAWD/WqxqcmiBU&#10;ry0OSwAAADDGiic8jbI4gZnKNToVThRtutYmsYtcAgAg6j7KPg4gLk93Apl5ohMcdEtuzmxGYV9u&#10;RaotDlIAAM6gAIw9919ZB6wF4gNG0+iE5kXb5iJ3nNpgAAAAzn0AjLLivsm6xNGYNAo8o9EJWAB9&#10;P6AxB0wAwN4DgO80O9kRF3CGRico2l5hm+w72VCgrqhxAACZ90L2ZwA5aHayIy7gKI1OULQRjwAA&#10;QEGRL5BdbgPkoNkJRKfRCZTeVFRoDnqKEwAAcOYAoCrNTuAKjc4XG32jgDhA/EH+g4pDEwBgLxbv&#10;zGGPBpDDirXCmiAm4CyNTqD8hiLjwutfVAMAALPPdt/PHDvOIC62AXLQ7ASi0uiEIAs55lC8gfwA&#10;ALDfAgDsGeB9Gp3A//Evp2wQYGSMen0tAEDMPU+ks4d9GkDNOwFrArCCRicEWsgdMnvPoSYnoF4A&#10;ACvOcq/2El5hC8DONcKaAByh0QnBFnLEFgBANC6bsHetk6fvzp95BjUDADLQ6ARabXgd1iF/PbmS&#10;xw7zAABxz0/2agBYE4CjNDoh+EEPcwgAAPBMxt/lvPpdANjH3RoQiUYn4IAJAABQ/Nx2eXGdVwAA&#10;IABJREFU9lLaZTa7YhZAvQDeodEJDnrm0MYNWsW4fAMAnH9in5/s1wDqry2IAxhFoxNwwAQAAHBe&#10;e0qzE/rRwKDbWgfkpNEJNnvm0MYN5C8AQDI7fpdTsxMAgGg0OiHRIS/6ARogSy1R1wAAZ1YAyLHO&#10;OMMDz2h0AjZkgdi4AQAAI84Ns846nuoEACASjU5IdsiLfJA2h8YatQAAgPr7Mc1OAACiKNXotPEF&#10;OQb04VVsAGD9dSYzTwBYA4HePNEJDvt8eKoTOsa2PAMAa6OzTZ4zlPgE6L3uADyi0Qk4XAIAJNiD&#10;fWVEwFnsJ6svmzU7oW49AYAsNDoh6QGP+nPo4AEAPNoTrN4n2OuCs0GU+uCcBADAVxqdkPiA55Bt&#10;DgH1DEBNBpxlADUF+0XUC7rS6ASwgYO0cW0zDaiZgDqwf0/kqU6A3pzNgZ00OsHC7mAZfA4d4hGL&#10;AAD2X85R9qYAAPxNoxMAaM0lGaA+wXs8rRGzBkSaFzECAMBqGp3gcDf94G0OjTUAAODs6ZwEgNoP&#10;jFaq0elfDoLNBaB2AKiTIObMxz5eYQvqCz25mwd28UQnWNxJMocOI6DeAgD1ZXxl7e7P5qyUb/7M&#10;mRgAgFE0OsHG0AHFHELrPO/w/QA1CXBOAQCAijQ6ARJx8QkAfHzUbXLY62C/XycHPNUJgJoPrKDR&#10;CcUOdzYY5hAAsKcCe+K6+Z9pLjQ7AQCYTaMTIBmHd6rEXLRYllsAz2l0WeuRh+IZAOsUEI1GJ1jk&#10;HSgTzqHDOzhMAfZSgPy3T0PcM3rM5SwA2Wh0AgCXDsIAqLfA/PzP3HzwClsAAGbR6ISiB7voh3Rz&#10;aKwBAOxx7IPFu3g3tvIeQJ0HrtDoBAcFzCE4NDgoAYlqj/0I1j7nEN9BfKtBGGsA+IdGJ2DzbKxB&#10;DAOog4D8n84/1AA5CgCjaXSCTaNDuzmEVjlsfgC5HH8fpM6JQWPv/CHOAXKybgGraXQCOLiDwxQA&#10;YH01/mW/kzOTM60xNsaIbaAujU5wWLXZMIfgoOD7A2oNIP9Ln6eMu3MvAFCTRidAAQ7tAGDdNk4Y&#10;31rjrsmE3GAlNQdQw8lKo1OCYgMpj8whWPsAktRZ+w/sd3vkf4ex91QniHsAGEGjE5od7HB4gWgx&#10;FDF25ROgtsTYw6rHxhXEv7kBUDuAZzQ6ARuOCzSrAbD2Yk6AkTWg0xlj13dVk5151R7zjNoB1KHR&#10;CRZ+Gh5ioGrsqKnGDNRY48eY8bQ+7Ilh4662mBfzAgAco9EJOKxcFO0ywsEQMQOgxlbb/1irjCN1&#10;7TxPyQm1yjj6BxZi3JhifslPoxOaH+wsSuYQm0WjYGwAdQTsbffXgc7jLubAHsT4AXCWRieATTkA&#10;kGAtjtYI8FSnmMSYm6cedqw/5mXN2PlHBqjnQAXlGp0WaMSuTYc5BPkIoL4aW86Nmz2ts0THMVBb&#10;1HwAIC9PdIKDHQ6FiA/MHSBH0+xf1UHjZdwxZz3qvXmZO17uoLBPxJhThUYnYAEscPgDOWisYHXc&#10;yg9jYqztZRkTn8Y9zlioLWp+l3FSdwCoRKMTHOxw0EFMqKMA6mu6umufM3aMrJ/iEnMYuU6YF+MD&#10;8gF4RKNTYQS5Vejwp46RMRZcrALqK8Z+/LgYmxzxaB+ktmBeVo+LuiPOAKrR6ISAbDqBLoe1DPXO&#10;QReIUCOi10tP+eSOSecPcaiemNMs82Nero2Hem/dML6YUyrS6AQsUIUP5zYDRJz/2xdmB3Lne/f1&#10;xfoaZ//jCcbzMWk9BnU+W90wL+fWPfWejvUC9ZgeNDrBRgCw6VxW19Q2aw1Uqa0O9THrStd5ORuT&#10;1gFxp5aY38z1vnPNV+/lO+YT+I9GJzg42HQ0mT8bvH4b+ihzrsEJtet8t/XFehp/D9Tt8vvsd7U2&#10;qwmY5wpn3m71XiyqLRhj4G8anYBNB8ipaapcokYZU/US9uafHMxV/6vP2ZXvp8kpvjDn6n2feq/m&#10;071OqN11xtVc8kjJRqcFHPGM+bMhsNHcH/vqF/TJ/erri/Uz9z6o2gX41e9jfY5VE9SXfONiztR7&#10;9V7dUVPMLxBsL6J42RhgMXY46jeH6po4qx5bM8ai4qu51AK5b33JMbbZxzXiXjbbmI4aQ3U/bjyb&#10;m3xnYHOm3qv3YldNsa+WM+aRIOu9ZJM8WEAcQPrNn5omxjrEVMW9gP0NGfYHmnLGNNte1hpGlDg2&#10;TznPv+Yt19yp+USOW81O42wezSEnY0LCSR4sIg4dPedQXRNX1eOo4lOd9jdk2RtkjC3jaT+7c8xn&#10;jo1any92u89ZxrOvPMs7jzvmzpPhYrXrPHoTjTk0h0yLB0kncbCY2NDZPCOmKsaQRqc6IP+tNVX2&#10;VV4JXGM+NMvEqvlTH8xnn/lU88Wn+cwx7nInd86YP/6NBYknabCoWKRs6BBLFeNGo1P+y33re5W9&#10;U8V87fK2EjEjPs1nz7ogB9V8sSYmzW+usZdLuXPG/KGZIFmwsFicms+f+iaOqsZKtUanvY28b3lY&#10;+RKnnS9J7Y0QK2Kx+hxXrQVyUs0XW2LQnOebB/mVO2fMX9N1URJKEMS3Ran3/KlvYqdqjFT77Rt7&#10;GzlP0wObJ7kQJ2Ku6Nx3y3t5qt6LozUxdbvdbh3jLFNsZJufjnlXLYfUzgY1UEJKBiw2FiHzp8aJ&#10;m4qxodEp7+U39kPyQXyoq+LDPJgfeSpexJB4MX/yUj6pr8Xn0YIn6BHfFhrzp76Jl4oxodEp7+Uz&#10;9kNyRUyIG9bHjHmQ3+JFTIgbsdNlDv3Ej3whhk9DAERefC00xtrhzeZOviCnoR+/z2qNxlqHem9M&#10;oH6cy3tgBI1OSLwhsBkwfyNp3sSyOj7Mfc9DJUC2muU3/QDUe/Ued2LyHuArjU6wsQtN841uPMVJ&#10;lLgAYuz1jMLzMalWH805gHoPXePr0ed2HgZe1o/KX85vWdGB3+o0f8ZbPJjr9eOZ/beu5HndPDe3&#10;dWq1ueyxPzbPceY/0lyMjOHMvy0eNT8q7THVe/UeUDsj1rWV9V19rsEFp8BHrDsUmDu1rlksdJnf&#10;Sg0ljU6A/PsutRegfs1X6wFgvdKvrvW+dkCdwgG876FbfgFwZh08s3a42AbIWfMBgPz8RicU2cD7&#10;rU7zZ7xzxrVDPgDE25sZBQAAgBx+GQIgC09mUSmWNTnZVfvEBAAAAABVaHRCES6uzd9oGstzxnRl&#10;g1NdkCMAAAAAUJlG50EuNYmsQ1NDDhpvY/m6DmhwAgAAAAAdlG90uuwF1Ct2WvUUpwYnAAAAANCN&#10;JzqhGE91Yrz7jZ0GJwAAAADQkUYnQCBRG1aancfHy1OcfeY6058vXgAAAACoRKMTCvJUJ+yLSw1O&#10;AAAAAIA1NDpP0GABZvJUp7XhWWxocAIAAAAA/KNFo9OlMB15qhNjvm5MZo+LBqe8AAAAAAD+5olO&#10;KEyz09wxN/ZWPcVptPvGmFEAAAAAgMc+DQEAR9zv93vn5tuq5pMGJ2IKAAAAAJ7zROdJnrIgC091&#10;mjtjnut7e00tAAAAAMB7PNEJAC94RS3vxIg5BAAAAIC12jzR6fKRzjzVae6M+fnvqMmpLvjsAAAA&#10;ABCTJzoBOK3qU2x+hxMAAAAAID6/0XmBpy3IxFOd5o73YsjvcKKOAAAAAEAOGp3QiItuZqjQYNbg&#10;RC4AAAAAQD4anUApnuo07kc/twYn8gkAAAAAcmrV6JxxyewyEnkQj7w07u98Vr/DKR4BAAAAgNw+&#10;DQFADrfb7aZ5c83K8dPgJFLtMAoAAAAAVOTVtdCQpzrpNu6rn+DUWJIDahcAAAAAzKfRCZBIhgZa&#10;pEaNBmdPmoUAAAAA0EO7V9fOePXj/X6/u9xGLsQjN3vaEdfiDAAAAKjG3drzsXn13xi7c2No3DjK&#10;b3RCY37z0bxV2ghrcIIYBQAg37nr6J71p88wet/7/e848+dfGauZ+/iZZ+cRn/vI59tx3vnz+Ub+&#10;3bPmZNRn3NnsHJGLO+dp1eePHkNHP+fX/869Bu/w6lrAIYzUY7/y9bRfN1k2WnJ+9GdQrwAA6LjX&#10;HvHnjvxsET7P/Qsx9t44rRivr39+hvmJlhdZP8fIuZ4RNzPHJEIMuSvhHRqdxYo9HNWhWVMxP7PM&#10;28yDsAYn1mIAALDXrv49nXPO3ReIufyfdffYzIylTv+YYcT37PgPPzimZaPTJTWAA8vRdcPagf0O&#10;AADEPi86C9MhHoxrrXyrXrtkDSv4jU6gxW91+vH0vGO/OzbFjc2zzw8AAHHMusN49GdGOhO62zBe&#10;xjXWufzZOBz586KO6ezP9NOf/2zc5DSPaHQCONyF2wRH+F42TgAAADHPTY/Ow2cvwVeeQR99vnc/&#10;w6yL/shn4CtjlrkxEvlzV2s4HakB737vr//drnuunXP07Ds/+1x//jf/IJwj2v5G54wkl3zIiTqb&#10;FtaO//2b3bmgySm31RsAAHA+GH02fHW5v+s8mrHJeWTMMp7P3EvEqxlX8nNHfkeNoTONYnjFE50A&#10;iWV77XDkz2oDVftA0u07iGcAAKqfoUadhyOeKV490eT1jcfHjDln2exx+E68zPoHDzNjtUp9UOd4&#10;1y9DAHRaPGx4sXGSzwAAQO39+IjP5pwItc/lO5qc3//sP39+l3qjrjKLRqfiDu0WnGp5apMwZlOJ&#10;PAYAAHqdhx+dK6KcE51Xx42ZM6TzedT8k+dwXetGpyIC0Lf+WwOIcNjz2loAAJiz/321187enNG4&#10;QzzO+7zO1ZCLJzqBlou5pzr7xraxkr8AAABZztfOsGSJxypndTkH+Wh0TuACFsBGFWssAACw97z3&#10;6PzgXAF9z+zPPqO7I8ipfaNT8YK+ueGpzj6xbGzkbJfvI9YBAOD8vtt+Gq7nSdazu/yPVY/hCE90&#10;AlB2422TajPscwMAQJ8zoD06xMo3Z3TMAStodEpYKLdp6ZyrGnvGAQAAwFnw+NnfORLG5Nu7OZfl&#10;uzCe3gmjaXQqZCA/KBWvYtYG2HcCAACO7MMzniOdfZ21osehueidB1VfcUxMGp0WVpCrcrXExtoh&#10;T37KAzkAAABXnup0JnJeYuzYRorfbrmUpdmpxjHCpyEA3lmUqi869/v9XmXT22G+HFZsyjPXF5t4&#10;AADs2eOc6SKfKVedHUb9PTvHsto5K9ucPLuLin7nVvle6WocjRibd+4pK93LsocnOhsUNICqdVvt&#10;rkszEAAA7P2vnBdH/nfORLHj59VYuTvYH4PiuXcMvJODnu7kCo1OmxIYekiQr+ZrxXdzSJGLOLgD&#10;AEDFPbLG3fPz4f0bkZ4n58yX+DiT8/AOr64FwEGVsIdY3w8AAKhyvvxzHvjzd585H3Q8F185R7lH&#10;WJ9Xzr28ysd3XmUrfznCE50WPpAjgzbP5mvud1GjHV59N/sXAACocP7wNOIazkrxxl3cy6Ejf65a&#10;ybs80blo82JhpdICZ4HBoQTO7QeMAgAAzmxEHOtq/1jad9j/+R+dgd2Vi6Gvn++duxIxwyue6AT4&#10;YfE0CjZkyDsAAMAZo8P5uEpj0Nug8sStO4DcNWNG7naq6Yyn0bmoCEhE5IkDkbkau8FBvuEfBAAA&#10;YC965YwR+SyicffeHYExylsn3AVwNJfFDI94dS0ADslsY5MKAADsPpOsOo86914bu5/Oj15pKf/o&#10;ketihmc80QnYnD9ZOM20eEKOAQAAzhmYc87xlB5nYsbTwByh0Xmi+Fp0AdZsXHAQZf1+BQAAKu7p&#10;d1+a27/nn0Pmxf/O+asYO36Si240OgGLTbPNTpTYsVnpS14BAAArzxp/zp/Ooflpdtacuw5/PzCP&#10;RufiwmfBRa4gZsRMZ9ZBAABg51nj0ZnUWQXm06hmZMzAHxqdAIMOSzYErz+HzYlcMgo2+gAA0HHv&#10;7Dy0Zk6Ns/mTnz2YM77S6JSEUObQIG/FCHIIAABw3jh7RnVuyUOz0/yN/nuBvDQ6FT6AqXVULcUh&#10;0/4EAACy7J2dX2rMr3k0f3If+tDoBLYdHrLJuuHZ8bk1OHFQAAAAdp45Xp1JnVlrMI8AaHRuWixd&#10;/ALqJtVZ6wAAgIxnDmcZ8cEaO+6QOjwJ3OFuzv0jX2l0AhYYm+Rh82+TgVxRZwEAIMu+2f66/nw7&#10;mzrnipn17l8YDVbQ6Nyc8EYBmxMq1BnzjvUNAADIeO54dJ51rslF46ru/GWuL2qzsWQNjc6EhRaw&#10;2YlUH9VI5If9CAAAVNw3O984M1F3/l79fbOfSOz01OOV76gO8w6NzsRJDjYmcnfXZ9TgxJoGAABE&#10;O3ucPac63zqvEkO0ZueM2PmpuTnj76iQg6NrPXVpdNrwADbw6iEOjfYhAACAs07ps5O5dP49+/eN&#10;ePLSb1Yey0H5yhGfhiBGgrvApOKmpPqCFDV3Z427OoXN5+v8MBYAADgLzD1rznrC59k9RvW7u9m/&#10;d7rjfJZ9LqvNSYYz/Ttj/vW/2fE0aPT6/M5YvpOD7lY4SqNzQsEDyLwJtikmQtxl2huIAgAAuHam&#10;eHdfPfv84e5PzBHnrL06F4/+nSM/X9R4PJsr7zQ7q40Ve3l1baCiYRSouCmRu7k/h80Dz2Ku89r1&#10;0+/UykMAANi3P+9y/sc5yhyuPeuL1TjfS17ziEYnYLFObsZha8fGjt4xl6WeyQ0AAJzta382+31Q&#10;e1b8vR3uF0Z+P7WZZzQ6AyWUfxkGOWV/376NA9aq64cPT3MCAECdPe9Pn+nI57z6/2fMmM1ugo/4&#10;8zv9I4Jsn2PWP3Ye/WfOHJ8IMe4fnPNWnBiC42Ze8kpa5I3D2a7xVH+Qx+dzQqMTAAAAejh6B+Bs&#10;f3zcjBmHcswQrClmCh9yRqMz6liqOcjhazmhyQkAAAAAe3h1LbBEhwv7FY0gTU6qxnaUOiUnAAAA&#10;ACAPl3kXeKoT4uRMmKI6KXc1OJGzMfPW05wAAAAAsI8nOoFlPNW5/8/0xBo7YzliTZIPAAAAAJCX&#10;y72LPNUJsfImRGEdlLue4kSO9spRuQoAAAAAx3waAoCx7vf7/WqjYvRTnGaFHbEXzchc6PJaXwAA&#10;AACIzOX3AJ7qhFh5E6bAnshfT3EiL3OspdZ+AAAAANjPE50AQXiKkwqxF8msPNDkBAAAAIAYXKYN&#10;4tITYuVNmCL7Rv5qcCIPc62b1nwAAAAAiMETnQAbaXJSJf4iWJEDmpwAAAAAEIcLtYFcfkKsvAlT&#10;aH/IXw1O5F3OddJaDwAAAABxeKIT2Op2u906NDu/GvV9NUXYGX+RakiFsZPPAAAAAHCcS7XBXIJC&#10;rLwpW7zVA5rn2o4csMYDAAAAQCwu1QabfYnsIhS507xoqwE0z69dOaDJCQAAAADxeHXtYB1fwwms&#10;qS1GgTOqrElVc0BuAwAAAMB5vwxBLpqoVOWy39hgzXgU/7tzwNoLAAAAADF5onMCT3UCo2qJUeAM&#10;T3HmGEs5DgAAAADXeKIzIU1UqnLp/984GAs6rxFyAAAAAAB4h0vEiTwFAvFyJ3RBltc0z51oOWAd&#10;BwAAAIDYPNE50cxLTE91gnoBX9eEzOuCJzgBAAAAgDNcKk42++LZxTByJ3kRlsM0z5WoOeBpTgAA&#10;AACI79MQzHW73W6evgRgNA1OYwsAAAAA3Xl1bXIuY6nKE09Qs/Z3f02t2gYAAAAA42h0LjD7UlOz&#10;E6CHzL/FmaXBaU0FAAAAgDw0OoGwOjz5pKlCh1jxFKNxAAAAAIAZXLgtNPuS2gUqcidxMZa/FIz/&#10;bHE9c6zlOAAAAACM92kI1rndbjdPbwHwDg1O4w0AAAAAPOfVtYW4pKUqr7BFPc+Tq55c7FnDAAAA&#10;AGAHF28beIUtxMubMEVZ/opzcWtdBgAAAADe4olOIAWNAqrT5Kw57moXAAAAAMzj8m0TF6sQL2/C&#10;FGb5K67FaYnxl8sAAAAAMJcnOjeZffnp9/6QNxBfxlpd6Xc4rZUAAAAAkJtGJ0Awmi895jhrk1Oe&#10;9RsrAAAAAIjKJdxmLlohXt6EKdDyV+yKResvAAAAAPCQS7gAXLZCvLwJUaDlrpgVg9ZdAAAAAOAh&#10;F3EBrLj8dumKvElapOWuWBV3qeZDzgIAAADAOn6jMwCXoiBvHvF7neZPbgEAAAAA/MxlZiCeMoFY&#10;OROmUMtdsSnOrLMAAAAAwF9cyAXiFbYQM29CFGu5Kx7FVui5kaMAAAAAsJ5X1wbikhR4xCtszdGM&#10;NUeTEwAAAADITKMzmNmXzi57kTMwvq5mbHKaOeMJAAAAANm5mAvIK2whZt6EKNpyV8yJn1DzJCcB&#10;AAAAYB9PdAa04tLUk50AfWpop9fUWusAAAAAoA9PIQTmKRSIlTNhCrfcFWNiJcRcyUUAAAAA2MsT&#10;nY150gXkLu+PuSYnxhcAAAAAYtHoDMwrbCFeztCP19SaMwAAAAAgJk2BBLx+D2LlS5gCLm/Fkniw&#10;ZgIAAABAYy7qElh12e7iFjmTsIjLW/EjDpbOnbEGAAAAgDg+DUF8t9vt5jV8AHNpcAIAAAAA5OKC&#10;NBFPqkCsfAlTyOVtu3gx59ZIAAAAAECjMx0XuRAnV0IVc3nbIk7Ms7URAAAAAPjPL0PAd16TSwWa&#10;Eryqc5qc1ixjDwAAAAC5ubhLaNXlvItd5Euygi5nS8aDebUeAgAAAAA/+197d5bbSA5EAZD2/e88&#10;8zFqwe6xNquKuUUcofiSBF5Ctl90FqRwBX7i19j3v03FX3C67725AAAAAMBtyrvC/Lk+yDMrqS52&#10;c1v67J2fNxAAAAAAeI5fdHKXX4gB7q99LNbynK2zAAAAAID8lHjF+f9kkGtW0lzug2fWgtP5OhMA&#10;AAAAmEGJ14DSF/LMSaoLftjMWnA6Y+cCAAAAALMo8ppQ/kKeOUl1yQ+Y2arn6j71zgEAAAAA71Hm&#10;NaIEhhwzkuqSbzyvFpxm19kAAAAAwGyfPgGvmrgsooeJS4yO8/rPRcX8WaQBAAAAABxH4dqMX71A&#10;jhlJd9k3mFm/4DSzzgkAAAAA+Eqp15BSGHLMSLoLv+jMVj4v96T3DAAAAAA4j2KvKeUwxM9Hyku/&#10;0MxacJpTZwUAAAAA3KPca0xJDPHzkfLiTz6zFpx4vwAAAACAZ3z6BH3tKnAnL4yAY++Syv+H09LM&#10;mwIAAAAA7KWUbW5nYazkx3wUuvwTzWv1c3D3ebMAAAAAgBhKvgEUxxA/GykfgOB5teDEWwUAAAAA&#10;vEPRN4QCGeJnI+UjsHleO3xvd5w3CgAAAADIQdk3iCIZYuci7UOwYV67fGd3m7cJAAAAAMhD4TeM&#10;Qhli5yL1g3DCzFpw4k0CAAAAAM6i9BtIsQxxM5H+UXhzZrt9S3eYtwgAAAAAyEvxN5SCGeJmosTj&#10;8MLcdvx27q1e8+Y8AQAAAKAnxd9glp0QMw9lH4yPj48J38l91WvWnCcAAAAA9KX8G0zZDHHzQMIH&#10;0R3l3QEAAAAASlEADqd0hrh5IMlD6F7y3gAAAAAAJSkBUT5D0CwQ/AC6i7wzAAAAAEBpikDWWkpo&#10;iJoFgh4/d5D3BQAAAAAoTxnIlTIaLDrbP3ruHe8KAAAAANCGQpBvlNJg2dnysXPXeE8AAAAAgHaU&#10;gvyPchozYNHZ5pFzv3hHAAAAAIC2Pn0C/ra7MLZUAjrcZcTc6c4ZAAAAAOZSDnJTxAJSYc3k/OMe&#10;MTfOGgAAAAB4noKQuyw7kX3KPGjuDm8FAAAAADCKkpCHFNjIPqkfMveFNwIAAAAAGMn/6OShiELZ&#10;ggnIej8Re1c7cwAAAADgD2UhT1NoI/OkebzcDd4EAAAAAGA8hSEvUWwj84Q+Wu4DbwEAAAAAwIXS&#10;kJcpuJF33AFmwvkDAAAAANEUh/xK1PJH2c2UrGPuzYLzBwAAAADuUx7ya0pvZB2zbgZkAAAAAACI&#10;okDkLcpv5BzzLf9yAAAAAABEUCLyNiU4Mo6Zln1ZAAAAAAB2UyRyiMhFkEKc7hkf8RiZY3mXBQAA&#10;AADgRcpEDqMYR74xu7IuDwAAAADALgpFDqUgR7Yxr3IuEwAAAADADkpFTqEsR6Yxn/ItFwAAAADA&#10;mRSLnMayE5nGXMq1XAAAAAAAZ1EucirLTuQZsyjTsgEAAAAAnEHByOkU6cjy0AfG7MmybAAAAAAA&#10;J/r0CThbdKFtOQXz5p68d6JsAAAAAABHUTayjXIdGR7wqJgzGZYPAAAAAGAThSNbZVgUKdqpnuGU&#10;j4m5klsZAQAAAAA2UzqyncId+W30iJglmZUTAAAAACCI4pEwynfktvgDYn5kVU4AAAAAgEDKR0JZ&#10;diKzBR8OMyOncgIAAAAAJKCEJJxfHSGvRR4MMyKfsgIAAAAAJKKIJAXlPLKa+KEwF7IpLwAAAABA&#10;QspIUlHUI6PJHgmzIJPyAgAAAAAkpZAkHctOZFP+cV8CAAAAADyimCQlv1BCLuUddyQAAAAAwD3K&#10;SdLKtlRS5tN50SnfMig3AAAAAEA1CkrS88slZFGucRcCAAAAAPxNUUkJfsWEHMqx3MkNAAAAAMBX&#10;ykrKyLhkUvjLX8mLX27lTnYAAAAAgAYUlpSj+Efu5FXe5AYAAAAAQHFJSX7dyfS8yaesyQ4AAAAA&#10;MJ3ykrKyLp8sBWRNHnGfAQAAAACcT4FJeRYETMyX/MmY/AAAAAAA0ykyaSHzMsrCQLZkjkrZkh8A&#10;AAAAoAplJm1YdjIpU3ImV/IDAAAAAEyn1KQdC08mZEmu5EmGAAAAAIDpFJu0lH1BZakgQ3IkSzIE&#10;AAAAAPAeBSetWXjSMTeyI0cyBAAAAABg0ckAllZ0yousyJAMAQAAAAD8R9nJGBaeVM6IbMiPHAEA&#10;AAAAfKfwZJQKi4jrcFpIyIccyI0cAQAAAADcpPhkJAtPKmTC2cuMHAEAAAAA3Kb8ZKxKy861LCsm&#10;5cBZy4wcAQAAAAA8pgRlPAtPZ+9s6XZXyBIAAAAAMIEiFC4sPJ2388S9AAAAAABQh0IUvqi21LgO&#10;suVG2XN2djIiRwAAAAAAv6MYhR9YeDpbZyUfZh4AAAAAIDcFKdxRdeG5lgVI1rO+RPHyAAAEn0lE&#10;QVR0LrIhSwAAAAAAx1CSwgOVl51rWYZkOkNnIRdyBAAAAABwHGUpPKn6wnOtmQuSDOdmMSUPcgQA&#10;AAAAcDylKbyow8JzrRlLk+izspiSAzkCAAAAADiP8hR+ycLT+Uz7pjIgSwAAAAAAmShQ4U1dFp5r&#10;9VmqWHKaR7MIAAAAANCfIhUO0mnhuVbNRYsFp9kzdwAAAAAAcyhU4UDdlp3fLovkC5iob28xZdbk&#10;CAAAAAAghmIVTtB54blWvqWMJaeZMksAAAAAAPMoWOFE3Reea8UvaiK+seWU+ZEhAAAAAIB4ilbY&#10;YMLC83qpbFzg7P6ullPmRIYAAAAAAPJQuMJmk5aea5232Nn5HS2nzIIMAQAAAADko3iFINMWntdL&#10;54CFjyWnzE/JOgAAAAAAtylhIdjUhee3i+jJhZAFp2x3yjMAAAAAAO9RxkISFp5fLqa/FkUWnPJb&#10;MbcAAAAAAJxLKQvJWBgFXogWVTIqNwAAAAAAZShnITELpU0XoUWV/MkMAAAAAEA5iloowMLppAvQ&#10;skq2ZAYAAAAAoCyFLRRjMXXQ5TdkYSUvsgIAAAAA0JXyFoqywAq6NAOXXs58zlkDAAAAAPCYEhca&#10;sACDgx5Fy00AAAAAgDIUutCMpSe8+BBabgIAAAAAlKTchaYsPOHBA2jBCQAAAABQmpIXBrD0hMuj&#10;Z7kJAAAAANCGwheGsfRk3ENnuQkAAAAA0JLyFwaz9KTt42a5CQAAAADQniIYuLL4pPSDZrkJAAAA&#10;ADCKUhj4kaUn6R8wi00AAAAAgNGUxMBTLD5J8WhZbgIAAAAAcKEwBl5m6cm2R8piEwAAAACAGxTI&#10;wNssPjnsUbLYBAAAAADgSQpl4BSWnzz1CFlsAgAAAADwSwpmYAuLTyw1AQAAAAA4ktIZCGP52fyB&#10;sdgEAAAAAOBESmggFcvPgg+JhSYAAAAAAAGU00AZlqDBD4aFJgAAAAAAiSitgRYsQQ98GCw0AQAA&#10;AAAoQJkNjGARern0LTEBAAAAAGhC4Q3wg0qLUctLAAAAAAAAAAAAAAAAAAAAAAAAAAAAAAAAAAAA&#10;AAAAAAAAAAAAAAAAAAAAAAAAAAAAAAAAAAAAAAAAAAAAAAAAAAAAAAAAAAAAAAAAAAAAAAAAAAAA&#10;AAAAAAAAAAAAAAAAAAAAAAAAAAAAAAAAAAAAAAAAAAAAAAAAAAAAAAAAAAAAAAAAAAAAAAAAAAAA&#10;AAAAAAAAAAAAAAAAAAAAAAAAAAAAAAAAAAAAAAAAAAAAAAAAAAAAAAAAAAAAAAAAAAAAAAAAAAAA&#10;AAAAAAAAAAAAAAAAAAAAAAAAAAAAAAAAAAAAAAAAAAAAAAAAAAAAAAAAAAAAAAAAAAAAAAAAAAAA&#10;AAAAAAAAAAAAAAAAAAAAAAAAAAAAAAAAAAAAAAAAAAAAAAAAAAAAAAAAAAAAAAAAAAAAAAAAAAAA&#10;AAAAAAAAAAAAAAAAAAAAAAAAAAAAAAAAAAAAAAAAAAAAAAAAAAAAAAAAAAAAAAAAAAAAAAAAAAAA&#10;AAAAAAAAAAAAAAAAAAAAAAAAAAAAAAAAAAAAAAAAAAAAAAAAAIBz/QtoJ6IicAwMswAAAABJRU5E&#10;rkJggg==&#10;"
       id="image1" />
  </g>
</svg>
